%!PS-Adobe-3.0 EPSF-3.0
%%Title: dp-0_1.eps
%%Creator: matplotlib version 1.4.3, http://matplotlib.org/
%%CreationDate: Tue Nov 10 00:01:36 2015
%%Orientation: portrait
%%BoundingBox: 18 180 594 612
%%EndComments
%%BeginProlog
/mpldict 10 dict def
mpldict begin
/m { moveto } bind def
/l { lineto } bind def
/r { rlineto } bind def
/c { curveto } bind def
/cl { closepath } bind def
/box {
m
1 index 0 r
0 exch r
neg 0 r
cl
} bind def
/clipbox {
box
clip
newpath
} bind def
%!PS-Adobe-3.0 Resource-Font
%%Title: cmr10
%%Copyright: Copyright (C) 1994, Basil K. Malyshev. All Rights Reserved.012BaKoMa Fonts Collection, Level-B.
%%Creator: Converted from TrueType to type 3 by PPR
25 dict begin
/_d{bind def}bind def
/_m{moveto}_d
/_l{lineto}_d
/_cl{closepath eofill}_d
/_c{curveto}_d
/_sc{7 -1 roll{setcachedevice}{pop pop pop pop pop pop}ifelse}_d
/_e{exec}_d
/FontName /Cmr10 def
/PaintType 0 def
/FontMatrix[.001 0 0 .001 0 0]def
/FontBBox[-44 -250 1009 750]def
/FontType 3 def
/Encoding [ /Delta /zero /equal /two /one ] def
/FontInfo 10 dict dup begin
/FamilyName (cmr10) def
/FullName (cmr10) def
/Notice (Copyright (C) 1994, Basil K. Malyshev. All Rights Reserved.012BaKoMa Fonts Collection, Level-B. ) def
/Weight (Regular) def
/Version (1.1/12-Nov-94) def
/ItalicAngle 0.0 def
/isFixedPitch false def
/UnderlinePosition -133 def
/UnderlineThickness 20 def
end readonly def
/CharStrings 5 dict dup begin
/Delta{833 0 46 0 786 716 _sc
54 0 _m
48 0 46 2 46 8 _c
46 8 46 9 46 9 _c
46 9 47 10 47 11 _c
391 705 _l
394 712 400 716 409 716 _c
423 716 _l
432 716 438 712 441 705 _c
785 11 _l
785 10 786 9 786 9 _c
786 9 786 8 786 8 _c
786 2 783 0 778 0 _c
54 0 _l
120 80 _m
647 80 _l
384 611 _l
120 80 _l
_cl}_d
/zero{{500 0 39 -21 460 666 _sc
250 -21 _m
168 -21 112 12 83 79 _c
53 146 39 226 39 319 _c
39 377 44 431 55 482 _c
65 533 86 576 118 612 _c
149 648 193 666 250 666 _c
294 666 330 655 358 634 _c
386 612 407 585 422 551 _c
436 517 446 480 452 441 _c
457 402 460 361 460 319 _c
460 261 454 208 444 158 _c
433 108 412 65 381 31 _c
350 -3 306 -21 250 -21 _c
250 4 _m
}_e{287 4 315 23 333 61 _c
351 99 362 141 366 187 _c
370 233 373 283 373 335 _c
373 385 370 431 366 473 _c
362 515 351 554 333 588 _c
315 622 287 640 250 640 _c
212 640 184 622 166 588 _c
148 554 136 515 132 473 _c
128 431 126 385 126 335 _c
126 297 126 262 128 230 _c
130 197 135 163 143 128 _c
151 93 163 64 181 40 _c
198 16 221 4 250 4 _c
_cl}_e}_d
/equal{{777 0 56 133 721 367 _sc
75 133 _m
69 133 65 135 61 139 _c
57 143 56 148 56 153 _c
56 158 57 163 61 167 _c
65 171 69 173 75 173 _c
703 173 _l
707 173 711 171 715 167 _c
719 163 721 158 721 153 _c
721 148 719 143 715 139 _c
711 135 707 133 703 133 _c
75 133 _l
75 327 _m
69 327 65 329 61 333 _c
57 337 56 341 56 347 _c
56 351 57 356 61 360 _c
}_e{65 364 69 367 75 367 _c
703 367 _l
707 367 711 364 715 360 _c
719 356 721 351 721 347 _c
721 341 719 337 715 333 _c
711 329 707 327 703 327 _c
75 327 _l
_cl}_e}_d
/two{{500 0 50 0 449 666 _sc
50 0 _m
50 27 _l
50 28 50 30 52 32 _c
207 204 _l
230 229 249 250 264 268 _c
278 285 293 305 307 327 _c
321 349 333 372 341 396 _c
349 419 354 444 354 470 _c
354 497 349 523 339 548 _c
329 573 314 593 294 608 _c
274 623 249 631 221 631 _c
192 631 166 622 143 605 _c
119 587 103 565 94 537 _c
96 537 100 538 105 538 _c
}_e{119 538 132 533 143 523 _c
153 513 159 500 159 484 _c
159 468 153 455 143 445 _c
132 434 119 429 105 429 _c
89 429 76 434 66 445 _c
55 456 50 469 50 484 _c
50 508 54 532 64 554 _c
73 576 86 595 104 613 _c
122 630 142 643 164 652 _c
186 661 210 666 236 666 _c
274 666 309 658 342 642 _c
375 626 401 603 420 573 _c
439 543 449 509 449 470 _c
}_e{449 441 442 414 430 388 _c
417 362 401 338 381 317 _c
361 295 336 271 305 244 _c
274 217 254 199 244 190 _c
131 81 _l
227 81 _l
274 81 313 81 345 82 _c
377 82 394 84 396 86 _c
404 94 412 125 420 178 _c
449 178 _l
421 0 _l
50 0 _l
_cl}_e}_d
/one{500 0 87 0 421 666 _sc
93 0 _m
93 35 _l
176 35 218 45 218 67 _c
218 592 _l
183 575 139 567 87 567 _c
87 602 _l
168 602 230 623 272 666 _c
286 666 _l
288 666 291 665 293 663 _c
295 661 296 659 296 657 _c
296 67 _l
296 45 337 35 421 35 _c
421 0 _l
93 0 _l
_cl}_d
end readonly def

/BuildGlyph
 {exch begin
 CharStrings exch
 2 copy known not{pop /.notdef}if
 true 3 1 roll get exec
 end}_d

/BuildChar {
 1 index /Encoding get exch get
 1 index /BuildGlyph get exec
}_d

FontName currentdict end definefont pop
%!PS-Adobe-3.0 Resource-Font
%%Title: cmmi10
%%Copyright: Copyright (C) 1994, Basil K. Malyshev. All Rights Reserved.012BaKoMa Fonts Collection, Level-B.
%%Creator: Converted from TrueType to type 3 by PPR
25 dict begin
/_d{bind def}bind def
/_m{moveto}_d
/_l{lineto}_d
/_cl{closepath eofill}_d
/_c{curveto}_d
/_sc{7 -1 roll{setcachedevice}{pop pop pop pop pop pop}ifelse}_d
/_e{exec}_d
/FontName /Cmmi10 def
/PaintType 0 def
/FontMatrix[.001 0 0 .001 0 0]def
/FontBBox[-34 -250 1048 750]def
/FontType 3 def
/Encoding [ /theta /t /period /s ] def
/FontInfo 10 dict dup begin
/FamilyName (cmmi10) def
/FullName (cmmi10) def
/Notice (Copyright (C) 1994, Basil K. Malyshev. All Rights Reserved.012BaKoMa Fonts Collection, Level-B. ) def
/Weight (Regular) def
/Version (1.1/12-Nov-94) def
/ItalicAngle 0.0 def
/isFixedPitch false def
/UnderlinePosition -133 def
/UnderlineThickness 20 def
end readonly def
/CharStrings 4 dict dup begin
/theta{{469 0 40 -10 457 705 _sc
161 -10 _m
131 -10 106 0 88 22 _c
70 44 57 70 50 102 _c
43 133 40 164 40 195 _c
40 196 _l
40 229 43 263 49 299 _c
55 335 65 370 77 406 _c
89 442 102 474 116 502 _c
126 521 138 543 154 567 _c
169 591 186 614 205 635 _c
224 656 245 673 267 686 _c
289 698 311 705 334 705 _c
335 705 _l
359 705 379 698 395 685 _c
}_e{411 671 423 654 432 634 _c
441 613 447 591 451 567 _c
455 543 457 520 457 499 _c
457 448 450 396 436 344 _c
422 292 404 241 380 192 _c
370 173 358 151 342 126 _c
326 101 309 79 291 59 _c
273 39 252 22 230 9 _c
207 -3 184 -10 162 -10 _c
161 -10 _l
163 15 _m
185 15 206 26 226 50 _c
246 74 264 102 280 136 _c
295 170 308 204 320 240 _c
332 275 340 305 346 330 _c
}_e{142 330 _l
131 288 123 251 117 221 _c
111 191 109 161 109 132 _c
109 54 127 15 163 15 _c
150 365 _m
355 365 _l
362 394 368 418 372 438 _c
376 458 379 479 382 501 _c
385 523 387 543 387 562 _c
387 640 369 679 334 679 _c
292 679 255 645 224 577 _c
193 509 168 438 150 365 _c
_cl}_e}_d
/t{{361 0 22 -10 330 626 _sc
62 81 _m
62 91 63 100 65 109 _c
137 396 _l
32 396 _l
25 396 22 400 22 409 _c
24 423 29 431 35 431 _c
146 431 _l
186 594 _l
188 602 193 610 201 616 _c
209 622 218 626 228 626 _c
236 626 243 623 249 618 _c
255 613 258 606 258 598 _c
258 596 257 594 257 593 _c
257 592 257 591 257 590 _c
217 431 _l
320 431 _l
326 431 330 426 330 418 _c
}_e{330 416 329 414 328 410 _c
327 406 326 402 324 400 _c
322 397 320 396 317 396 _c
208 396 _l
136 107 _l
131 88 129 72 129 58 _c
129 29 138 15 158 15 _c
187 15 213 28 236 56 _c
258 84 276 114 288 147 _c
290 151 293 153 296 153 _c
308 153 _l
310 153 312 152 314 150 _c
316 148 317 146 317 144 _c
317 142 316 141 316 141 _c
301 101 280 65 252 35 _c
}_e{224 5 192 -10 156 -10 _c
129 -10 107 -1 89 15 _c
71 32 62 54 62 81 _c
_cl}_e}_d
/period{277 0 84 0 194 110 _sc
84 55 _m
84 70 89 83 100 94 _c
111 104 124 110 139 110 _c
148 110 157 107 166 102 _c
174 97 181 90 186 82 _c
191 73 194 64 194 55 _c
194 40 188 27 178 16 _c
167 5 154 0 139 0 _c
124 0 111 5 100 16 _c
89 27 84 40 84 55 _c
_cl}_d
/s{{468 0 52 -10 419 442 _sc
87 61 _m
105 30 141 15 195 15 _c
218 15 240 19 261 27 _c
282 35 300 47 314 63 _c
328 79 335 98 335 121 _c
335 138 328 152 316 163 _c
304 174 289 182 271 186 _c
217 197 _l
192 203 172 214 156 231 _c
140 248 132 269 132 293 _c
132 322 140 348 156 371 _c
172 394 193 412 219 424 _c
245 436 273 442 302 442 _c
332 442 359 434 383 420 _c
}_e{407 405 419 384 419 356 _c
419 340 414 327 406 315 _c
397 303 385 298 370 298 _c
361 298 353 300 347 306 _c
341 312 338 319 338 328 _c
338 336 340 343 344 351 _c
348 358 354 364 362 368 _c
369 372 377 375 385 375 _c
379 389 368 399 352 406 _c
336 412 318 416 300 416 _c
282 416 265 412 249 406 _c
232 399 218 389 208 376 _c
198 362 193 347 193 329 _c
}_e{193 317 197 306 205 297 _c
213 288 224 282 237 278 _c
295 266 _l
313 262 330 255 346 245 _c
361 235 373 222 382 207 _c
391 192 396 175 396 156 _c
396 131 389 106 375 82 _c
361 58 344 39 324 25 _c
288 1 245 -10 194 -10 _c
158 -10 126 -2 96 14 _c
66 30 52 54 52 86 _c
52 104 57 119 67 133 _c
77 147 92 154 111 154 _c
121 154 130 150 138 144 _c
}_e{145 137 149 128 149 118 _c
149 102 143 89 132 78 _c
120 66 107 61 92 61 _c
87 61 _l
_cl}_e}_d
end readonly def

/BuildGlyph
 {exch begin
 CharStrings exch
 2 copy known not{pop /.notdef}if
 true 3 1 roll get exec
 end}_d

/BuildChar {
 1 index /Encoding get exch get
 1 index /BuildGlyph get exec
}_d

FontName currentdict end definefont pop
%!PS-Adobe-3.0 Resource-Font
%%Title: Bitstream Vera Sans
%%Copyright: Copyright (c) 2003 by Bitstream, Inc. All Rights Reserved.
%%Creator: Converted from TrueType to type 3 by PPR
25 dict begin
/_d{bind def}bind def
/_m{moveto}_d
/_l{lineto}_d
/_cl{closepath eofill}_d
/_c{curveto}_d
/_sc{7 -1 roll{setcachedevice}{pop pop pop pop pop pop}ifelse}_d
/_e{exec}_d
/FontName /BitstreamVeraSans-Roman def
/PaintType 0 def
/FontMatrix[.001 0 0 .001 0 0]def
/FontBBox[-183 -236 1287 928]def
/FontType 3 def
/Encoding [ /space /period /slash /zero /one /two /four /five /a /d /e /i /m /r /t /minus ] def
/FontInfo 10 dict dup begin
/FamilyName (Bitstream Vera Sans) def
/FullName (Bitstream Vera Sans) def
/Notice (Copyright (c) 2003 by Bitstream, Inc. All Rights Reserved. Bitstream Vera is a trademark of Bitstream, Inc.) def
/Weight (Roman) def
/Version (Release 1.10) def
/ItalicAngle 0.0 def
/isFixedPitch false def
/UnderlinePosition -213 def
/UnderlineThickness 143 def
end readonly def
/CharStrings 16 dict dup begin
/space{318 0 0 0 0 0 _sc
}_d
/period{318 0 107 0 210 124 _sc
107 124 _m
210 124 _l
210 0 _l
107 0 _l
107 124 _l
_cl}_d
/slash{337 0 0 -92 337 729 _sc
254 729 _m
337 729 _l
83 -92 _l
0 -92 _l
254 729 _l
_cl}_d
/zero{636 0 66 -13 570 742 _sc
318 664 _m
267 664 229 639 203 589 _c
177 539 165 464 165 364 _c
165 264 177 189 203 139 _c
229 89 267 64 318 64 _c
369 64 407 89 433 139 _c
458 189 471 264 471 364 _c
471 464 458 539 433 589 _c
407 639 369 664 318 664 _c
318 742 _m
399 742 461 709 505 645 _c
548 580 570 486 570 364 _c
570 241 548 147 505 83 _c
461 19 399 -13 318 -13 _c
236 -13 173 19 130 83 _c
87 147 66 241 66 364 _c
66 486 87 580 130 645 _c
173 709 236 742 318 742 _c
_cl}_d
/one{636 0 110 0 544 729 _sc
124 83 _m
285 83 _l
285 639 _l
110 604 _l
110 694 _l
284 729 _l
383 729 _l
383 83 _l
544 83 _l
544 0 _l
124 0 _l
124 83 _l
_cl}_d
/two{{636 0 73 0 536 742 _sc
192 83 _m
536 83 _l
536 0 _l
73 0 _l
73 83 _l
110 121 161 173 226 239 _c
290 304 331 346 348 365 _c
380 400 402 430 414 455 _c
426 479 433 504 433 528 _c
433 566 419 598 392 622 _c
365 646 330 659 286 659 _c
255 659 222 653 188 643 _c
154 632 117 616 78 594 _c
78 694 _l
118 710 155 722 189 730 _c
223 738 255 742 284 742 _c
}_e{359 742 419 723 464 685 _c
509 647 532 597 532 534 _c
532 504 526 475 515 449 _c
504 422 484 390 454 354 _c
446 344 420 317 376 272 _c
332 227 271 164 192 83 _c
_cl}_e}_d
/four{636 0 49 0 580 729 _sc
378 643 _m
129 254 _l
378 254 _l
378 643 _l
352 729 _m
476 729 _l
476 254 _l
580 254 _l
580 172 _l
476 172 _l
476 0 _l
378 0 _l
378 172 _l
49 172 _l
49 267 _l
352 729 _l
_cl}_d
/five{{636 0 77 -13 549 729 _sc
108 729 _m
495 729 _l
495 646 _l
198 646 _l
198 467 _l
212 472 227 476 241 478 _c
255 480 270 482 284 482 _c
365 482 429 459 477 415 _c
525 370 549 310 549 234 _c
549 155 524 94 475 51 _c
426 8 357 -13 269 -13 _c
238 -13 207 -10 175 -6 _c
143 -1 111 6 77 17 _c
77 116 _l
106 100 136 88 168 80 _c
199 72 232 69 267 69 _c
}_e{323 69 368 83 401 113 _c
433 143 450 183 450 234 _c
450 284 433 324 401 354 _c
368 384 323 399 267 399 _c
241 399 214 396 188 390 _c
162 384 135 375 108 363 _c
108 729 _l
_cl}_e}_d
/a{{613 0 60 -13 522 560 _sc
343 275 _m
270 275 220 266 192 250 _c
164 233 150 205 150 165 _c
150 133 160 107 181 89 _c
202 70 231 61 267 61 _c
317 61 357 78 387 114 _c
417 149 432 196 432 255 _c
432 275 _l
343 275 _l
522 312 _m
522 0 _l
432 0 _l
432 83 _l
411 49 385 25 355 10 _c
325 -5 287 -13 243 -13 _c
187 -13 142 2 109 33 _c
76 64 60 106 60 159 _c
}_e{60 220 80 266 122 298 _c
163 329 224 345 306 345 _c
432 345 _l
432 354 _l
432 395 418 427 391 450 _c
364 472 326 484 277 484 _c
245 484 215 480 185 472 _c
155 464 127 453 100 439 _c
100 522 _l
132 534 164 544 195 550 _c
226 556 256 560 286 560 _c
365 560 424 539 463 498 _c
502 457 522 395 522 312 _c
_cl}_e}_d
/d{{635 0 55 -13 544 760 _sc
454 464 _m
454 760 _l
544 760 _l
544 0 _l
454 0 _l
454 82 _l
435 49 411 25 382 10 _c
353 -5 319 -13 279 -13 _c
213 -13 159 13 117 65 _c
75 117 55 187 55 273 _c
55 359 75 428 117 481 _c
159 533 213 560 279 560 _c
319 560 353 552 382 536 _c
411 520 435 496 454 464 _c
148 273 _m
148 207 161 155 188 117 _c
215 79 253 61 301 61 _c
}_e{348 61 385 79 413 117 _c
440 155 454 207 454 273 _c
454 339 440 390 413 428 _c
385 466 348 485 301 485 _c
253 485 215 466 188 428 _c
161 390 148 339 148 273 _c
_cl}_e}_d
/e{{615 0 55 -13 562 560 _sc
562 296 _m
562 252 _l
149 252 _l
153 190 171 142 205 110 _c
238 78 284 62 344 62 _c
378 62 412 66 444 74 _c
476 82 509 95 541 113 _c
541 28 _l
509 14 476 3 442 -3 _c
408 -9 373 -13 339 -13 _c
251 -13 182 12 131 62 _c
80 112 55 181 55 268 _c
55 357 79 428 127 481 _c
175 533 241 560 323 560 _c
397 560 455 536 498 489 _c
}_e{540 441 562 377 562 296 _c
472 322 _m
471 371 457 410 431 440 _c
404 469 368 484 324 484 _c
274 484 234 469 204 441 _c
174 413 156 373 152 322 _c
472 322 _l
_cl}_e}_d
/i{278 0 94 0 184 760 _sc
94 547 _m
184 547 _l
184 0 _l
94 0 _l
94 547 _l
94 760 _m
184 760 _l
184 646 _l
94 646 _l
94 760 _l
_cl}_d
/m{{974 0 91 0 889 560 _sc
520 442 _m
542 482 569 511 600 531 _c
631 550 668 560 711 560 _c
767 560 811 540 842 500 _c
873 460 889 403 889 330 _c
889 0 _l
799 0 _l
799 327 _l
799 379 789 418 771 444 _c
752 469 724 482 686 482 _c
639 482 602 466 575 435 _c
548 404 535 362 535 309 _c
535 0 _l
445 0 _l
445 327 _l
445 379 435 418 417 444 _c
398 469 369 482 331 482 _c
}_e{285 482 248 466 221 435 _c
194 404 181 362 181 309 _c
181 0 _l
91 0 _l
91 547 _l
181 547 _l
181 462 _l
201 495 226 520 255 536 _c
283 552 317 560 357 560 _c
397 560 430 550 458 530 _c
486 510 506 480 520 442 _c
_cl}_e}_d
/r{411 0 91 0 411 560 _sc
411 463 _m
401 469 390 473 378 476 _c
366 478 353 480 339 480 _c
288 480 249 463 222 430 _c
194 397 181 350 181 288 _c
181 0 _l
91 0 _l
91 547 _l
181 547 _l
181 462 _l
199 495 224 520 254 536 _c
284 552 321 560 365 560 _c
371 560 378 559 386 559 _c
393 558 401 557 411 555 _c
411 463 _l
_cl}_d
/t{392 0 27 0 368 702 _sc
183 702 _m
183 547 _l
368 547 _l
368 477 _l
183 477 _l
183 180 _l
183 135 189 106 201 94 _c
213 81 238 75 276 75 _c
368 75 _l
368 0 _l
276 0 _l
206 0 158 13 132 39 _c
106 65 93 112 93 180 _c
93 477 _l
27 477 _l
27 547 _l
93 547 _l
93 702 _l
183 702 _l
_cl}_d
/minus{838 0 106 272 732 355 _sc
106 355 _m
732 355 _l
732 272 _l
106 272 _l
106 355 _l
_cl}_d
end readonly def

/BuildGlyph
 {exch begin
 CharStrings exch
 2 copy known not{pop /.notdef}if
 true 3 1 roll get exec
 end}_d

/BuildChar {
 1 index /Encoding get exch get
 1 index /BuildGlyph get exec
}_d

FontName currentdict end definefont pop
end
%%EndProlog
mpldict begin
18 180 translate
576 432 0 0 clipbox
gsave
0 0 m
576 0 l
576 432 l
0 432 l
cl
1.000 setgray
fill
grestore
gsave
72 43.2 m
518.4 43.2 l
518.4 388.8 l
72 388.8 l
cl
1.000 setgray
fill
grestore
1.000 setlinewidth
1 setlinejoin
2 setlinecap
[] 0 setdash
0.000 0.000 1.000 setrgbcolor
gsave
446.4 345.6 72 43.2 clipbox
72 285.12 m
72.1272 285.011 l
72.3102 284.473 l
72.5826 282.871 l
72.9642 279.13 l
73.4843 271.594 l
74.2275 257.206 l
76.6984 206.769 l
77.2809 200.109 l
77.7117 197.362 l
78.0085 196.609 l
78.1782 196.601 l
78.3456 196.89 l
78.5911 197.84 l
78.9348 200.18 l
79.3991 205.052 l
80.033 214.317 l
81.1066 233.895 l
82.2962 254.3 l
82.9167 261.482 l
83.3497 264.3 l
83.6354 265.012 l
83.7872 264.994 l
83.9479 264.664 l
84.1867 263.573 l
84.5148 260.882 l
84.9389 255.361 l
85.4768 245.166 l
86.1665 227.46 l
87.1486 195.821 l
89.1819 129.365 l
89.8739 114.204 l
90.3761 107.439 l
90.7309 105.131 l
90.943 104.791 l
91.0568 104.939 l
91.2331 105.63 l
91.4943 107.691 l
91.8492 112.487 l
92.3067 122.002 l
92.8848 139.086 l
93.6303 168.312 l
94.7285 221.248 l
96.6346 312.968 l
97.4113 339.742 l
97.9939 353.01 l
98.4269 358.548 l
98.7237 360.096 l
98.8443 360.192 l
98.8777 360.164 l
99.005 359.841 l
99.2103 358.593 l
99.5072 355.218 l
99.9045 347.863 l
100.418 333.808 l
101.078 309.033 l
101.982 265.903 l
104.826 124.107 l
105.525 102.443 l
106.063 91.8552 l
106.464 87.6465 l
106.734 86.6222 l
106.837 86.6119 l
106.864 86.6433 l
107.007 87.0477 l
107.232 88.4876 l
107.554 92.1903 l
107.984 100.026 l
108.549 114.761 l
109.312 141.09 l
110.658 196.811 l
112 248.817 l
112.79 271.462 l
113.397 283.152 l
113.866 288.459 l
114.209 290.266 l
114.419 290.519 l
114.549 290.362 l
114.745 289.68 l
115.035 287.735 l
115.437 283.34 l
115.984 274.632 l
116.774 258.059 l
119.057 208.162 l
119.684 199.857 l
120.153 196.213 l
120.486 195.048 l
120.689 194.921 l
120.841 195.114 l
121.064 195.833 l
121.381 197.716 l
121.814 201.792 l
122.403 209.689 l
123.323 225.464 l
124.771 249.906 l
125.385 256.73 l
125.814 259.395 l
126.095 260.056 l
126.247 260.03 l
126.412 259.688 l
126.653 258.588 l
126.983 255.907 l
127.412 250.413 l
127.956 240.284 l
128.657 222.707 l
129.684 190.628 l
131.501 133.858 l
132.204 118.74 l
132.713 111.968 l
133.072 109.638 l
133.288 109.282 l
133.402 109.42 l
133.579 110.084 l
133.84 112.083 l
134.195 116.748 l
134.652 126.029 l
135.228 142.651 l
135.969 171.052 l
137.056 222.359 l
138.991 313.734 l
139.764 339.706 l
140.339 352.44 l
140.768 357.713 l
141.058 359.132 l
141.172 359.205 l
141.205 359.174 l
141.337 358.823 l
141.547 357.506 l
141.848 353.996 l
142.25 346.415 l
142.768 332.017 l
143.433 306.757 l
144.346 262.742 l
147.138 122.277 l
147.841 100.021 l
148.384 89.0759 l
148.79 84.6938 l
149.062 83.6192 l
149.165 83.6012 l
149.194 83.6344 l
149.334 84.032 l
149.558 85.4614 l
149.877 89.163 l
150.305 97.0423 l
150.865 111.871 l
151.615 138.206 l
152.868 191.407 l
154.341 251.259 l
155.144 275.406 l
155.758 287.87 l
156.233 293.597 l
156.582 295.582 l
156.798 295.89 l
156.923 295.753 l
157.111 295.126 l
157.39 293.292 l
157.778 289.071 l
158.305 280.64 l
159.048 264.762 l
161.733 203.958 l
162.32 196.683 l
162.762 193.587 l
163.07 192.688 l
163.251 192.641 l
163.412 192.892 l
163.648 193.752 l
163.985 195.935 l
164.443 200.532 l
165.077 209.404 l
166.235 229.461 l
167.286 246.029 l
167.887 252.357 l
168.306 254.785 l
168.579 255.352 l
168.726 255.307 l
168.896 254.94 l
169.143 253.787 l
169.483 251.003 l
169.922 245.341 l
170.48 234.991 l
171.206 217 l
172.335 182.598 l
173.842 138.044 l
174.551 123.23 l
175.063 116.609 l
175.422 114.33 l
175.641 113.974 l
175.757 114.112 l
175.933 114.764 l
176.194 116.718 l
176.549 121.278 l
177.004 130.297 l
177.58 146.534 l
178.319 174.217 l
179.402 224.217 l
181.341 313.914 l
182.109 339.141 l
182.68 351.449 l
183.104 356.499 l
183.39 357.826 l
183.5 357.883 l
183.533 357.85 l
183.667 357.482 l
183.879 356.128 l
184.183 352.553 l
184.589 344.816 l
185.109 330.242 l
185.776 304.733 l
186.694 260.252 l
189.47 119.868 l
190.175 97.3769 l
190.718 86.3629 l
191.122 81.9818 l
191.394 80.9076 l
191.495 80.8929 l
191.524 80.9267 l
191.664 81.3314 l
191.887 82.7845 l
192.207 86.5489 l
192.633 94.5204 l
193.191 109.556 l
193.934 136.185 l
195.139 188.69 l
196.704 254.633 l
197.512 279.779 l
198.13 292.802 l
198.608 298.782 l
198.958 300.866 l
199.177 301.193 l
199.3 301.056 l
199.485 300.425 l
199.762 298.564 l
200.146 294.282 l
200.666 285.71 l
201.391 269.666 l
204.326 200.32 l
204.896 193.434 l
205.324 190.568 l
205.621 189.78 l
205.791 189.766 l
205.956 190.049 l
206.201 190.997 l
206.547 193.344 l
207.02 198.26 l
207.683 207.739 l
210.241 246.933 l
210.699 250.028 l
211.007 250.903 l
211.181 250.935 l
211.339 250.664 l
211.571 249.74 l
211.893 247.415 l
212.312 242.562 l
212.848 233.516 l
213.542 217.657 l
214.576 188.256 l
216.268 140.498 l
216.962 126.988 l
217.459 121.066 l
217.808 119.105 l
218.006 118.849 l
218.013 118.851 l
218.134 119.024 l
218.321 119.775 l
218.593 121.922 l
218.959 126.792 l
219.428 136.296 l
220.02 153.221 l
220.785 182.106 l
221.955 235.877 l
223.64 311.825 l
224.417 337.234 l
224.995 349.687 l
225.423 354.812 l
225.711 356.168 l
225.823 356.232 l
225.856 356.201 l
225.988 355.851 l
226.198 354.544 l
226.499 351.065 l
226.901 343.543 l
227.416 329.301 l
228.077 304.333 l
228.977 261.049 l
231.88 114.718 l
232.568 93.5152 l
233.095 83.3083 l
233.485 79.3654 l
233.742 78.4876 l
233.845 78.5167 l
233.858 78.5364 l
234.003 78.985 l
234.231 80.5474 l
234.554 84.5303 l
234.987 92.9374 l
235.55 108.619 l
236.3 136.346 l
237.518 191.025 l
239.072 258.335 l
239.882 284.295 l
240.5 297.717 l
240.98 303.914 l
241.331 306.061 l
241.549 306.397 l
241.67 306.26 l
241.853 305.624 l
242.128 303.735 l
242.509 299.362 l
243.023 290.641 l
243.735 274.334 l
245.112 236.356 l
246.241 208.206 l
246.953 195.505 l
247.493 189.377 l
247.897 186.938 l
248.172 186.337 l
248.326 186.368 l
248.5 186.714 l
248.757 187.803 l
249.118 190.435 l
249.614 195.869 l
250.323 206.403 l
252.542 241.06 l
253.058 245.304 l
253.415 246.732 l
253.633 246.936 l
253.776 246.783 l
253.982 246.158 l
254.272 244.452 l
254.658 240.689 l
255.153 233.454 l
255.792 220.562 l
256.689 197.409 l
258.847 140.16 l
259.479 129.625 l
259.934 125.221 l
260.242 123.968 l
260.387 123.888 l
260.408 123.904 l
260.546 124.186 l
260.758 125.223 l
261.059 127.97 l
261.457 133.881 l
261.961 145.048 l
262.597 164.515 l
263.439 197.744 l
266.695 334.233 l
267.287 347.229 l
267.724 352.653 l
268.023 354.166 l
268.146 354.258 l
268.177 354.231 l
268.307 353.907 l
268.514 352.662 l
268.811 349.335 l
269.208 342.081 l
269.719 328.245 l
270.371 304.009 l
271.251 262.193 l
274.304 109.372 l
274.969 89.7596 l
275.478 80.4922 l
275.853 77.0543 l
276.092 76.3905 l
276.197 76.474 l
276.349 76.9973 l
276.585 78.7526 l
276.918 83.1088 l
277.36 92.1447 l
277.935 108.939 l
278.703 138.479 l
279.993 198.275 l
281.449 262.527 l
282.257 288.994 l
282.875 302.699 l
283.353 308.981 l
283.701 311.145 l
283.917 311.476 l
284.036 311.335 l
284.219 310.678 l
284.493 308.725 l
284.875 304.197 l
285.386 295.194 l
286.089 278.458 l
287.343 242.159 l
288.611 207.913 l
289.352 193.43 l
289.915 186.297 l
290.341 183.316 l
290.638 182.488 l
290.807 182.467 l
290.97 182.747 l
291.214 183.694 l
291.56 186.068 l
292.033 191.038 l
292.705 200.726 l
295.173 238.718 l
295.653 242.189 l
295.981 243.253 l
296.173 243.345 l
296.325 243.132 l
296.546 242.362 l
296.856 240.358 l
297.265 236.093 l
297.791 228.014 l
298.481 213.663 l
299.543 186.211 l
301.061 147.89 l
301.742 135.988 l
302.229 130.851 l
302.563 129.228 l
302.746 129.048 l
302.758 129.054 l
302.887 129.261 l
303.086 130.091 l
303.371 132.39 l
303.751 137.469 l
304.235 147.255 l
304.844 164.487 l
305.639 193.855 l
306.954 252.195 l
308.36 311.353 l
309.125 334.89 l
309.69 346.222 l
310.108 350.794 l
310.384 351.927 l
310.487 351.953 l
310.518 351.919 l
310.657 351.525 l
310.875 350.101 l
311.186 346.403 l
311.596 338.533 l
312.121 323.795 l
312.793 298.082 l
313.712 253.457 l
316.491 112.862 l
317.19 90.6489 l
317.725 79.8517 l
318.123 75.6276 l
318.386 74.6486 l
318.482 74.6538 l
318.507 74.6862 l
318.647 75.1136 l
318.87 76.6326 l
319.19 80.5614 l
319.614 88.8441 l
320.165 104.394 l
320.893 131.813 l
322.004 183.301 l
323.819 266.597 l
324.624 293.547 l
325.24 307.489 l
325.716 313.873 l
326.064 316.077 l
326.278 316.404 l
326.397 316.256 l
326.58 315.574 l
326.854 313.551 l
327.234 308.896 l
327.743 299.621 l
328.437 282.481 l
329.611 246.97 l
331.012 206.505 l
331.771 190.601 l
332.347 182.676 l
332.787 179.263 l
333.099 178.242 l
333.282 178.174 l
333.436 178.413 l
333.669 179.263 l
334.001 181.453 l
334.459 186.129 l
335.101 195.252 l
336.467 218.832 l
337.367 232.117 l
337.943 237.707 l
338.349 239.818 l
338.612 240.284 l
338.76 240.221 l
338.941 239.819 l
339.202 238.606 l
339.557 235.761 l
340.019 230.066 l
340.619 219.632 l
341.452 200.841 l
343.777 146.177 l
344.362 138.166 l
344.777 135.061 l
345.047 134.333 l
345.183 134.372 l
345.34 134.762 l
345.574 136.05 l
345.898 139.232 l
346.319 145.826 l
346.853 157.999 l
347.529 178.992 l
348.453 215.34 l
351.047 321.3 l
351.719 338.465 l
352.219 346.269 l
352.574 348.948 l
352.79 349.361 l
352.897 349.217 l
353.067 348.515 l
353.324 346.342 l
353.674 341.233 l
354.129 330.995 l
354.71 312.447 l
355.462 280.601 l
356.589 222.132 l
358.437 126.97 l
359.234 97.1856 l
359.836 82.0792 l
360.292 75.4692 l
360.613 73.4097 l
360.772 73.1973 l
360.796 73.2119 l
360.915 73.4599 l
361.109 74.5028 l
361.392 77.4245 l
361.778 83.9937 l
362.281 96.7184 l
362.935 119.476 l
363.845 159.779 l
366.535 283.659 l
367.253 304.876 l
367.809 315.455 l
368.231 319.871 l
368.523 321.088 l
368.653 321.151 l
368.68 321.128 l
368.82 320.807 l
369.041 319.635 l
369.358 316.585 l
369.789 310.033 l
370.365 297.516 l
371.175 274.501 l
373.898 193.123 l
374.552 181.504 l
375.056 176.012 l
375.431 173.959 l
375.679 173.541 l
375.818 173.623 l
376.001 174.07 l
376.273 175.415 l
376.655 178.566 l
377.179 184.955 l
377.956 197.485 l
379.86 229.089 l
380.445 234.968 l
380.86 237.24 l
381.134 237.779 l
381.286 237.734 l
381.462 237.37 l
381.719 236.238 l
382.069 233.553 l
382.529 228.115 l
383.127 218.136 l
383.969 199.951 l
386.134 151.555 l
386.728 143.573 l
387.149 140.443 l
387.426 139.687 l
387.565 139.716 l
387.719 140.078 l
387.951 141.288 l
388.272 144.305 l
388.692 150.591 l
389.221 162.189 l
389.89 182.193 l
390.803 216.819 l
393.428 320.429 l
394.089 336.512 l
394.578 343.709 l
394.924 346.119 l
395.122 346.452 l
395.129 346.45 l
395.24 346.279 l
395.419 345.489 l
395.685 343.134 l
396.044 337.715 l
396.51 326.952 l
397.102 307.679 l
397.872 274.642 l
399.062 212.6 l
400.751 126.341 l
401.555 96.2344 l
402.16 81.025 l
402.617 74.3652 l
402.939 72.3075 l
403.095 72.0986 l
403.119 72.1129 l
403.238 72.3608 l
403.43 73.3912 l
403.713 76.3167 l
404.097 82.8709 l
404.597 95.6046 l
405.247 118.376 l
406.142 158.401 l
408.952 289.722 l
409.655 310.275 l
410.199 320.445 l
410.612 324.606 l
410.893 325.676 l
411.012 325.705 l
411.036 325.68 l
411.179 325.325 l
411.405 324.053 l
411.726 320.786 l
412.161 313.831 l
412.742 300.616 l
413.554 276.467 l
416.342 189.204 l
416.998 177.056 l
417.505 171.293 l
417.884 169.11 l
418.134 168.658 l
418.272 168.734 l
418.453 169.175 l
418.723 170.52 l
419.103 173.697 l
419.623 180.145 l
420.386 192.726 l
422.404 227.171 l
422.984 233.055 l
423.399 235.35 l
423.676 235.903 l
423.83 235.86 l
424.006 235.5 l
424.263 234.383 l
424.616 231.718 l
425.08 226.316 l
425.689 216.362 l
426.573 197.816 l
428.45 157.765 l
429.069 149.359 l
429.506 145.987 l
429.796 145.103 l
429.941 145.092 l
429.95 145.101 l
430.102 145.425 l
430.33 146.533 l
430.647 149.334 l
431.06 155.19 l
431.582 166.077 l
432.243 184.914 l
433.138 217.444 l
435.838 319.951 l
436.481 334.587 l
436.954 340.984 l
437.287 343.025 l
437.459 343.251 l
437.477 343.241 l
437.595 343.021 l
437.785 342.093 l
438.064 339.439 l
438.439 333.471 l
438.921 321.873 l
439.532 301.297 l
440.334 266.132 l
441.668 195.96 l
443.108 124.1 l
443.905 94.6766 l
444.503 79.9004 l
444.954 73.4821 l
445.271 71.5215 l
445.42 71.3383 l
445.447 71.3558 l
445.568 71.6234 l
445.764 72.7191 l
446.052 75.7859 l
446.44 82.5958 l
446.945 95.7486 l
447.599 119.167 l
448.5 160.284 l
451.288 292.978 l
451.996 314.164 l
452.543 324.634 l
452.956 328.91 l
453.237 330.019 l
453.353 330.055 l
453.38 330.029 l
453.52 329.68 l
453.741 328.426 l
454.06 325.147 l
454.491 318.15 l
455.063 304.867 l
455.853 280.761 l
458.886 182.56 l
459.518 171.151 l
460.006 165.831 l
460.368 163.91 l
460.602 163.563 l
460.736 163.673 l
460.926 164.199 l
461.207 165.746 l
461.6 169.312 l
462.14 176.487 l
462.944 190.518 l
464.83 224.244 l
465.441 231.082 l
465.883 233.886 l
466.185 234.66 l
466.356 234.674 l
466.522 234.393 l
466.763 233.463 l
467.097 231.171 l
467.544 226.397 l
468.133 217.452 l
468.981 200.766 l
470.928 161.555 l
471.526 154.095 l
471.948 151.186 l
472.224 150.483 l
472.367 150.518 l
472.528 150.89 l
472.767 152.107 l
473.095 155.095 l
473.521 161.257 l
474.059 172.585 l
474.742 192.097 l
475.691 226.279 l
478.03 313.01 l
478.713 329.417 l
479.215 336.825 l
479.572 339.381 l
479.789 339.771 l
479.898 339.629 l
480.07 338.939 l
480.327 336.843 l
480.677 331.923 l
481.132 322.055 l
481.708 304.294 l
482.451 273.875 l
483.547 218.712 l
485.48 121.461 l
486.266 93.0937 l
486.857 78.8988 l
487.302 72.8336 l
487.61 71.0588 l
487.746 70.9182 l
487.777 70.9418 l
487.902 71.2443 l
488.105 72.4439 l
488.4 75.7248 l
488.795 82.907 l
489.308 96.7131 l
489.971 121.097 l
490.891 164 l
493.585 294.701 l
494.303 317.093 l
494.859 328.254 l
495.279 332.87 l
495.569 334.119 l
495.689 334.175 l
495.718 334.148 l
495.857 333.808 l
496.076 332.562 l
496.39 329.3 l
496.817 322.281 l
497.379 308.972 l
498.149 284.928 l
499.732 226.452 l
500.843 190.009 l
501.584 172.356 l
502.156 163.451 l
502.595 159.588 l
502.908 158.426 l
503.084 158.335 l
503.088 158.338 l
503.236 158.575 l
503.459 159.442 l
503.78 161.709 l
504.225 166.617 l
504.841 176.178 l
505.874 196.305 l
507.178 220.572 l
507.843 229.118 l
508.325 232.831 l
508.666 234.043 l
508.872 234.182 l
509.023 233.998 l
509.242 233.307 l
509.552 231.479 l
509.97 227.526 l
510.523 219.936 l
511.304 205.795 l
513.505 164.243 l
514.057 158.366 l
514.443 156.237 l
514.684 155.836 l
514.815 155.935 l
514.994 156.436 l
515.255 157.947 l
515.606 161.446 l
516.056 168.417 l
516.626 180.999 l
517.358 202.572 l
518.398 240.23 l
518.398 240.23 l
stroke
grestore
0.000 0.500 0.000 setrgbcolor
gsave
446.4 345.6 72 43.2 clipbox
72 285.12 m
72.1295 285.009 l
72.3125 284.468 l
72.5848 282.863 l
72.9687 279.091 l
73.491 271.502 l
74.2365 257.044 l
76.6872 206.957 l
77.272 200.211 l
77.705 197.409 l
78.0041 196.629 l
78.1737 196.61 l
78.3389 196.883 l
78.5799 197.791 l
78.9192 200.051 l
79.379 204.798 l
80.004 213.825 l
81.0396 232.6 l
82.2895 254.171 l
82.91 261.389 l
83.3475 264.259 l
83.6332 264.98 l
83.785 264.967 l
83.9457 264.643 l
84.1823 263.574 l
84.5081 260.929 l
84.9322 255.449 l
85.4679 245.354 l
86.1553 227.784 l
87.1285 196.53 l
89.1953 129.05 l
89.8828 114.084 l
90.3828 107.408 l
90.7354 105.146 l
90.9452 104.821 l
91.0613 104.978 l
91.2398 105.693 l
91.5032 107.807 l
91.8603 112.694 l
92.3201 122.349 l
92.9049 139.778 l
93.6549 169.383 l
94.7753 223.623 l
96.619 312.304 l
97.4002 339.394 l
97.9849 352.827 l
98.4224 358.486 l
98.7215 360.069 l
98.8465 360.171 l
98.8777 360.144 l
99.0072 359.813 l
99.2125 358.558 l
99.5116 355.141 l
99.9089 347.756 l
100.422 333.665 l
101.083 308.854 l
101.989 265.577 l
104.815 124.55 l
105.516 102.689 l
106.056 91.9712 l
106.462 87.6747 l
106.734 86.6323 l
106.837 86.6205 l
106.864 86.6516 l
107.007 87.054 l
107.23 88.4718 l
107.551 92.1567 l
107.98 99.9219 l
108.542 114.545 l
109.301 140.641 l
110.627 195.458 l
111.989 248.415 l
112.783 271.281 l
113.39 283.037 l
113.863 288.433 l
114.207 290.256 l
114.417 290.518 l
114.546 290.367 l
114.743 289.694 l
115.033 287.762 l
115.435 283.382 l
115.979 274.733 l
116.765 258.291 l
119.068 208.012 l
119.693 199.79 l
120.158 196.208 l
120.488 195.058 l
120.689 194.933 l
120.841 195.124 l
121.064 195.84 l
121.381 197.718 l
121.814 201.788 l
122.403 209.677 l
123.323 225.441 l
124.769 249.844 l
125.385 256.699 l
125.814 259.365 l
126.095 260.027 l
126.247 260.002 l
126.412 259.662 l
126.653 258.564 l
126.983 255.887 l
127.412 250.397 l
127.956 240.276 l
128.657 222.708 l
129.684 190.643 l
131.501 133.889 l
132.202 118.81 l
132.71 112.02 l
133.072 109.667 l
133.286 109.309 l
133.402 109.447 l
133.576 110.098 l
133.835 112.062 l
134.188 116.659 l
134.643 125.828 l
135.219 142.36 l
135.956 170.476 l
137.032 221.113 l
139 314.053 l
139.768 339.797 l
140.344 352.486 l
140.772 357.724 l
141.063 359.118 l
141.174 359.183 l
141.205 359.153 l
141.335 358.813 l
141.545 357.508 l
141.844 354.048 l
142.246 346.508 l
142.763 332.161 l
143.428 306.957 l
144.339 263.111 l
147.147 121.971 l
147.848 99.8755 l
148.388 89.0292 l
148.794 84.679 l
149.066 83.6257 l
149.169 83.6157 l
149.196 83.6477 l
149.339 84.0593 l
149.562 85.5052 l
149.883 89.2622 l
150.312 97.186 l
150.874 112.133 l
151.629 138.71 l
152.901 192.849 l
154.347 251.465 l
155.146 275.439 l
155.762 287.924 l
156.236 293.605 l
156.584 295.583 l
156.798 295.887 l
156.923 295.752 l
157.111 295.127 l
157.392 293.278 l
157.78 289.051 l
158.307 280.615 l
159.052 264.68 l
161.726 204.086 l
162.316 196.746 l
162.758 193.624 l
163.07 192.701 l
163.249 192.65 l
163.409 192.895 l
163.646 193.746 l
163.981 195.9 l
164.436 200.447 l
165.065 209.215 l
166.199 228.807 l
167.275 245.855 l
167.878 252.256 l
168.302 254.741 l
168.579 255.325 l
168.726 255.281 l
168.896 254.916 l
169.146 253.75 l
169.485 250.961 l
169.922 245.326 l
170.48 234.983 l
171.208 216.94 l
172.342 182.4 l
173.842 138.073 l
174.551 123.26 l
175.06 116.659 l
175.422 114.358 l
175.641 114.001 l
175.757 114.138 l
175.935 114.801 l
176.199 116.785 l
176.556 121.404 l
177.016 130.576 l
177.596 147.052 l
178.341 175.153 l
179.44 226.064 l
181.328 313.369 l
182.1 338.873 l
182.676 351.349 l
183.1 356.44 l
183.386 357.796 l
183.497 357.862 l
183.533 357.828 l
183.667 357.462 l
183.881 356.091 l
184.185 352.505 l
184.591 344.755 l
185.113 330.092 l
185.783 304.449 l
186.702 259.798 l
189.457 120.404 l
190.167 97.6301 l
190.711 86.4834 l
191.117 82.0281 l
191.39 80.9262 l
191.492 80.9031 l
191.519 80.9322 l
191.658 81.3133 l
191.876 82.6961 l
192.189 86.291 l
192.608 93.973 l
193.157 108.512 l
193.89 134.398 l
195.046 184.413 l
196.706 254.687 l
197.514 279.814 l
198.13 292.786 l
198.608 298.771 l
198.961 300.865 l
199.179 301.188 l
199.304 301.044 l
199.492 300.392 l
199.773 298.469 l
200.161 294.076 l
200.688 285.293 l
201.425 268.861 l
204.273 201.164 l
204.853 193.847 l
205.291 190.733 l
205.599 189.817 l
205.777 189.765 l
205.938 190.012 l
206.174 190.869 l
206.509 193.033 l
206.969 197.636 l
207.607 206.524 l
208.862 227.943 l
209.826 242.471 l
210.406 248.256 l
210.813 250.444 l
211.076 250.932 l
211.219 250.872 l
211.393 250.483 l
211.647 249.279 l
211.991 246.443 l
212.437 240.715 l
213.009 230.22 l
213.759 211.938 l
215.053 173.813 l
216.281 140.214 l
216.968 126.914 l
217.464 121.057 l
217.808 119.132 l
218.009 118.875 l
218.013 118.877 l
218.134 119.05 l
218.321 119.799 l
218.593 121.945 l
218.959 126.811 l
219.428 136.311 l
220.022 153.303 l
220.79 182.292 l
221.964 236.293 l
223.638 311.713 l
224.414 337.146 l
224.99 349.588 l
225.419 354.753 l
225.709 356.142 l
225.821 356.212 l
225.856 356.18 l
225.99 355.821 l
226.204 354.469 l
226.508 350.917 l
226.914 343.225 l
227.436 328.642 l
228.102 303.279 l
229.012 259.186 l
231.834 116.486 l
232.53 94.4841 l
233.066 83.7461 l
233.463 79.523 l
233.731 78.512 l
233.829 78.5118 l
233.851 78.5394 l
233.99 78.9375 l
234.213 80.3968 l
234.53 84.1633 l
234.954 92.1687 l
235.507 107.261 l
236.244 134.054 l
237.4 185.483 l
239.074 258.393 l
239.882 284.274 l
240.503 297.738 l
240.98 303.901 l
241.333 306.059 l
241.552 306.39 l
241.672 306.251 l
241.855 305.61 l
242.132 303.696 l
242.516 299.273 l
243.034 290.43 l
243.748 274.009 l
245.172 234.721 l
246.266 207.715 l
246.971 195.273 l
247.507 189.283 l
247.908 186.91 l
248.181 186.343 l
248.332 186.385 l
248.511 186.754 l
248.774 187.908 l
249.145 190.678 l
249.649 196.326 l
250.381 207.349 l
252.475 240.314 l
253.011 244.995 l
253.386 246.642 l
253.618 246.915 l
253.761 246.788 l
253.957 246.236 l
254.238 244.679 l
254.613 241.194 l
255.095 234.423 l
255.716 222.276 l
256.573 200.636 l
258.952 138.12 l
259.555 128.716 l
259.988 124.925 l
260.274 123.947 l
260.403 123.924 l
260.421 123.942 l
260.568 124.285 l
260.791 125.477 l
261.104 128.525 l
261.515 134.978 l
262.032 146.961 l
262.689 167.766 l
263.568 203.417 l
266.514 329.05 l
267.148 344.725 l
267.621 351.693 l
267.956 353.963 l
268.135 354.24 l
268.153 354.232 l
268.269 354.017 l
268.456 353.081 l
268.733 350.369 l
269.108 344.198 l
269.59 332.198 l
270.206 310.781 l
271.019 274.029 l
272.443 197.362 l
273.786 129.839 l
274.581 100.259 l
275.183 85.2453 l
275.639 78.6803 l
275.96 76.626 l
276.121 76.4058 l
276.143 76.4177 l
276.259 76.6458 l
276.451 77.6316 l
276.732 80.4235 l
277.116 86.7324 l
277.621 99.1033 l
278.277 121.202 l
279.201 160.669 l
281.75 273.4 l
282.482 294.678 l
283.049 305.416 l
283.482 310.011 l
283.786 311.357 l
283.937 311.46 l
283.955 311.448 l
284.089 311.191 l
284.303 310.192 l
284.611 307.539 l
285.035 301.709 l
285.602 290.516 l
286.41 269.634 l
288.973 200.203 l
289.624 189.55 l
290.124 184.58 l
290.49 182.784 l
290.727 182.447 l
290.87 182.549 l
291.062 183.037 l
291.348 184.479 l
291.745 187.794 l
292.289 194.429 l
293.115 207.593 l
294.776 234.315 l
295.374 240.409 l
295.794 242.759 l
296.07 243.323 l
296.222 243.282 l
296.396 242.922 l
296.651 241.786 l
296.995 239.101 l
297.445 233.622 l
298.026 223.563 l
298.807 205.728 l
301.597 138.124 l
302.124 131.715 l
302.494 129.452 l
302.722 129.066 l
302.842 129.183 l
303.016 129.754 l
303.275 131.493 l
303.628 135.593 l
304.079 143.72 l
304.646 158.317 l
305.373 183.307 l
306.427 228.121 l
308.422 313.555 l
309.168 335.909 l
309.721 346.656 l
310.128 350.905 l
310.395 351.919 l
310.494 351.926 l
310.52 351.894 l
310.659 351.495 l
310.878 350.062 l
311.19 346.318 l
311.601 338.415 l
312.127 323.565 l
312.802 297.693 l
313.726 252.757 l
316.471 113.648 l
317.176 91.0137 l
317.716 80.0047 l
318.118 75.675 l
318.382 74.6696 l
318.48 74.6674 l
318.502 74.6951 l
318.64 75.0986 l
318.859 76.5453 l
319.172 80.2984 l
319.591 88.331 l
320.136 103.453 l
320.855 130.217 l
321.935 179.907 l
323.841 267.438 l
324.64 293.956 l
325.252 307.665 l
325.725 313.942 l
326.069 316.08 l
326.278 316.395 l
326.394 316.252 l
326.577 315.578 l
326.85 313.589 l
327.229 308.962 l
327.738 299.72 l
328.43 282.676 l
329.595 247.479 l
331.01 206.582 l
331.769 190.659 l
332.345 182.716 l
332.787 179.277 l
333.099 178.254 l
333.282 178.184 l
333.439 178.427 l
333.671 179.281 l
334.006 181.493 l
334.465 186.208 l
335.113 195.423 l
336.586 220.783 l
337.429 232.833 l
337.987 237.996 l
338.38 239.89 l
338.63 240.268 l
338.773 240.183 l
338.961 239.733 l
339.228 238.421 l
339.594 235.361 l
340.068 229.323 l
340.684 218.322 l
341.55 198.403 l
343.684 147.826 l
344.295 138.9 l
344.728 135.328 l
345.018 134.382 l
345.157 134.365 l
345.17 134.378 l
345.317 134.706 l
345.545 135.865 l
345.862 138.821 l
346.273 144.976 l
346.795 156.491 l
347.456 176.446 l
348.344 210.706 l
351.17 324.932 l
351.808 340.167 l
352.281 346.896 l
352.616 349.081 l
352.795 349.338 l
352.808 349.332 l
352.924 349.124 l
353.111 348.213 l
353.388 345.566 l
353.759 339.614 l
354.236 328.005 l
354.844 307.36 l
355.643 271.89 l
356.968 201.306 l
358.424 127.573 l
359.223 97.5515 l
359.825 82.3155 l
360.285 75.5547 l
360.611 73.4344 l
360.772 73.2143 l
360.794 73.2269 l
360.91 73.4614 l
361.102 74.4687 l
361.383 77.3205 l
361.767 83.7732 l
362.267 96.3272 l
362.919 118.86 l
363.821 158.593 l
366.562 284.569 l
367.271 305.279 l
367.825 315.658 l
368.244 319.945 l
368.53 321.086 l
368.655 321.138 l
368.682 321.114 l
368.825 320.781 l
369.048 319.579 l
369.369 316.444 l
369.802 309.786 l
370.383 297.073 l
371.2 273.745 l
373.865 193.865 l
374.525 181.901 l
375.034 176.204 l
375.418 174.016 l
375.673 173.554 l
375.811 173.624 l
375.989 174.04 l
376.257 175.323 l
376.632 178.347 l
377.15 184.547 l
377.909 196.653 l
379.9 229.563 l
380.471 235.145 l
380.878 237.279 l
381.145 237.765 l
381.293 237.707 l
381.471 237.324 l
381.73 236.155 l
382.083 233.409 l
382.547 227.85 l
383.154 217.615 l
384.011 198.949 l
386.096 152.205 l
386.703 143.844 l
387.132 140.548 l
387.413 139.719 l
387.556 139.727 l
387.56 139.732 l
387.712 140.075 l
387.944 141.262 l
388.265 144.246 l
388.681 150.408 l
389.207 161.863 l
389.873 181.601 l
390.779 215.812 l
393.453 321.126 l
394.104 336.787 l
394.591 343.824 l
394.935 346.138 l
395.122 346.432 l
395.136 346.426 l
395.252 346.228 l
395.435 345.37 l
395.707 342.853 l
396.073 337.149 l
396.546 325.947 l
397.149 305.895 l
397.934 271.638 l
399.193 205.411 l
400.751 126.359 l
401.555 96.2547 l
402.157 81.0883 l
402.613 74.4286 l
402.934 72.3395 l
403.095 72.1164 l
403.117 72.1287 l
403.233 72.3632 l
403.425 73.3745 l
403.706 76.243 l
404.09 82.7436 l
404.59 95.4127 l
405.238 118.024 l
406.13 157.853 l
408.965 290.166 l
409.666 310.517 l
410.206 320.52 l
410.617 324.619 l
410.893 325.663 l
411.01 325.693 l
411.036 325.667 l
411.179 325.313 l
411.402 324.059 l
411.724 320.807 l
412.161 313.827 l
412.742 300.617 l
413.554 276.475 l
416.34 189.273 l
416.996 177.107 l
417.505 171.308 l
417.884 169.124 l
418.134 168.67 l
418.272 168.745 l
418.456 169.192 l
418.728 170.557 l
419.107 173.748 l
419.63 180.241 l
420.397 192.922 l
422.393 227.012 l
422.978 232.985 l
423.397 235.323 l
423.674 235.883 l
423.83 235.842 l
424.009 235.476 l
424.268 234.34 l
424.62 231.66 l
425.085 226.242 l
425.696 216.229 l
426.584 197.562 l
428.441 157.927 l
429.062 149.445 l
429.504 146.016 l
429.794 145.124 l
429.941 145.111 l
429.946 145.115 l
430.098 145.431 l
430.325 146.523 l
430.642 149.303 l
431.053 155.094 l
431.575 165.93 l
432.236 184.71 l
433.129 217.096 l
435.847 320.181 l
436.486 334.647 l
436.959 341.006 l
437.289 343.012 l
437.459 343.231 l
437.477 343.221 l
437.597 342.994 l
437.789 342.043 l
438.07 339.338 l
438.445 333.323 l
438.927 321.667 l
439.539 301.027 l
440.342 265.693 l
441.691 194.76 l
443.11 124.02 l
443.905 94.6955 l
444.503 79.92 l
444.954 73.5014 l
445.271 71.5402 l
445.418 71.3558 l
445.445 71.3719 l
445.565 71.6334 l
445.762 72.7191 l
446.047 75.7409 l
446.436 82.5141 l
446.94 95.6223 l
447.592 118.901 l
448.494 159.95 l
451.293 293.118 l
451.998 314.198 l
452.543 324.616 l
452.953 328.879 l
453.235 330.001 l
453.351 330.042 l
453.377 330.017 l
453.516 329.683 l
453.734 328.465 l
454.051 325.252 l
454.48 318.359 l
455.047 305.281 l
455.833 281.438 l
458.913 181.995 l
459.538 170.889 l
460.024 165.712 l
460.381 163.886 l
460.609 163.576 l
460.743 163.696 l
460.935 164.246 l
461.221 165.85 l
461.618 169.516 l
462.163 176.833 l
462.984 191.278 l
464.801 223.828 l
465.421 230.891 l
465.868 233.802 l
466.176 234.633 l
466.35 234.662 l
466.515 234.392 l
466.756 233.481 l
467.091 231.213 l
467.533 226.526 l
468.118 217.713 l
468.957 201.286 l
470.943 161.328 l
471.537 154.006 l
471.957 151.165 l
472.229 150.498 l
472.367 150.536 l
472.528 150.908 l
472.769 152.14 l
473.099 155.165 l
473.528 161.392 l
474.068 172.822 l
474.755 192.543 l
475.711 227.068 l
478.01 312.419 l
478.697 329.103 l
479.202 336.666 l
479.563 339.327 l
479.782 339.754 l
479.889 339.63 l
480.059 338.982 l
480.313 336.965 l
480.661 332.174 l
481.112 322.554 l
481.684 305.149 l
482.42 275.288 l
483.496 221.447 l
485.5 120.632 l
486.282 92.6512 l
486.866 78.7556 l
487.308 72.7926 l
487.612 71.072 l
487.746 70.9368 l
487.777 70.9603 l
487.902 71.2625 l
488.103 72.4437 l
488.397 75.71 l
488.795 82.922 l
489.308 96.7252 l
489.973 121.198 l
490.897 164.339 l
493.576 294.355 l
494.294 316.85 l
494.852 328.136 l
495.272 332.805 l
495.562 334.092 l
495.687 334.16 l
495.714 334.137 l
495.848 333.825 l
496.062 332.649 l
496.37 329.546 l
496.79 322.796 l
497.343 309.933 l
498.098 286.691 l
499.504 234.854 l
500.74 192.956 l
501.508 173.878 l
502.097 164.174 l
502.553 159.863 l
502.879 158.494 l
503.075 158.344 l
503.218 158.545 l
503.432 159.319 l
503.745 161.411 l
504.178 166.018 l
504.776 175.054 l
505.736 193.483 l
507.178 220.558 l
507.843 229.101 l
508.325 232.814 l
508.664 234.021 l
508.869 234.165 l
509.021 233.985 l
509.24 233.299 l
509.548 231.496 l
509.963 227.588 l
510.517 220.03 l
511.293 206.01 l
513.516 164.105 l
514.065 158.311 l
514.449 156.231 l
514.686 155.852 l
514.815 155.951 l
514.994 156.453 l
515.253 157.948 l
515.606 161.464 l
516.056 168.435 l
516.628 181.073 l
517.36 202.659 l
518.396 240.151 l
518.396 240.151 l
stroke
grestore
0 setlinejoin
0.000 setgray
gsave
72 388.8 m
518.4 388.8 l
stroke
grestore
gsave
518.4 43.2 m
518.4 388.8 l
stroke
grestore
gsave
72 43.2 m
518.4 43.2 l
stroke
grestore
gsave
72 43.2 m
72 388.8 l
stroke
grestore
0.500 setlinewidth
1 setlinejoin
0 setlinecap
gsave
/o {
gsave
newpath
translate
0.5 setlinewidth
1 setlinejoin
0 setlinecap
0 0 m
0 4 l
gsave
0.000 setgray
fill
grestore
stroke
grestore
} bind def
72 43.2 o
grestore
gsave
/o {
gsave
newpath
translate
0.5 setlinewidth
1 setlinejoin
0 setlinecap
0 0 m
0 -4 l
gsave
0.000 setgray
fill
grestore
stroke
grestore
} bind def
72 388.8 o
grestore
/BitstreamVeraSans-Roman findfont
12.000 scalefont
setfont
gsave
68.976562 30.075000 translate
0.000000 rotate
0.000000 0.000000 m /zero glyphshow
grestore
gsave
/o {
gsave
newpath
translate
0.5 setlinewidth
1 setlinejoin
0 setlinecap
0 0 m
0 4 l
gsave
0.000 setgray
fill
grestore
stroke
grestore
} bind def
183.6 43.2 o
grestore
gsave
/o {
gsave
newpath
translate
0.5 setlinewidth
1 setlinejoin
0 setlinecap
0 0 m
0 -4 l
gsave
0.000 setgray
fill
grestore
stroke
grestore
} bind def
183.6 388.8 o
grestore
gsave
176.818750 30.075000 translate
0.000000 rotate
0.000000 0.000000 m /five glyphshow
7.634766 0.000000 m /zero glyphshow
grestore
gsave
/o {
gsave
newpath
translate
0.5 setlinewidth
1 setlinejoin
0 setlinecap
0 0 m
0 4 l
gsave
0.000 setgray
fill
grestore
stroke
grestore
} bind def
295.2 43.2 o
grestore
gsave
/o {
gsave
newpath
translate
0.5 setlinewidth
1 setlinejoin
0 setlinecap
0 0 m
0 -4 l
gsave
0.000 setgray
fill
grestore
stroke
grestore
} bind def
295.2 388.8 o
grestore
gsave
284.793750 30.075000 translate
0.000000 rotate
0.000000 0.000000 m /one glyphshow
7.634766 0.000000 m /zero glyphshow
15.269531 0.000000 m /zero glyphshow
grestore
gsave
/o {
gsave
newpath
translate
0.5 setlinewidth
1 setlinejoin
0 setlinecap
0 0 m
0 4 l
gsave
0.000 setgray
fill
grestore
stroke
grestore
} bind def
406.8 43.2 o
grestore
gsave
/o {
gsave
newpath
translate
0.5 setlinewidth
1 setlinejoin
0 setlinecap
0 0 m
0 -4 l
gsave
0.000 setgray
fill
grestore
stroke
grestore
} bind def
406.8 388.8 o
grestore
gsave
396.393750 30.075000 translate
0.000000 rotate
0.000000 0.000000 m /one glyphshow
7.634766 0.000000 m /five glyphshow
15.269531 0.000000 m /zero glyphshow
grestore
gsave
/o {
gsave
newpath
translate
0.5 setlinewidth
1 setlinejoin
0 setlinecap
0 0 m
0 4 l
gsave
0.000 setgray
fill
grestore
stroke
grestore
} bind def
518.4 43.2 o
grestore
gsave
/o {
gsave
newpath
translate
0.5 setlinewidth
1 setlinejoin
0 setlinecap
0 0 m
0 -4 l
gsave
0.000 setgray
fill
grestore
stroke
grestore
} bind def
518.4 388.8 o
grestore
gsave
507.775000 30.075000 translate
0.000000 rotate
0.000000 0.000000 m /two glyphshow
7.634766 0.000000 m /zero glyphshow
15.269531 0.000000 m /zero glyphshow
grestore
gsave
269.200000 11.934375 translate
0.000000 rotate
/BitstreamVeraSans-Roman findfont
14.0 scalefont
setfont
0.000000 0.359375 moveto
/t glyphshow

5.489258 0.359375 moveto
/i glyphshow

9.378906 0.359375 moveto
/m glyphshow

23.016602 0.359375 moveto
/e glyphshow

31.629883 0.359375 moveto
/space glyphshow

36.080078 0.359375 moveto
/slash glyphshow

40.796875 0.359375 moveto
/space glyphshow

/Cmmi10 findfont
14.0 scalefont
setfont
45.247070 0.359375 moveto
/s glyphshow


grestore
gsave
/o {
gsave
newpath
translate
0.5 setlinewidth
1 setlinejoin
0 setlinecap
0 0 m
4 0 l
gsave
0.000 setgray
fill
grestore
stroke
grestore
} bind def
72 77.76 o
grestore
gsave
/o {
gsave
newpath
translate
0.5 setlinewidth
1 setlinejoin
0 setlinecap
0 0 m
-4 0 l
gsave
0.000 setgray
fill
grestore
stroke
grestore
} bind def
518.4 77.76 o
grestore
gsave
40.781250 74.447500 translate
0.000000 rotate
0.000000 0.000000 m /minus glyphshow
10.054688 0.000000 m /zero glyphshow
17.689453 0.000000 m /period glyphshow
21.503906 0.000000 m /four glyphshow
grestore
gsave
/o {
gsave
newpath
translate
0.5 setlinewidth
1 setlinejoin
0 setlinecap
0 0 m
4 0 l
gsave
0.000 setgray
fill
grestore
stroke
grestore
} bind def
72 146.88 o
grestore
gsave
/o {
gsave
newpath
translate
0.5 setlinewidth
1 setlinejoin
0 setlinecap
0 0 m
-4 0 l
gsave
0.000 setgray
fill
grestore
stroke
grestore
} bind def
518.4 146.88 o
grestore
gsave
41.312500 143.567500 translate
0.000000 rotate
0.000000 0.000000 m /minus glyphshow
10.054688 0.000000 m /zero glyphshow
17.689453 0.000000 m /period glyphshow
21.503906 0.000000 m /two glyphshow
grestore
gsave
/o {
gsave
newpath
translate
0.5 setlinewidth
1 setlinejoin
0 setlinecap
0 0 m
4 0 l
gsave
0.000 setgray
fill
grestore
stroke
grestore
} bind def
72 216 o
grestore
gsave
/o {
gsave
newpath
translate
0.5 setlinewidth
1 setlinejoin
0 setlinecap
0 0 m
-4 0 l
gsave
0.000 setgray
fill
grestore
stroke
grestore
} bind def
518.4 216 o
grestore
gsave
50.500000 212.687500 translate
0.000000 rotate
0.000000 0.000000 m /zero glyphshow
7.634766 0.000000 m /period glyphshow
11.449219 0.000000 m /zero glyphshow
grestore
gsave
/o {
gsave
newpath
translate
0.5 setlinewidth
1 setlinejoin
0 setlinecap
0 0 m
4 0 l
gsave
0.000 setgray
fill
grestore
stroke
grestore
} bind def
72 285.12 o
grestore
gsave
/o {
gsave
newpath
translate
0.5 setlinewidth
1 setlinejoin
0 setlinecap
0 0 m
-4 0 l
gsave
0.000 setgray
fill
grestore
stroke
grestore
} bind def
518.4 285.12 o
grestore
gsave
50.906250 281.807500 translate
0.000000 rotate
0.000000 0.000000 m /zero glyphshow
7.634766 0.000000 m /period glyphshow
11.449219 0.000000 m /two glyphshow
grestore
gsave
/o {
gsave
newpath
translate
0.5 setlinewidth
1 setlinejoin
0 setlinecap
0 0 m
4 0 l
gsave
0.000 setgray
fill
grestore
stroke
grestore
} bind def
72 354.24 o
grestore
gsave
/o {
gsave
newpath
translate
0.5 setlinewidth
1 setlinejoin
0 setlinecap
0 0 m
-4 0 l
gsave
0.000 setgray
fill
grestore
stroke
grestore
} bind def
518.4 354.24 o
grestore
gsave
50.375000 350.927500 translate
0.000000 rotate
0.000000 0.000000 m /zero glyphshow
7.634766 0.000000 m /period glyphshow
11.449219 0.000000 m /four glyphshow
grestore
gsave
32.875000 194.000000 translate
90.000000 rotate
/Cmmi10 findfont
14.0 scalefont
setfont
0.000000 0.359375 moveto
/theta glyphshow

/BitstreamVeraSans-Roman findfont
14.0 scalefont
setfont
6.569336 0.359375 moveto
/space glyphshow

11.019531 0.359375 moveto
/slash glyphshow

15.736328 0.359375 moveto
/space glyphshow

20.186523 0.359375 moveto
/r glyphshow

25.942383 0.359375 moveto
/a glyphshow

34.521484 0.359375 moveto
/d glyphshow


grestore
1.000 setlinewidth
0 setlinejoin
gsave
394.36 335.786 m
511.2 335.786 l
511.2 381.6 l
394.36 381.6 l
cl
gsave
1.000 setgray
fill
grestore
stroke
grestore
1 setlinejoin
2 setlinecap
0.000 0.000 1.000 setrgbcolor
gsave
404.44 370.239 m
424.6 370.239 l
stroke
grestore
0.000 setgray
gsave
440.440000 365.199375 translate
0.000000 rotate
/Cmr10 findfont
14.4 scalefont
setfont
0.000000 0.703125 moveto
/Delta glyphshow

/Cmmi10 findfont
14.4 scalefont
setfont
11.987503 0.703125 moveto
/t glyphshow

/Cmr10 findfont
14.4 scalefont
setfont
19.706998 0.703125 moveto
/equal glyphshow

31.796289 0.703125 moveto
/zero glyphshow

/Cmmi10 findfont
14.4 scalefont
setfont
38.991602 0.703125 moveto
/period glyphshow

/Cmr10 findfont
14.4 scalefont
setfont
43.096518 0.703125 moveto
/zero glyphshow

50.291830 0.703125 moveto
/zero glyphshow

57.487143 0.703125 moveto
/one glyphshow


grestore
0.000 0.500 0.000 setrgbcolor
gsave
404.44 349.493 m
424.6 349.493 l
stroke
grestore
0.000 setgray
gsave
440.440000 344.452500 translate
0.000000 rotate
/Cmr10 findfont
14.4 scalefont
setfont
0.000000 0.703125 moveto
/Delta glyphshow

/Cmmi10 findfont
14.4 scalefont
setfont
11.987503 0.703125 moveto
/t glyphshow

/Cmr10 findfont
14.4 scalefont
setfont
19.706998 0.703125 moveto
/equal glyphshow

31.796289 0.703125 moveto
/zero glyphshow

/Cmmi10 findfont
14.4 scalefont
setfont
38.991602 0.703125 moveto
/period glyphshow

/Cmr10 findfont
14.4 scalefont
setfont
43.096518 0.703125 moveto
/zero glyphshow

50.291830 0.703125 moveto
/zero glyphshow

57.487143 0.703125 moveto
/two glyphshow


grestore

end
showpage
