%!PS-Adobe-3.0 EPSF-3.0
%%Title: dp-0_99.eps
%%Creator: matplotlib version 1.4.3, http://matplotlib.org/
%%CreationDate: Tue Nov 10 00:01:49 2015
%%Orientation: portrait
%%BoundingBox: 18 180 594 612
%%EndComments
%%BeginProlog
/mpldict 10 dict def
mpldict begin
/m { moveto } bind def
/l { lineto } bind def
/r { rlineto } bind def
/c { curveto } bind def
/cl { closepath } bind def
/box {
m
1 index 0 r
0 exch r
neg 0 r
cl
} bind def
/clipbox {
box
clip
newpath
} bind def
%!PS-Adobe-3.0 Resource-Font
%%Title: cmr10
%%Copyright: Copyright (C) 1994, Basil K. Malyshev. All Rights Reserved.012BaKoMa Fonts Collection, Level-B.
%%Creator: Converted from TrueType to type 3 by PPR
25 dict begin
/_d{bind def}bind def
/_m{moveto}_d
/_l{lineto}_d
/_cl{closepath eofill}_d
/_c{curveto}_d
/_sc{7 -1 roll{setcachedevice}{pop pop pop pop pop pop}ifelse}_d
/_e{exec}_d
/FontName /Cmr10 def
/PaintType 0 def
/FontMatrix[.001 0 0 .001 0 0]def
/FontBBox[-44 -250 1009 750]def
/FontType 3 def
/Encoding [ /Delta /zero /equal /two /one ] def
/FontInfo 10 dict dup begin
/FamilyName (cmr10) def
/FullName (cmr10) def
/Notice (Copyright (C) 1994, Basil K. Malyshev. All Rights Reserved.012BaKoMa Fonts Collection, Level-B. ) def
/Weight (Regular) def
/Version (1.1/12-Nov-94) def
/ItalicAngle 0.0 def
/isFixedPitch false def
/UnderlinePosition -133 def
/UnderlineThickness 20 def
end readonly def
/CharStrings 5 dict dup begin
/Delta{833 0 46 0 786 716 _sc
54 0 _m
48 0 46 2 46 8 _c
46 8 46 9 46 9 _c
46 9 47 10 47 11 _c
391 705 _l
394 712 400 716 409 716 _c
423 716 _l
432 716 438 712 441 705 _c
785 11 _l
785 10 786 9 786 9 _c
786 9 786 8 786 8 _c
786 2 783 0 778 0 _c
54 0 _l
120 80 _m
647 80 _l
384 611 _l
120 80 _l
_cl}_d
/zero{{500 0 39 -21 460 666 _sc
250 -21 _m
168 -21 112 12 83 79 _c
53 146 39 226 39 319 _c
39 377 44 431 55 482 _c
65 533 86 576 118 612 _c
149 648 193 666 250 666 _c
294 666 330 655 358 634 _c
386 612 407 585 422 551 _c
436 517 446 480 452 441 _c
457 402 460 361 460 319 _c
460 261 454 208 444 158 _c
433 108 412 65 381 31 _c
350 -3 306 -21 250 -21 _c
250 4 _m
}_e{287 4 315 23 333 61 _c
351 99 362 141 366 187 _c
370 233 373 283 373 335 _c
373 385 370 431 366 473 _c
362 515 351 554 333 588 _c
315 622 287 640 250 640 _c
212 640 184 622 166 588 _c
148 554 136 515 132 473 _c
128 431 126 385 126 335 _c
126 297 126 262 128 230 _c
130 197 135 163 143 128 _c
151 93 163 64 181 40 _c
198 16 221 4 250 4 _c
_cl}_e}_d
/equal{{777 0 56 133 721 367 _sc
75 133 _m
69 133 65 135 61 139 _c
57 143 56 148 56 153 _c
56 158 57 163 61 167 _c
65 171 69 173 75 173 _c
703 173 _l
707 173 711 171 715 167 _c
719 163 721 158 721 153 _c
721 148 719 143 715 139 _c
711 135 707 133 703 133 _c
75 133 _l
75 327 _m
69 327 65 329 61 333 _c
57 337 56 341 56 347 _c
56 351 57 356 61 360 _c
}_e{65 364 69 367 75 367 _c
703 367 _l
707 367 711 364 715 360 _c
719 356 721 351 721 347 _c
721 341 719 337 715 333 _c
711 329 707 327 703 327 _c
75 327 _l
_cl}_e}_d
/two{{500 0 50 0 449 666 _sc
50 0 _m
50 27 _l
50 28 50 30 52 32 _c
207 204 _l
230 229 249 250 264 268 _c
278 285 293 305 307 327 _c
321 349 333 372 341 396 _c
349 419 354 444 354 470 _c
354 497 349 523 339 548 _c
329 573 314 593 294 608 _c
274 623 249 631 221 631 _c
192 631 166 622 143 605 _c
119 587 103 565 94 537 _c
96 537 100 538 105 538 _c
}_e{119 538 132 533 143 523 _c
153 513 159 500 159 484 _c
159 468 153 455 143 445 _c
132 434 119 429 105 429 _c
89 429 76 434 66 445 _c
55 456 50 469 50 484 _c
50 508 54 532 64 554 _c
73 576 86 595 104 613 _c
122 630 142 643 164 652 _c
186 661 210 666 236 666 _c
274 666 309 658 342 642 _c
375 626 401 603 420 573 _c
439 543 449 509 449 470 _c
}_e{449 441 442 414 430 388 _c
417 362 401 338 381 317 _c
361 295 336 271 305 244 _c
274 217 254 199 244 190 _c
131 81 _l
227 81 _l
274 81 313 81 345 82 _c
377 82 394 84 396 86 _c
404 94 412 125 420 178 _c
449 178 _l
421 0 _l
50 0 _l
_cl}_e}_d
/one{500 0 87 0 421 666 _sc
93 0 _m
93 35 _l
176 35 218 45 218 67 _c
218 592 _l
183 575 139 567 87 567 _c
87 602 _l
168 602 230 623 272 666 _c
286 666 _l
288 666 291 665 293 663 _c
295 661 296 659 296 657 _c
296 67 _l
296 45 337 35 421 35 _c
421 0 _l
93 0 _l
_cl}_d
end readonly def

/BuildGlyph
 {exch begin
 CharStrings exch
 2 copy known not{pop /.notdef}if
 true 3 1 roll get exec
 end}_d

/BuildChar {
 1 index /Encoding get exch get
 1 index /BuildGlyph get exec
}_d

FontName currentdict end definefont pop
%!PS-Adobe-3.0 Resource-Font
%%Title: cmmi10
%%Copyright: Copyright (C) 1994, Basil K. Malyshev. All Rights Reserved.012BaKoMa Fonts Collection, Level-B.
%%Creator: Converted from TrueType to type 3 by PPR
25 dict begin
/_d{bind def}bind def
/_m{moveto}_d
/_l{lineto}_d
/_cl{closepath eofill}_d
/_c{curveto}_d
/_sc{7 -1 roll{setcachedevice}{pop pop pop pop pop pop}ifelse}_d
/_e{exec}_d
/FontName /Cmmi10 def
/PaintType 0 def
/FontMatrix[.001 0 0 .001 0 0]def
/FontBBox[-34 -250 1048 750]def
/FontType 3 def
/Encoding [ /theta /t /period /s ] def
/FontInfo 10 dict dup begin
/FamilyName (cmmi10) def
/FullName (cmmi10) def
/Notice (Copyright (C) 1994, Basil K. Malyshev. All Rights Reserved.012BaKoMa Fonts Collection, Level-B. ) def
/Weight (Regular) def
/Version (1.1/12-Nov-94) def
/ItalicAngle 0.0 def
/isFixedPitch false def
/UnderlinePosition -133 def
/UnderlineThickness 20 def
end readonly def
/CharStrings 4 dict dup begin
/theta{{469 0 40 -10 457 705 _sc
161 -10 _m
131 -10 106 0 88 22 _c
70 44 57 70 50 102 _c
43 133 40 164 40 195 _c
40 196 _l
40 229 43 263 49 299 _c
55 335 65 370 77 406 _c
89 442 102 474 116 502 _c
126 521 138 543 154 567 _c
169 591 186 614 205 635 _c
224 656 245 673 267 686 _c
289 698 311 705 334 705 _c
335 705 _l
359 705 379 698 395 685 _c
}_e{411 671 423 654 432 634 _c
441 613 447 591 451 567 _c
455 543 457 520 457 499 _c
457 448 450 396 436 344 _c
422 292 404 241 380 192 _c
370 173 358 151 342 126 _c
326 101 309 79 291 59 _c
273 39 252 22 230 9 _c
207 -3 184 -10 162 -10 _c
161 -10 _l
163 15 _m
185 15 206 26 226 50 _c
246 74 264 102 280 136 _c
295 170 308 204 320 240 _c
332 275 340 305 346 330 _c
}_e{142 330 _l
131 288 123 251 117 221 _c
111 191 109 161 109 132 _c
109 54 127 15 163 15 _c
150 365 _m
355 365 _l
362 394 368 418 372 438 _c
376 458 379 479 382 501 _c
385 523 387 543 387 562 _c
387 640 369 679 334 679 _c
292 679 255 645 224 577 _c
193 509 168 438 150 365 _c
_cl}_e}_d
/t{{361 0 22 -10 330 626 _sc
62 81 _m
62 91 63 100 65 109 _c
137 396 _l
32 396 _l
25 396 22 400 22 409 _c
24 423 29 431 35 431 _c
146 431 _l
186 594 _l
188 602 193 610 201 616 _c
209 622 218 626 228 626 _c
236 626 243 623 249 618 _c
255 613 258 606 258 598 _c
258 596 257 594 257 593 _c
257 592 257 591 257 590 _c
217 431 _l
320 431 _l
326 431 330 426 330 418 _c
}_e{330 416 329 414 328 410 _c
327 406 326 402 324 400 _c
322 397 320 396 317 396 _c
208 396 _l
136 107 _l
131 88 129 72 129 58 _c
129 29 138 15 158 15 _c
187 15 213 28 236 56 _c
258 84 276 114 288 147 _c
290 151 293 153 296 153 _c
308 153 _l
310 153 312 152 314 150 _c
316 148 317 146 317 144 _c
317 142 316 141 316 141 _c
301 101 280 65 252 35 _c
}_e{224 5 192 -10 156 -10 _c
129 -10 107 -1 89 15 _c
71 32 62 54 62 81 _c
_cl}_e}_d
/period{277 0 84 0 194 110 _sc
84 55 _m
84 70 89 83 100 94 _c
111 104 124 110 139 110 _c
148 110 157 107 166 102 _c
174 97 181 90 186 82 _c
191 73 194 64 194 55 _c
194 40 188 27 178 16 _c
167 5 154 0 139 0 _c
124 0 111 5 100 16 _c
89 27 84 40 84 55 _c
_cl}_d
/s{{468 0 52 -10 419 442 _sc
87 61 _m
105 30 141 15 195 15 _c
218 15 240 19 261 27 _c
282 35 300 47 314 63 _c
328 79 335 98 335 121 _c
335 138 328 152 316 163 _c
304 174 289 182 271 186 _c
217 197 _l
192 203 172 214 156 231 _c
140 248 132 269 132 293 _c
132 322 140 348 156 371 _c
172 394 193 412 219 424 _c
245 436 273 442 302 442 _c
332 442 359 434 383 420 _c
}_e{407 405 419 384 419 356 _c
419 340 414 327 406 315 _c
397 303 385 298 370 298 _c
361 298 353 300 347 306 _c
341 312 338 319 338 328 _c
338 336 340 343 344 351 _c
348 358 354 364 362 368 _c
369 372 377 375 385 375 _c
379 389 368 399 352 406 _c
336 412 318 416 300 416 _c
282 416 265 412 249 406 _c
232 399 218 389 208 376 _c
198 362 193 347 193 329 _c
}_e{193 317 197 306 205 297 _c
213 288 224 282 237 278 _c
295 266 _l
313 262 330 255 346 245 _c
361 235 373 222 382 207 _c
391 192 396 175 396 156 _c
396 131 389 106 375 82 _c
361 58 344 39 324 25 _c
288 1 245 -10 194 -10 _c
158 -10 126 -2 96 14 _c
66 30 52 54 52 86 _c
52 104 57 119 67 133 _c
77 147 92 154 111 154 _c
121 154 130 150 138 144 _c
}_e{145 137 149 128 149 118 _c
149 102 143 89 132 78 _c
120 66 107 61 92 61 _c
87 61 _l
_cl}_e}_d
end readonly def

/BuildGlyph
 {exch begin
 CharStrings exch
 2 copy known not{pop /.notdef}if
 true 3 1 roll get exec
 end}_d

/BuildChar {
 1 index /Encoding get exch get
 1 index /BuildGlyph get exec
}_d

FontName currentdict end definefont pop
%!PS-Adobe-3.0 Resource-Font
%%Title: Bitstream Vera Sans
%%Copyright: Copyright (c) 2003 by Bitstream, Inc. All Rights Reserved.
%%Creator: Converted from TrueType to type 3 by PPR
25 dict begin
/_d{bind def}bind def
/_m{moveto}_d
/_l{lineto}_d
/_cl{closepath eofill}_d
/_c{curveto}_d
/_sc{7 -1 roll{setcachedevice}{pop pop pop pop pop pop}ifelse}_d
/_e{exec}_d
/FontName /BitstreamVeraSans-Roman def
/PaintType 0 def
/FontMatrix[.001 0 0 .001 0 0]def
/FontBBox[-183 -236 1287 928]def
/FontType 3 def
/Encoding [ /space /slash /zero /one /two /three /five /a /d /e /i /m /r /t /minus ] def
/FontInfo 10 dict dup begin
/FamilyName (Bitstream Vera Sans) def
/FullName (Bitstream Vera Sans) def
/Notice (Copyright (c) 2003 by Bitstream, Inc. All Rights Reserved. Bitstream Vera is a trademark of Bitstream, Inc.) def
/Weight (Roman) def
/Version (Release 1.10) def
/ItalicAngle 0.0 def
/isFixedPitch false def
/UnderlinePosition -213 def
/UnderlineThickness 143 def
end readonly def
/CharStrings 15 dict dup begin
/space{318 0 0 0 0 0 _sc
}_d
/slash{337 0 0 -92 337 729 _sc
254 729 _m
337 729 _l
83 -92 _l
0 -92 _l
254 729 _l
_cl}_d
/zero{636 0 66 -13 570 742 _sc
318 664 _m
267 664 229 639 203 589 _c
177 539 165 464 165 364 _c
165 264 177 189 203 139 _c
229 89 267 64 318 64 _c
369 64 407 89 433 139 _c
458 189 471 264 471 364 _c
471 464 458 539 433 589 _c
407 639 369 664 318 664 _c
318 742 _m
399 742 461 709 505 645 _c
548 580 570 486 570 364 _c
570 241 548 147 505 83 _c
461 19 399 -13 318 -13 _c
236 -13 173 19 130 83 _c
87 147 66 241 66 364 _c
66 486 87 580 130 645 _c
173 709 236 742 318 742 _c
_cl}_d
/one{636 0 110 0 544 729 _sc
124 83 _m
285 83 _l
285 639 _l
110 604 _l
110 694 _l
284 729 _l
383 729 _l
383 83 _l
544 83 _l
544 0 _l
124 0 _l
124 83 _l
_cl}_d
/two{{636 0 73 0 536 742 _sc
192 83 _m
536 83 _l
536 0 _l
73 0 _l
73 83 _l
110 121 161 173 226 239 _c
290 304 331 346 348 365 _c
380 400 402 430 414 455 _c
426 479 433 504 433 528 _c
433 566 419 598 392 622 _c
365 646 330 659 286 659 _c
255 659 222 653 188 643 _c
154 632 117 616 78 594 _c
78 694 _l
118 710 155 722 189 730 _c
223 738 255 742 284 742 _c
}_e{359 742 419 723 464 685 _c
509 647 532 597 532 534 _c
532 504 526 475 515 449 _c
504 422 484 390 454 354 _c
446 344 420 317 376 272 _c
332 227 271 164 192 83 _c
_cl}_e}_d
/three{{636 0 76 -13 556 742 _sc
406 393 _m
453 383 490 362 516 330 _c
542 298 556 258 556 212 _c
556 140 531 84 482 45 _c
432 6 362 -13 271 -13 _c
240 -13 208 -10 176 -4 _c
144 1 110 10 76 22 _c
76 117 _l
103 101 133 89 166 81 _c
198 73 232 69 268 69 _c
330 69 377 81 409 105 _c
441 129 458 165 458 212 _c
458 254 443 288 413 312 _c
383 336 341 349 287 349 _c
}_e{202 349 _l
202 430 _l
291 430 _l
339 430 376 439 402 459 _c
428 478 441 506 441 543 _c
441 580 427 609 401 629 _c
374 649 336 659 287 659 _c
260 659 231 656 200 650 _c
169 644 135 635 98 623 _c
98 711 _l
135 721 170 729 203 734 _c
235 739 266 742 296 742 _c
370 742 429 725 473 691 _c
517 657 539 611 539 553 _c
539 513 527 479 504 451 _c
481 423 448 403 406 393 _c
_cl}_e}_d
/five{{636 0 77 -13 549 729 _sc
108 729 _m
495 729 _l
495 646 _l
198 646 _l
198 467 _l
212 472 227 476 241 478 _c
255 480 270 482 284 482 _c
365 482 429 459 477 415 _c
525 370 549 310 549 234 _c
549 155 524 94 475 51 _c
426 8 357 -13 269 -13 _c
238 -13 207 -10 175 -6 _c
143 -1 111 6 77 17 _c
77 116 _l
106 100 136 88 168 80 _c
199 72 232 69 267 69 _c
}_e{323 69 368 83 401 113 _c
433 143 450 183 450 234 _c
450 284 433 324 401 354 _c
368 384 323 399 267 399 _c
241 399 214 396 188 390 _c
162 384 135 375 108 363 _c
108 729 _l
_cl}_e}_d
/a{{613 0 60 -13 522 560 _sc
343 275 _m
270 275 220 266 192 250 _c
164 233 150 205 150 165 _c
150 133 160 107 181 89 _c
202 70 231 61 267 61 _c
317 61 357 78 387 114 _c
417 149 432 196 432 255 _c
432 275 _l
343 275 _l
522 312 _m
522 0 _l
432 0 _l
432 83 _l
411 49 385 25 355 10 _c
325 -5 287 -13 243 -13 _c
187 -13 142 2 109 33 _c
76 64 60 106 60 159 _c
}_e{60 220 80 266 122 298 _c
163 329 224 345 306 345 _c
432 345 _l
432 354 _l
432 395 418 427 391 450 _c
364 472 326 484 277 484 _c
245 484 215 480 185 472 _c
155 464 127 453 100 439 _c
100 522 _l
132 534 164 544 195 550 _c
226 556 256 560 286 560 _c
365 560 424 539 463 498 _c
502 457 522 395 522 312 _c
_cl}_e}_d
/d{{635 0 55 -13 544 760 _sc
454 464 _m
454 760 _l
544 760 _l
544 0 _l
454 0 _l
454 82 _l
435 49 411 25 382 10 _c
353 -5 319 -13 279 -13 _c
213 -13 159 13 117 65 _c
75 117 55 187 55 273 _c
55 359 75 428 117 481 _c
159 533 213 560 279 560 _c
319 560 353 552 382 536 _c
411 520 435 496 454 464 _c
148 273 _m
148 207 161 155 188 117 _c
215 79 253 61 301 61 _c
}_e{348 61 385 79 413 117 _c
440 155 454 207 454 273 _c
454 339 440 390 413 428 _c
385 466 348 485 301 485 _c
253 485 215 466 188 428 _c
161 390 148 339 148 273 _c
_cl}_e}_d
/e{{615 0 55 -13 562 560 _sc
562 296 _m
562 252 _l
149 252 _l
153 190 171 142 205 110 _c
238 78 284 62 344 62 _c
378 62 412 66 444 74 _c
476 82 509 95 541 113 _c
541 28 _l
509 14 476 3 442 -3 _c
408 -9 373 -13 339 -13 _c
251 -13 182 12 131 62 _c
80 112 55 181 55 268 _c
55 357 79 428 127 481 _c
175 533 241 560 323 560 _c
397 560 455 536 498 489 _c
}_e{540 441 562 377 562 296 _c
472 322 _m
471 371 457 410 431 440 _c
404 469 368 484 324 484 _c
274 484 234 469 204 441 _c
174 413 156 373 152 322 _c
472 322 _l
_cl}_e}_d
/i{278 0 94 0 184 760 _sc
94 547 _m
184 547 _l
184 0 _l
94 0 _l
94 547 _l
94 760 _m
184 760 _l
184 646 _l
94 646 _l
94 760 _l
_cl}_d
/m{{974 0 91 0 889 560 _sc
520 442 _m
542 482 569 511 600 531 _c
631 550 668 560 711 560 _c
767 560 811 540 842 500 _c
873 460 889 403 889 330 _c
889 0 _l
799 0 _l
799 327 _l
799 379 789 418 771 444 _c
752 469 724 482 686 482 _c
639 482 602 466 575 435 _c
548 404 535 362 535 309 _c
535 0 _l
445 0 _l
445 327 _l
445 379 435 418 417 444 _c
398 469 369 482 331 482 _c
}_e{285 482 248 466 221 435 _c
194 404 181 362 181 309 _c
181 0 _l
91 0 _l
91 547 _l
181 547 _l
181 462 _l
201 495 226 520 255 536 _c
283 552 317 560 357 560 _c
397 560 430 550 458 530 _c
486 510 506 480 520 442 _c
_cl}_e}_d
/r{411 0 91 0 411 560 _sc
411 463 _m
401 469 390 473 378 476 _c
366 478 353 480 339 480 _c
288 480 249 463 222 430 _c
194 397 181 350 181 288 _c
181 0 _l
91 0 _l
91 547 _l
181 547 _l
181 462 _l
199 495 224 520 254 536 _c
284 552 321 560 365 560 _c
371 560 378 559 386 559 _c
393 558 401 557 411 555 _c
411 463 _l
_cl}_d
/t{392 0 27 0 368 702 _sc
183 702 _m
183 547 _l
368 547 _l
368 477 _l
183 477 _l
183 180 _l
183 135 189 106 201 94 _c
213 81 238 75 276 75 _c
368 75 _l
368 0 _l
276 0 _l
206 0 158 13 132 39 _c
106 65 93 112 93 180 _c
93 477 _l
27 477 _l
27 547 _l
93 547 _l
93 702 _l
183 702 _l
_cl}_d
/minus{838 0 106 272 732 355 _sc
106 355 _m
732 355 _l
732 272 _l
106 272 _l
106 355 _l
_cl}_d
end readonly def

/BuildGlyph
 {exch begin
 CharStrings exch
 2 copy known not{pop /.notdef}if
 true 3 1 roll get exec
 end}_d

/BuildChar {
 1 index /Encoding get exch get
 1 index /BuildGlyph get exec
}_d

FontName currentdict end definefont pop
end
%%EndProlog
mpldict begin
18 180 translate
576 432 0 0 clipbox
gsave
0 0 m
576 0 l
576 432 l
0 432 l
cl
1.000 setgray
fill
grestore
gsave
72 43.2 m
518.4 43.2 l
518.4 388.8 l
72 388.8 l
cl
1.000 setgray
fill
grestore
1.000 setlinewidth
1 setlinejoin
2 setlinecap
[] 0 setdash
0.000 0.000 1.000 setrgbcolor
gsave
446.4 345.6 72 43.2 clipbox
72 226.661 m
72.3571 226.551 l
73.4597 226.067 l
73.7521 226.275 l
74.0624 226.798 l
74.424 227.892 l
74.8503 229.965 l
75.3525 233.615 l
75.9506 239.741 l
76.685 249.745 l
77.6871 266.764 l
80.5753 317.56 l
81.3833 327.299 l
81.9837 332.153 l
82.4145 334.092 l
82.6935 334.55 l
82.8542 334.499 l
83.0372 334.14 l
83.2917 333.071 l
83.622 330.606 l
84.026 325.742 l
84.4992 317.113 l
85.0393 302.864 l
85.6531 280.354 l
86.3808 244.817 l
87.3986 182.811 l
89.4141 48.5691 l
89.4163 383.351 l
89.5257 375.624 l
90.5702 293.313 l
91.8269 173.345 l
93.1549 48.6415 l
93.1571 383.378 l
93.2665 373.482 l
96.9515 48.5916 l
96.9538 383.38 l
97.0631 376.058 l
99.3174 233.635 l
100.449 171.815 l
101.228 140.555 l
101.889 122.237 l
102.465 111.857 l
102.958 106.528 l
103.357 104.278 l
103.648 103.656 l
103.826 103.655 l
104.011 103.938 l
104.281 104.831 l
104.661 106.953 l
105.176 111.24 l
105.864 118.996 l
106.813 132.462 l
110.435 186.61 l
111.223 193.859 l
111.922 198.372 l
112.602 201.39 l
113.511 204.317 l
114.316 207.155 l
114.899 210.102 l
115.482 214.274 l
116.111 220.51 l
116.823 229.948 l
117.676 244.442 l
118.841 268.448 l
124.093 383.423 l
124.095 48.5346 l
124.204 50.9921 l
125.61 85.2375 l
126.816 120.251 l
128.416 174.28 l
129.679 213.84 l
130.4 230.042 l
130.94 237.771 l
131.344 240.839 l
131.617 241.579 l
131.757 241.547 l
131.916 241.182 l
132.159 239.959 l
132.505 236.915 l
132.976 230.571 l
133.641 218.246 l
136.092 169.732 l
136.572 165.276 l
136.898 163.929 l
137.067 163.814 l
137.081 163.822 l
137.219 164.065 l
137.429 164.979 l
137.723 167.407 l
138.11 172.662 l
138.594 182.593 l
139.201 200.043 l
140.002 230.135 l
141.484 296.132 l
143.388 383.385 l
143.391 48.5545 l
143.5 53.911 l
144.549 111.182 l
145.58 180.737 l
147.625 321.75 l
148.56 368.473 l
148.915 383.436 l
148.917 48.5879 l
149.026 52.9636 l
150.276 98.0084 l
153.526 204.127 l
154.537 230.466 l
155.314 245.355 l
155.966 253.95 l
156.526 258.684 l
157.003 261.039 l
157.396 262.012 l
157.704 262.279 l
157.963 262.232 l
158.278 261.917 l
158.765 261.062 l
160.075 258.642 l
160.461 258.394 l
160.76 258.449 l
161.066 258.754 l
161.436 259.474 l
161.903 260.923 l
162.512 263.62 l
163.503 269.2 l
164.57 274.807 l
165.081 276.443 l
165.407 276.881 l
165.615 276.857 l
165.822 276.567 l
166.092 275.749 l
166.434 273.919 l
166.849 270.359 l
167.34 264.05 l
167.914 253.565 l
168.59 236.805 l
169.44 209.715 l
170.817 157.499 l
173.5 48.5461 l
173.502 383.382 l
173.612 378.272 l
174.518 330.174 l
175.397 270.876 l
177.007 142.283 l
178.312 48.659 l
178.315 383.448 l
178.424 376.128 l
182.105 137.717 l
182.794 111.591 l
183.379 97.062 l
183.863 89.9032 l
184.234 87.1838 l
184.477 86.6292 l
184.598 86.7048 l
184.761 87.1692 l
185.008 88.6604 l
185.352 92.2709 l
185.796 99.5475 l
186.343 112.498 l
187.002 133.795 l
187.83 168.446 l
190.428 283.184 l
191.033 298.05 l
191.495 304.668 l
191.823 306.774 l
191.988 307.002 l
192.01 306.99 l
192.128 306.753 l
192.318 305.766 l
192.595 302.972 l
192.965 296.692 l
193.434 284.575 l
194.017 263.211 l
194.773 226.457 l
196.34 135.985 l
197.97 48.5735 l
197.972 383.396 l
198.081 377.713 l
199.606 292.572 l
202.112 146.443 l
202.795 121.867 l
203.353 108.948 l
203.793 103.219 l
204.108 101.467 l
204.257 101.311 l
204.282 101.327 l
204.407 101.588 l
204.608 102.638 l
204.898 105.523 l
205.282 111.825 l
205.764 123.748 l
206.355 144.382 l
207.098 178.816 l
208.422 253.003 l
209.603 313.328 l
210.489 347.738 l
211.317 371.717 l
211.839 383.428 l
211.841 48.5342 l
211.951 50.6905 l
212.705 63.087 l
213.393 71.0055 l
213.995 75.6163 l
214.502 77.9727 l
214.906 78.9417 l
215.203 79.1784 l
215.435 79.1017 l
215.705 78.7421 l
216.067 77.8413 l
216.551 75.971 l
217.209 72.446 l
218.234 65.569 l
219.805 55.1868 l
220.435 52.4232 l
220.854 51.4276 l
221.122 51.2442 l
221.316 51.3663 l
221.548 51.8261 l
221.848 52.9801 l
222.216 55.3897 l
222.647 59.8184 l
223.135 67.3349 l
223.673 79.2823 l
224.258 97.5427 l
224.896 124.901 l
225.622 166.284 l
226.604 236.647 l
228.537 383.307 l
228.539 48.5362 l
228.648 56.7909 l
229.983 166.32 l
232.173 351.726 l
232.633 383.331 l
232.635 48.5413 l
232.744 55.7781 l
235.452 226.59 l
236.356 271.79 l
237.045 296.099 l
237.617 309.181 l
238.081 315.354 l
238.431 317.55 l
238.652 317.909 l
238.773 317.783 l
238.954 317.182 l
239.224 315.392 l
239.596 311.248 l
240.085 303.068 l
240.712 288.485 l
241.558 263.084 l
243.815 192.587 l
244.402 181.906 l
244.83 177.567 l
245.118 176.422 l
245.239 176.376 l
245.266 176.401 l
245.404 176.731 l
245.621 177.928 l
245.931 181.077 l
246.344 187.801 l
246.884 200.601 l
247.62 223.908 l
250.886 334.661 l
251.696 351.602 l
252.381 361.696 l
252.933 366.908 l
253.343 369.003 l
253.616 369.495 l
253.767 369.441 l
253.946 369.065 l
254.198 367.93 l
254.531 365.283 l
254.941 360.042 l
255.424 350.777 l
255.968 335.687 l
256.575 312.24 l
257.265 276.336 l
258.142 217.843 l
260.448 48.6069 l
260.45 383.385 l
260.559 375.501 l
261.948 267.082 l
264.037 99.4764 l
264.876 48.6316 l
264.878 383.446 l
264.988 377.403 l
266.883 279.656 l
268.554 200.392 l
269.369 171.818 l
270.012 156.361 l
270.534 148.549 l
270.945 145.253 l
271.237 144.334 l
271.398 144.306 l
271.402 144.309 l
271.559 144.598 l
271.797 145.599 l
272.139 148.121 l
272.608 153.437 l
273.253 163.559 l
274.355 185.033 l
275.549 206.853 l
276.188 214.812 l
276.645 218.131 l
276.962 219.117 l
277.145 219.178 l
277.302 218.933 l
277.531 218.077 l
277.855 215.893 l
278.29 211.253 l
278.871 202.426 l
279.728 185.544 l
281.632 147.341 l
282.288 138.741 l
282.759 135.09 l
283.078 134.017 l
283.25 133.951 l
283.254 133.954 l
283.402 134.207 l
283.618 135.105 l
283.917 137.426 l
284.301 142.353 l
284.77 151.518 l
285.33 167.203 l
286.013 193.109 l
286.935 237.474 l
289.319 367.579 l
289.591 383.414 l
289.593 48.6073 l
289.703 55.1493 l
290.7 122.062 l
291.736 208.099 l
293.803 383.306 l
293.805 48.5416 l
293.914 57.0421 l
297.51 327.637 l
298.323 364.981 l
298.834 383.425 l
298.836 48.5598 l
298.945 52.1147 l
299.914 79.518 l
302.575 150.474 l
303.612 187.826 l
305.552 268.266 l
307.306 335.263 l
308.534 383.412 l
308.536 48.5705 l
308.646 53.4005 l
309.485 95.937 l
310.286 148.505 l
311.29 230.79 l
313.058 383.458 l
313.06 48.709 l
313.17 58.0206 l
314.625 191.762 l
316.335 348.732 l
316.779 383.358 l
316.781 48.5889 l
316.891 56.8434 l
319.607 252.55 l
320.455 298.407 l
321.16 325.395 l
321.788 341.579 l
322.346 350.769 l
322.823 355.392 l
323.207 357.269 l
323.482 357.734 l
323.651 357.69 l
323.848 357.345 l
324.133 356.321 l
324.531 353.963 l
325.06 349.342 l
325.743 341.24 l
326.604 328.169 l
327.7 307.902 l
329.693 265.845 l
330.925 242.533 l
331.74 230.997 l
332.39 224.665 l
332.925 221.393 l
333.365 219.912 l
333.713 219.4 l
333.988 219.335 l
334.271 219.514 l
334.691 220.086 l
335.738 221.59 l
336.028 221.636 l
336.271 221.439 l
336.552 220.888 l
336.896 219.662 l
337.309 217.275 l
337.8 213.004 l
338.385 205.798 l
339.099 194.006 l
340.043 174.364 l
342.039 126.72 l
343.956 83.857 l
345.695 48.5481 l
345.697 383.442 l
345.806 381.252 l
348.076 333.528 l
349.77 292.679 l
351.991 239.299 l
352.837 224.355 l
353.495 216.289 l
354.027 212.21 l
354.451 210.442 l
354.768 209.901 l
354.989 209.874 l
355.212 210.104 l
355.526 210.797 l
356.015 212.493 l
357.475 217.875 l
357.808 218.294 l
358.022 218.27 l
358.236 217.982 l
358.513 217.183 l
358.868 215.393 l
359.305 211.923 l
359.841 205.727 l
360.504 195.236 l
361.377 177.545 l
363.03 138.361 l
364.72 100.627 l
365.992 77.0428 l
367.104 60.3256 l
368.023 49.584 l
368.131 48.5396 l
368.133 383.457 l
368.242 382.44 l
368.916 377.342 l
369.421 375.003 l
369.776 374.226 l
370.001 374.144 l
370.186 374.335 l
370.43 374.959 l
370.749 376.471 l
371.144 379.536 l
371.492 383.451 l
371.494 48.5411 l
371.604 50.0282 l
372.13 59.0797 l
372.711 73.1623 l
373.338 94.156 l
374.019 124.902 l
374.802 171.152 l
376.074 262.245 l
377.567 363.185 l
377.896 383.391 l
377.898 48.5888 l
378.007 55.2649 l
380.15 192.701 l
381.407 269.059 l
382.161 302.217 l
382.777 320.453 l
383.284 329.618 l
383.674 333.263 l
383.935 334.102 l
384.049 334.075 l
384.06 334.06 l
384.21 333.637 l
384.442 332.185 l
384.766 328.561 l
385.188 321.068 l
385.712 307.436 l
386.355 284.45 l
387.192 245.747 l
389.527 133.028 l
390.23 111.591 l
390.799 100.286 l
391.243 95.284 l
391.553 93.801 l
391.698 93.6833 l
391.723 93.7001 l
391.852 93.9655 l
392.055 94.9879 l
392.346 97.7589 l
392.723 103.743 l
393.187 114.972 l
393.741 134.198 l
394.403 165.623 l
395.283 219.082 l
397.798 383.44 l
397.801 48.6404 l
397.91 55.4689 l
399.388 154.868 l
401.53 303.345 l
402.334 341.491 l
403.077 366.829 l
403.764 383.458 l
403.767 48.5649 l
403.876 50.7097 l
404.552 61.474 l
405.2 68.4785 l
405.831 73.0534 l
406.494 76.2904 l
408.295 84.149 l
408.815 88.2745 l
409.34 94.3451 l
409.885 103.412 l
410.463 117.008 l
411.085 137.255 l
411.784 167.749 l
412.652 216.308 l
414.52 337.569 l
415.197 383.327 l
415.199 48.5452 l
415.308 56.2794 l
416.324 136.649 l
417.482 248.807 l
418.851 383.393 l
418.853 48.6688 l
418.962 59.2002 l
420.708 238.287 l
422.013 363.637 l
422.245 383.455 l
422.248 48.7043 l
422.357 57.8814 l
424.957 265.82 l
425.821 317.443 l
426.6 351.377 l
427.399 376.803 l
427.649 383.428 l
427.651 48.5467 l
427.761 51.3036 l
430.566 123.82 l
431.339 155.247 l
432.225 201.139 l
433.863 300.721 l
435.187 383.411 l
435.189 48.6199 l
435.298 55.9151 l
436.267 128.624 l
437.276 222.986 l
438.869 383.349 l
438.872 48.6342 l
438.981 59.634 l
440.423 216.358 l
441.961 383.249 l
441.963 48.5363 l
442.072 59.5695 l
444.936 336.804 l
445.572 383.341 l
445.574 48.5561 l
445.684 56.0269 l
448.016 206.579 l
449.188 272.68 l
450.041 308.874 l
450.851 334.24 l
451.773 356.083 l
453.052 383.441 l
453.054 48.5541 l
453.163 51.1409 l
453.944 72.5753 l
454.641 98.1328 l
455.342 132.544 l
456.125 182.805 l
457.319 276.267 l
458.632 383.39 l
458.634 48.6382 l
458.743 57.8345 l
459.906 165.603 l
462.031 383.457 l
462.033 48.7342 l
462.142 59.3026 l
465.537 376.556 l
465.631 383.381 l
465.633 48.6041 l
465.743 56.4555 l
468.066 214.182 l
469.109 273.659 l
469.887 306.271 l
470.582 326.667 l
471.229 339.609 l
471.845 347.803 l
472.454 353.133 l
473.108 356.967 l
474.938 366.576 l
475.503 371.677 l
476.07 378.945 l
476.345 383.451 l
476.347 48.5518 l
476.456 50.5564 l
477.059 64.0515 l
477.686 83.3784 l
478.349 111.102 l
479.077 151.518 l
480.003 216.682 l
482.242 383.338 l
482.244 48.5574 l
482.353 56.3054 l
483.949 177.42 l
485.616 303.855 l
486.494 352.789 l
487.201 383.46 l
487.203 48.6088 l
487.313 52.8184 l
488.397 89.7522 l
492.348 217.024 l
493.692 257.765 l
494.703 281.949 l
495.692 300.418 l
496.928 319.153 l
498.741 346.626 l
499.669 364.605 l
500.439 383.466 l
500.441 48.5893 l
500.551 51.6517 l
501.339 77.2558 l
502.129 110.552 l
502.993 157.044 l
506.07 333.936 l
506.838 359.79 l
507.55 376.782 l
507.927 383.449 l
507.93 48.5457 l
508.039 50.2013 l
508.626 57.1311 l
509.113 60.5502 l
509.488 61.854 l
509.74 62.1104 l
509.912 62.0076 l
510.128 61.5643 l
510.43 60.3756 l
510.829 57.7923 l
511.329 52.9618 l
511.677 48.5466 l
511.679 383.454 l
511.789 381.885 l
512.449 370.517 l
513.184 353.827 l
513.976 330.478 l
514.853 297.648 l
516.05 243.38 l
517.431 183.113 l
518.132 161.663 l
518.398 155.866 l
518.398 155.866 l
stroke
grestore
0.000 0.500 0.000 setrgbcolor
gsave
446.4 345.6 72 43.2 clipbox
72 226.661 m
72.3571 226.552 l
73.4553 226.069 l
73.7454 226.271 l
74.0579 226.792 l
74.4195 227.88 l
74.8436 229.931 l
75.3435 233.544 l
75.9417 239.64 l
76.6738 249.58 l
77.6737 266.522 l
80.5887 317.745 l
81.3923 327.384 l
81.9904 332.189 l
82.419 334.099 l
82.6957 334.544 l
82.8564 334.489 l
83.0395 334.126 l
83.2939 333.05 l
83.6243 330.575 l
84.0305 325.665 l
84.5037 317.002 l
85.0438 302.71 l
85.6598 280.051 l
86.3875 244.428 l
87.4097 182.063 l
89.4141 48.5514 l
89.4185 383.177 l
89.5257 375.606 l
90.5702 293.294 l
91.8291 173.105 l
93.1549 48.6229 l
93.1594 383.158 l
93.2665 373.464 l
96.9493 48.7239 l
96.9538 383.361 l
97.0609 376.188 l
99.3108 234.017 l
100.445 172.002 l
101.226 140.611 l
101.886 122.272 l
102.462 111.876 l
102.958 106.519 l
103.355 104.278 l
103.645 103.651 l
103.824 103.647 l
104.007 103.923 l
104.275 104.798 l
104.654 106.905 l
105.168 111.153 l
105.855 118.884 l
106.801 132.294 l
110.448 186.766 l
111.234 193.956 l
111.93 198.429 l
112.609 201.421 l
113.524 204.36 l
114.323 207.181 l
114.904 210.123 l
115.488 214.322 l
116.118 220.576 l
116.832 230.07 l
117.689 244.682 l
118.863 268.928 l
124.09 383.38 l
124.095 48.5411 l
124.202 50.9487 l
125.608 85.193 l
126.813 120.205 l
128.416 174.319 l
129.679 213.881 l
130.403 230.12 l
130.943 237.826 l
131.344 240.865 l
131.617 241.601 l
131.755 241.57 l
131.916 241.199 l
132.161 239.957 l
132.51 236.873 l
132.983 230.463 l
133.652 218.001 l
136.072 169.935 l
136.558 165.318 l
136.889 163.903 l
137.063 163.768 l
137.076 163.775 l
137.21 163.997 l
137.415 164.858 l
137.706 167.179 l
138.085 172.217 l
138.563 181.805 l
139.161 198.697 l
139.947 227.816 l
141.33 289.119 l
143.388 383.429 l
143.393 48.7075 l
143.5 53.9583 l
144.549 111.262 l
145.58 180.854 l
147.62 321.634 l
148.558 368.521 l
148.91 383.411 l
148.915 48.6537 l
149.022 52.9468 l
150.276 98.2383 l
153.522 204.434 l
154.526 230.594 l
155.298 245.386 l
155.95 253.96 l
156.508 258.644 l
156.981 260.949 l
157.37 261.888 l
157.673 262.133 l
157.928 262.071 l
158.244 261.727 l
158.736 260.81 l
160.07 258.186 l
160.459 257.91 l
160.753 257.95 l
161.052 258.234 l
161.414 258.922 l
161.869 260.317 l
162.463 262.931 l
163.383 268.149 l
164.579 274.677 l
165.097 276.394 l
165.427 276.863 l
165.632 276.851 l
165.838 276.577 l
166.106 275.781 l
166.445 273.986 l
166.86 270.451 l
167.347 264.229 l
167.918 253.825 l
168.592 237.162 l
169.44 210.165 l
170.802 158.488 l
173.502 48.5723 l
173.507 383.304 l
173.614 378.29 l
174.52 330.119 l
175.4 270.753 l
177.033 140.174 l
178.31 48.7235 l
178.315 383.362 l
178.422 376.186 l
182.1 137.667 l
182.788 111.547 l
183.372 96.9367 l
183.859 89.6844 l
184.234 86.9032 l
184.479 86.3349 l
184.6 86.4074 l
184.765 86.8756 l
185.015 88.3823 l
185.359 91.9959 l
185.805 99.3111 l
186.354 112.321 l
187.015 133.702 l
187.845 168.459 l
190.43 282.659 l
191.037 297.654 l
191.501 304.34 l
191.827 306.454 l
191.997 306.697 l
192.015 306.688 l
192.131 306.469 l
192.318 305.523 l
192.59 302.835 l
192.957 296.749 l
193.421 284.94 l
193.997 264.116 l
194.742 228.324 l
196.175 145.864 l
197.871 54.2559 l
197.979 48.7235 l
197.983 383.431 l
198.09 377.885 l
199.621 292.725 l
202.126 147.265 l
202.809 122.776 l
203.362 110.018 l
203.8 104.354 l
204.112 102.639 l
204.259 102.495 l
204.282 102.51 l
204.407 102.773 l
204.608 103.83 l
204.898 106.736 l
205.282 113.079 l
205.764 125.072 l
206.357 145.891 l
207.107 180.776 l
208.527 260.164 l
209.652 316.339 l
210.531 349.679 l
211.357 373 l
211.83 383.426 l
211.835 48.5765 l
211.942 50.6704 l
212.692 62.8852 l
213.375 70.6643 l
213.973 75.1612 l
214.469 77.3994 l
214.861 78.2919 l
215.143 78.4844 l
215.37 78.3834 l
215.643 77.9778 l
216.009 76.9779 l
216.495 74.9242 l
217.138 71.149 l
218.044 64.3539 l
219.95 48.5363 l
219.955 383.441 l
220.062 382.642 l
220.897 377.322 l
221.459 374.992 l
221.848 374.177 l
222.098 374.061 l
222.294 374.221 l
222.539 374.759 l
222.856 376.065 l
223.245 378.716 l
223.696 383.456 l
223.7 48.5743 l
223.807 49.9976 l
224.334 58.8431 l
224.91 72.5449 l
225.53 92.9906 l
226.2 122.889 l
226.963 167.694 l
228.097 249.58 l
229.887 376.001 l
229.999 383.366 l
230.003 48.7223 l
230.11 55.7906 l
231.887 180.387 l
233.4 284.875 l
234.204 325.193 l
234.909 350.225 l
235.548 365.636 l
236.114 374.478 l
236.597 378.934 l
236.976 380.692 l
237.235 381.084 l
237.396 381.015 l
237.592 380.621 l
237.878 379.46 l
238.262 376.854 l
238.757 371.798 l
239.36 363.174 l
240.065 349.664 l
240.86 329.921 l
241.766 301.508 l
243.016 254.356 l
244.422 203.334 l
245.118 185.572 l
245.636 177.336 l
246.011 174.307 l
246.252 173.7 l
246.364 173.775 l
246.52 174.256 l
246.761 175.851 l
247.1 179.799 l
247.551 187.939 l
248.154 203.281 l
249.06 232.848 l
250.814 290.355 l
251.555 307.298 l
252.122 315.742 l
252.542 319.171 l
252.819 320.022 l
252.948 320.018 l
252.957 320.008 l
253.104 319.66 l
253.328 318.458 l
253.636 315.414 l
254.029 309.074 l
254.506 297.429 l
255.073 277.739 l
255.765 245.269 l
256.729 188.211 l
258.885 48.533 l
258.89 383.172 l
258.997 375.934 l
260.108 292.792 l
261.613 158.911 l
262.948 50.8394 l
262.974 48.8347 l
262.979 383.44 l
263.086 375.453 l
266.34 141.74 l
267.099 106.158 l
267.773 84.1635 l
268.385 70.8387 l
268.929 63.3443 l
269.394 59.6615 l
269.76 58.2584 l
270.01 57.9727 l
270.179 58.0636 l
270.398 58.4976 l
270.71 59.6917 l
271.139 62.3235 l
271.702 67.3121 l
272.416 75.8042 l
273.295 89.0944 l
274.353 108.659 l
275.688 137.798 l
278.152 192.254 l
278.956 204.785 l
279.585 211.465 l
280.094 214.757 l
280.491 216.084 l
280.781 216.432 l
280.991 216.392 l
281.237 216.075 l
281.589 215.197 l
282.165 213.065 l
283.268 208.991 l
283.652 208.335 l
283.888 208.277 l
284.094 208.48 l
284.352 209.107 l
284.683 210.567 l
285.094 213.5 l
285.593 218.828 l
286.205 227.949 l
286.977 243.104 l
288.102 270.116 l
291.397 351.3 l
292.834 383.377 l
292.839 48.5391 l
292.946 50.9508 l
294.646 91.8292 l
295.196 106.644 l
295.196 106.644 l
stroke
grestore
0 setlinejoin
0.000 setgray
gsave
72 388.8 m
518.4 388.8 l
stroke
grestore
gsave
518.4 43.2 m
518.4 388.8 l
stroke
grestore
gsave
72 43.2 m
518.4 43.2 l
stroke
grestore
gsave
72 43.2 m
72 388.8 l
stroke
grestore
0.500 setlinewidth
1 setlinejoin
0 setlinecap
gsave
/o {
gsave
newpath
translate
0.5 setlinewidth
1 setlinejoin
0 setlinecap
0 0 m
0 4 l
gsave
0.000 setgray
fill
grestore
stroke
grestore
} bind def
72 43.2 o
grestore
gsave
/o {
gsave
newpath
translate
0.5 setlinewidth
1 setlinejoin
0 setlinecap
0 0 m
0 -4 l
gsave
0.000 setgray
fill
grestore
stroke
grestore
} bind def
72 388.8 o
grestore
/BitstreamVeraSans-Roman findfont
12.000 scalefont
setfont
gsave
68.976562 30.075000 translate
0.000000 rotate
0.000000 0.000000 m /zero glyphshow
grestore
gsave
/o {
gsave
newpath
translate
0.5 setlinewidth
1 setlinejoin
0 setlinecap
0 0 m
0 4 l
gsave
0.000 setgray
fill
grestore
stroke
grestore
} bind def
183.6 43.2 o
grestore
gsave
/o {
gsave
newpath
translate
0.5 setlinewidth
1 setlinejoin
0 setlinecap
0 0 m
0 -4 l
gsave
0.000 setgray
fill
grestore
stroke
grestore
} bind def
183.6 388.8 o
grestore
gsave
176.818750 30.075000 translate
0.000000 rotate
0.000000 0.000000 m /five glyphshow
7.634766 0.000000 m /zero glyphshow
grestore
gsave
/o {
gsave
newpath
translate
0.5 setlinewidth
1 setlinejoin
0 setlinecap
0 0 m
0 4 l
gsave
0.000 setgray
fill
grestore
stroke
grestore
} bind def
295.2 43.2 o
grestore
gsave
/o {
gsave
newpath
translate
0.5 setlinewidth
1 setlinejoin
0 setlinecap
0 0 m
0 -4 l
gsave
0.000 setgray
fill
grestore
stroke
grestore
} bind def
295.2 388.8 o
grestore
gsave
284.793750 30.075000 translate
0.000000 rotate
0.000000 0.000000 m /one glyphshow
7.634766 0.000000 m /zero glyphshow
15.269531 0.000000 m /zero glyphshow
grestore
gsave
/o {
gsave
newpath
translate
0.5 setlinewidth
1 setlinejoin
0 setlinecap
0 0 m
0 4 l
gsave
0.000 setgray
fill
grestore
stroke
grestore
} bind def
406.8 43.2 o
grestore
gsave
/o {
gsave
newpath
translate
0.5 setlinewidth
1 setlinejoin
0 setlinecap
0 0 m
0 -4 l
gsave
0.000 setgray
fill
grestore
stroke
grestore
} bind def
406.8 388.8 o
grestore
gsave
396.393750 30.075000 translate
0.000000 rotate
0.000000 0.000000 m /one glyphshow
7.634766 0.000000 m /five glyphshow
15.269531 0.000000 m /zero glyphshow
grestore
gsave
/o {
gsave
newpath
translate
0.5 setlinewidth
1 setlinejoin
0 setlinecap
0 0 m
0 4 l
gsave
0.000 setgray
fill
grestore
stroke
grestore
} bind def
518.4 43.2 o
grestore
gsave
/o {
gsave
newpath
translate
0.5 setlinewidth
1 setlinejoin
0 setlinecap
0 0 m
0 -4 l
gsave
0.000 setgray
fill
grestore
stroke
grestore
} bind def
518.4 388.8 o
grestore
gsave
507.775000 30.075000 translate
0.000000 rotate
0.000000 0.000000 m /two glyphshow
7.634766 0.000000 m /zero glyphshow
15.269531 0.000000 m /zero glyphshow
grestore
gsave
269.200000 11.934375 translate
0.000000 rotate
/BitstreamVeraSans-Roman findfont
14.0 scalefont
setfont
0.000000 0.359375 moveto
/t glyphshow

5.489258 0.359375 moveto
/i glyphshow

9.378906 0.359375 moveto
/m glyphshow

23.016602 0.359375 moveto
/e glyphshow

31.629883 0.359375 moveto
/space glyphshow

36.080078 0.359375 moveto
/slash glyphshow

40.796875 0.359375 moveto
/space glyphshow

/Cmmi10 findfont
14.0 scalefont
setfont
45.247070 0.359375 moveto
/s glyphshow


grestore
gsave
/o {
gsave
newpath
translate
0.5 setlinewidth
1 setlinejoin
0 setlinecap
0 0 m
4 0 l
gsave
0.000 setgray
fill
grestore
stroke
grestore
} bind def
72 56.0786 o
grestore
gsave
/o {
gsave
newpath
translate
0.5 setlinewidth
1 setlinejoin
0 setlinecap
0 0 m
-4 0 l
gsave
0.000 setgray
fill
grestore
stroke
grestore
} bind def
518.4 56.0786 o
grestore
gsave
52.531250 52.766111 translate
0.000000 rotate
0.000000 0.000000 m /minus glyphshow
10.054688 0.000000 m /three glyphshow
grestore
gsave
/o {
gsave
newpath
translate
0.5 setlinewidth
1 setlinejoin
0 setlinecap
0 0 m
4 0 l
gsave
0.000 setgray
fill
grestore
stroke
grestore
} bind def
72 109.386 o
grestore
gsave
/o {
gsave
newpath
translate
0.5 setlinewidth
1 setlinejoin
0 setlinecap
0 0 m
-4 0 l
gsave
0.000 setgray
fill
grestore
stroke
grestore
} bind def
518.4 109.386 o
grestore
gsave
52.765625 106.073241 translate
0.000000 rotate
0.000000 0.000000 m /minus glyphshow
10.054688 0.000000 m /two glyphshow
grestore
gsave
/o {
gsave
newpath
translate
0.5 setlinewidth
1 setlinejoin
0 setlinecap
0 0 m
4 0 l
gsave
0.000 setgray
fill
grestore
stroke
grestore
} bind def
72 162.693 o
grestore
gsave
/o {
gsave
newpath
translate
0.5 setlinewidth
1 setlinejoin
0 setlinecap
0 0 m
-4 0 l
gsave
0.000 setgray
fill
grestore
stroke
grestore
} bind def
518.4 162.693 o
grestore
gsave
52.671875 159.380370 translate
0.000000 rotate
0.000000 0.000000 m /minus glyphshow
10.054688 0.000000 m /one glyphshow
grestore
gsave
/o {
gsave
newpath
translate
0.5 setlinewidth
1 setlinejoin
0 setlinecap
0 0 m
4 0 l
gsave
0.000 setgray
fill
grestore
stroke
grestore
} bind def
72 216 o
grestore
gsave
/o {
gsave
newpath
translate
0.5 setlinewidth
1 setlinejoin
0 setlinecap
0 0 m
-4 0 l
gsave
0.000 setgray
fill
grestore
stroke
grestore
} bind def
518.4 216 o
grestore
gsave
61.953125 212.687500 translate
0.000000 rotate
0.000000 0.000000 m /zero glyphshow
grestore
gsave
/o {
gsave
newpath
translate
0.5 setlinewidth
1 setlinejoin
0 setlinecap
0 0 m
4 0 l
gsave
0.000 setgray
fill
grestore
stroke
grestore
} bind def
72 269.307 o
grestore
gsave
/o {
gsave
newpath
translate
0.5 setlinewidth
1 setlinejoin
0 setlinecap
0 0 m
-4 0 l
gsave
0.000 setgray
fill
grestore
stroke
grestore
} bind def
518.4 269.307 o
grestore
gsave
62.781250 265.994630 translate
0.000000 rotate
0.000000 0.000000 m /one glyphshow
grestore
gsave
/o {
gsave
newpath
translate
0.5 setlinewidth
1 setlinejoin
0 setlinecap
0 0 m
4 0 l
gsave
0.000 setgray
fill
grestore
stroke
grestore
} bind def
72 322.614 o
grestore
gsave
/o {
gsave
newpath
translate
0.5 setlinewidth
1 setlinejoin
0 setlinecap
0 0 m
-4 0 l
gsave
0.000 setgray
fill
grestore
stroke
grestore
} bind def
518.4 322.614 o
grestore
gsave
62.437500 319.301759 translate
0.000000 rotate
0.000000 0.000000 m /two glyphshow
grestore
gsave
/o {
gsave
newpath
translate
0.5 setlinewidth
1 setlinejoin
0 setlinecap
0 0 m
4 0 l
gsave
0.000 setgray
fill
grestore
stroke
grestore
} bind def
72 375.921 o
grestore
gsave
/o {
gsave
newpath
translate
0.5 setlinewidth
1 setlinejoin
0 setlinecap
0 0 m
-4 0 l
gsave
0.000 setgray
fill
grestore
stroke
grestore
} bind def
518.4 375.921 o
grestore
gsave
62.250000 372.608889 translate
0.000000 rotate
0.000000 0.000000 m /three glyphshow
grestore
gsave
44.625000 194.000000 translate
90.000000 rotate
/Cmmi10 findfont
14.0 scalefont
setfont
0.000000 0.359375 moveto
/theta glyphshow

/BitstreamVeraSans-Roman findfont
14.0 scalefont
setfont
6.569336 0.359375 moveto
/space glyphshow

11.019531 0.359375 moveto
/slash glyphshow

15.736328 0.359375 moveto
/space glyphshow

20.186523 0.359375 moveto
/r glyphshow

25.942383 0.359375 moveto
/a glyphshow

34.521484 0.359375 moveto
/d glyphshow


grestore
1.000 setlinewidth
0 setlinejoin
gsave
394.36 335.786 m
511.2 335.786 l
511.2 381.6 l
394.36 381.6 l
cl
gsave
1.000 setgray
fill
grestore
stroke
grestore
1 setlinejoin
2 setlinecap
0.000 0.000 1.000 setrgbcolor
gsave
404.44 370.239 m
424.6 370.239 l
stroke
grestore
0.000 setgray
gsave
440.440000 365.199375 translate
0.000000 rotate
/Cmr10 findfont
14.4 scalefont
setfont
0.000000 0.703125 moveto
/Delta glyphshow

/Cmmi10 findfont
14.4 scalefont
setfont
11.987503 0.703125 moveto
/t glyphshow

/Cmr10 findfont
14.4 scalefont
setfont
19.706998 0.703125 moveto
/equal glyphshow

31.796289 0.703125 moveto
/zero glyphshow

/Cmmi10 findfont
14.4 scalefont
setfont
38.991602 0.703125 moveto
/period glyphshow

/Cmr10 findfont
14.4 scalefont
setfont
43.096518 0.703125 moveto
/zero glyphshow

50.291830 0.703125 moveto
/zero glyphshow

57.487143 0.703125 moveto
/one glyphshow


grestore
0.000 0.500 0.000 setrgbcolor
gsave
404.44 349.493 m
424.6 349.493 l
stroke
grestore
0.000 setgray
gsave
440.440000 344.452500 translate
0.000000 rotate
/Cmr10 findfont
14.4 scalefont
setfont
0.000000 0.703125 moveto
/Delta glyphshow

/Cmmi10 findfont
14.4 scalefont
setfont
11.987503 0.703125 moveto
/t glyphshow

/Cmr10 findfont
14.4 scalefont
setfont
19.706998 0.703125 moveto
/equal glyphshow

31.796289 0.703125 moveto
/zero glyphshow

/Cmmi10 findfont
14.4 scalefont
setfont
38.991602 0.703125 moveto
/period glyphshow

/Cmr10 findfont
14.4 scalefont
setfont
43.096518 0.703125 moveto
/zero glyphshow

50.291830 0.703125 moveto
/zero glyphshow

57.487143 0.703125 moveto
/two glyphshow


grestore

end
showpage
