%!PS-Adobe-3.0 EPSF-3.0
%%Title: dp-0_5.eps
%%Creator: matplotlib version 1.4.3, http://matplotlib.org/
%%CreationDate: Tue Nov 10 00:01:42 2015
%%Orientation: portrait
%%BoundingBox: 18 180 594 612
%%EndComments
%%BeginProlog
/mpldict 10 dict def
mpldict begin
/m { moveto } bind def
/l { lineto } bind def
/r { rlineto } bind def
/c { curveto } bind def
/cl { closepath } bind def
/box {
m
1 index 0 r
0 exch r
neg 0 r
cl
} bind def
/clipbox {
box
clip
newpath
} bind def
%!PS-Adobe-3.0 Resource-Font
%%Title: cmr10
%%Copyright: Copyright (C) 1994, Basil K. Malyshev. All Rights Reserved.012BaKoMa Fonts Collection, Level-B.
%%Creator: Converted from TrueType to type 3 by PPR
25 dict begin
/_d{bind def}bind def
/_m{moveto}_d
/_l{lineto}_d
/_cl{closepath eofill}_d
/_c{curveto}_d
/_sc{7 -1 roll{setcachedevice}{pop pop pop pop pop pop}ifelse}_d
/_e{exec}_d
/FontName /Cmr10 def
/PaintType 0 def
/FontMatrix[.001 0 0 .001 0 0]def
/FontBBox[-44 -250 1009 750]def
/FontType 3 def
/Encoding [ /Delta /zero /equal /two /one ] def
/FontInfo 10 dict dup begin
/FamilyName (cmr10) def
/FullName (cmr10) def
/Notice (Copyright (C) 1994, Basil K. Malyshev. All Rights Reserved.012BaKoMa Fonts Collection, Level-B. ) def
/Weight (Regular) def
/Version (1.1/12-Nov-94) def
/ItalicAngle 0.0 def
/isFixedPitch false def
/UnderlinePosition -133 def
/UnderlineThickness 20 def
end readonly def
/CharStrings 5 dict dup begin
/Delta{833 0 46 0 786 716 _sc
54 0 _m
48 0 46 2 46 8 _c
46 8 46 9 46 9 _c
46 9 47 10 47 11 _c
391 705 _l
394 712 400 716 409 716 _c
423 716 _l
432 716 438 712 441 705 _c
785 11 _l
785 10 786 9 786 9 _c
786 9 786 8 786 8 _c
786 2 783 0 778 0 _c
54 0 _l
120 80 _m
647 80 _l
384 611 _l
120 80 _l
_cl}_d
/zero{{500 0 39 -21 460 666 _sc
250 -21 _m
168 -21 112 12 83 79 _c
53 146 39 226 39 319 _c
39 377 44 431 55 482 _c
65 533 86 576 118 612 _c
149 648 193 666 250 666 _c
294 666 330 655 358 634 _c
386 612 407 585 422 551 _c
436 517 446 480 452 441 _c
457 402 460 361 460 319 _c
460 261 454 208 444 158 _c
433 108 412 65 381 31 _c
350 -3 306 -21 250 -21 _c
250 4 _m
}_e{287 4 315 23 333 61 _c
351 99 362 141 366 187 _c
370 233 373 283 373 335 _c
373 385 370 431 366 473 _c
362 515 351 554 333 588 _c
315 622 287 640 250 640 _c
212 640 184 622 166 588 _c
148 554 136 515 132 473 _c
128 431 126 385 126 335 _c
126 297 126 262 128 230 _c
130 197 135 163 143 128 _c
151 93 163 64 181 40 _c
198 16 221 4 250 4 _c
_cl}_e}_d
/equal{{777 0 56 133 721 367 _sc
75 133 _m
69 133 65 135 61 139 _c
57 143 56 148 56 153 _c
56 158 57 163 61 167 _c
65 171 69 173 75 173 _c
703 173 _l
707 173 711 171 715 167 _c
719 163 721 158 721 153 _c
721 148 719 143 715 139 _c
711 135 707 133 703 133 _c
75 133 _l
75 327 _m
69 327 65 329 61 333 _c
57 337 56 341 56 347 _c
56 351 57 356 61 360 _c
}_e{65 364 69 367 75 367 _c
703 367 _l
707 367 711 364 715 360 _c
719 356 721 351 721 347 _c
721 341 719 337 715 333 _c
711 329 707 327 703 327 _c
75 327 _l
_cl}_e}_d
/two{{500 0 50 0 449 666 _sc
50 0 _m
50 27 _l
50 28 50 30 52 32 _c
207 204 _l
230 229 249 250 264 268 _c
278 285 293 305 307 327 _c
321 349 333 372 341 396 _c
349 419 354 444 354 470 _c
354 497 349 523 339 548 _c
329 573 314 593 294 608 _c
274 623 249 631 221 631 _c
192 631 166 622 143 605 _c
119 587 103 565 94 537 _c
96 537 100 538 105 538 _c
}_e{119 538 132 533 143 523 _c
153 513 159 500 159 484 _c
159 468 153 455 143 445 _c
132 434 119 429 105 429 _c
89 429 76 434 66 445 _c
55 456 50 469 50 484 _c
50 508 54 532 64 554 _c
73 576 86 595 104 613 _c
122 630 142 643 164 652 _c
186 661 210 666 236 666 _c
274 666 309 658 342 642 _c
375 626 401 603 420 573 _c
439 543 449 509 449 470 _c
}_e{449 441 442 414 430 388 _c
417 362 401 338 381 317 _c
361 295 336 271 305 244 _c
274 217 254 199 244 190 _c
131 81 _l
227 81 _l
274 81 313 81 345 82 _c
377 82 394 84 396 86 _c
404 94 412 125 420 178 _c
449 178 _l
421 0 _l
50 0 _l
_cl}_e}_d
/one{500 0 87 0 421 666 _sc
93 0 _m
93 35 _l
176 35 218 45 218 67 _c
218 592 _l
183 575 139 567 87 567 _c
87 602 _l
168 602 230 623 272 666 _c
286 666 _l
288 666 291 665 293 663 _c
295 661 296 659 296 657 _c
296 67 _l
296 45 337 35 421 35 _c
421 0 _l
93 0 _l
_cl}_d
end readonly def

/BuildGlyph
 {exch begin
 CharStrings exch
 2 copy known not{pop /.notdef}if
 true 3 1 roll get exec
 end}_d

/BuildChar {
 1 index /Encoding get exch get
 1 index /BuildGlyph get exec
}_d

FontName currentdict end definefont pop
%!PS-Adobe-3.0 Resource-Font
%%Title: cmmi10
%%Copyright: Copyright (C) 1994, Basil K. Malyshev. All Rights Reserved.012BaKoMa Fonts Collection, Level-B.
%%Creator: Converted from TrueType to type 3 by PPR
25 dict begin
/_d{bind def}bind def
/_m{moveto}_d
/_l{lineto}_d
/_cl{closepath eofill}_d
/_c{curveto}_d
/_sc{7 -1 roll{setcachedevice}{pop pop pop pop pop pop}ifelse}_d
/_e{exec}_d
/FontName /Cmmi10 def
/PaintType 0 def
/FontMatrix[.001 0 0 .001 0 0]def
/FontBBox[-34 -250 1048 750]def
/FontType 3 def
/Encoding [ /theta /t /period /s ] def
/FontInfo 10 dict dup begin
/FamilyName (cmmi10) def
/FullName (cmmi10) def
/Notice (Copyright (C) 1994, Basil K. Malyshev. All Rights Reserved.012BaKoMa Fonts Collection, Level-B. ) def
/Weight (Regular) def
/Version (1.1/12-Nov-94) def
/ItalicAngle 0.0 def
/isFixedPitch false def
/UnderlinePosition -133 def
/UnderlineThickness 20 def
end readonly def
/CharStrings 4 dict dup begin
/theta{{469 0 40 -10 457 705 _sc
161 -10 _m
131 -10 106 0 88 22 _c
70 44 57 70 50 102 _c
43 133 40 164 40 195 _c
40 196 _l
40 229 43 263 49 299 _c
55 335 65 370 77 406 _c
89 442 102 474 116 502 _c
126 521 138 543 154 567 _c
169 591 186 614 205 635 _c
224 656 245 673 267 686 _c
289 698 311 705 334 705 _c
335 705 _l
359 705 379 698 395 685 _c
}_e{411 671 423 654 432 634 _c
441 613 447 591 451 567 _c
455 543 457 520 457 499 _c
457 448 450 396 436 344 _c
422 292 404 241 380 192 _c
370 173 358 151 342 126 _c
326 101 309 79 291 59 _c
273 39 252 22 230 9 _c
207 -3 184 -10 162 -10 _c
161 -10 _l
163 15 _m
185 15 206 26 226 50 _c
246 74 264 102 280 136 _c
295 170 308 204 320 240 _c
332 275 340 305 346 330 _c
}_e{142 330 _l
131 288 123 251 117 221 _c
111 191 109 161 109 132 _c
109 54 127 15 163 15 _c
150 365 _m
355 365 _l
362 394 368 418 372 438 _c
376 458 379 479 382 501 _c
385 523 387 543 387 562 _c
387 640 369 679 334 679 _c
292 679 255 645 224 577 _c
193 509 168 438 150 365 _c
_cl}_e}_d
/t{{361 0 22 -10 330 626 _sc
62 81 _m
62 91 63 100 65 109 _c
137 396 _l
32 396 _l
25 396 22 400 22 409 _c
24 423 29 431 35 431 _c
146 431 _l
186 594 _l
188 602 193 610 201 616 _c
209 622 218 626 228 626 _c
236 626 243 623 249 618 _c
255 613 258 606 258 598 _c
258 596 257 594 257 593 _c
257 592 257 591 257 590 _c
217 431 _l
320 431 _l
326 431 330 426 330 418 _c
}_e{330 416 329 414 328 410 _c
327 406 326 402 324 400 _c
322 397 320 396 317 396 _c
208 396 _l
136 107 _l
131 88 129 72 129 58 _c
129 29 138 15 158 15 _c
187 15 213 28 236 56 _c
258 84 276 114 288 147 _c
290 151 293 153 296 153 _c
308 153 _l
310 153 312 152 314 150 _c
316 148 317 146 317 144 _c
317 142 316 141 316 141 _c
301 101 280 65 252 35 _c
}_e{224 5 192 -10 156 -10 _c
129 -10 107 -1 89 15 _c
71 32 62 54 62 81 _c
_cl}_e}_d
/period{277 0 84 0 194 110 _sc
84 55 _m
84 70 89 83 100 94 _c
111 104 124 110 139 110 _c
148 110 157 107 166 102 _c
174 97 181 90 186 82 _c
191 73 194 64 194 55 _c
194 40 188 27 178 16 _c
167 5 154 0 139 0 _c
124 0 111 5 100 16 _c
89 27 84 40 84 55 _c
_cl}_d
/s{{468 0 52 -10 419 442 _sc
87 61 _m
105 30 141 15 195 15 _c
218 15 240 19 261 27 _c
282 35 300 47 314 63 _c
328 79 335 98 335 121 _c
335 138 328 152 316 163 _c
304 174 289 182 271 186 _c
217 197 _l
192 203 172 214 156 231 _c
140 248 132 269 132 293 _c
132 322 140 348 156 371 _c
172 394 193 412 219 424 _c
245 436 273 442 302 442 _c
332 442 359 434 383 420 _c
}_e{407 405 419 384 419 356 _c
419 340 414 327 406 315 _c
397 303 385 298 370 298 _c
361 298 353 300 347 306 _c
341 312 338 319 338 328 _c
338 336 340 343 344 351 _c
348 358 354 364 362 368 _c
369 372 377 375 385 375 _c
379 389 368 399 352 406 _c
336 412 318 416 300 416 _c
282 416 265 412 249 406 _c
232 399 218 389 208 376 _c
198 362 193 347 193 329 _c
}_e{193 317 197 306 205 297 _c
213 288 224 282 237 278 _c
295 266 _l
313 262 330 255 346 245 _c
361 235 373 222 382 207 _c
391 192 396 175 396 156 _c
396 131 389 106 375 82 _c
361 58 344 39 324 25 _c
288 1 245 -10 194 -10 _c
158 -10 126 -2 96 14 _c
66 30 52 54 52 86 _c
52 104 57 119 67 133 _c
77 147 92 154 111 154 _c
121 154 130 150 138 144 _c
}_e{145 137 149 128 149 118 _c
149 102 143 89 132 78 _c
120 66 107 61 92 61 _c
87 61 _l
_cl}_e}_d
end readonly def

/BuildGlyph
 {exch begin
 CharStrings exch
 2 copy known not{pop /.notdef}if
 true 3 1 roll get exec
 end}_d

/BuildChar {
 1 index /Encoding get exch get
 1 index /BuildGlyph get exec
}_d

FontName currentdict end definefont pop
%!PS-Adobe-3.0 Resource-Font
%%Title: Bitstream Vera Sans
%%Copyright: Copyright (c) 2003 by Bitstream, Inc. All Rights Reserved.
%%Creator: Converted from TrueType to type 3 by PPR
25 dict begin
/_d{bind def}bind def
/_m{moveto}_d
/_l{lineto}_d
/_cl{closepath eofill}_d
/_c{curveto}_d
/_sc{7 -1 roll{setcachedevice}{pop pop pop pop pop pop}ifelse}_d
/_e{exec}_d
/FontName /BitstreamVeraSans-Roman def
/PaintType 0 def
/FontMatrix[.001 0 0 .001 0 0]def
/FontBBox[-183 -236 1287 928]def
/FontType 3 def
/Encoding [ /space /slash /zero /one /two /three /five /a /d /e /i /m /r /t /minus ] def
/FontInfo 10 dict dup begin
/FamilyName (Bitstream Vera Sans) def
/FullName (Bitstream Vera Sans) def
/Notice (Copyright (c) 2003 by Bitstream, Inc. All Rights Reserved. Bitstream Vera is a trademark of Bitstream, Inc.) def
/Weight (Roman) def
/Version (Release 1.10) def
/ItalicAngle 0.0 def
/isFixedPitch false def
/UnderlinePosition -213 def
/UnderlineThickness 143 def
end readonly def
/CharStrings 15 dict dup begin
/space{318 0 0 0 0 0 _sc
}_d
/slash{337 0 0 -92 337 729 _sc
254 729 _m
337 729 _l
83 -92 _l
0 -92 _l
254 729 _l
_cl}_d
/zero{636 0 66 -13 570 742 _sc
318 664 _m
267 664 229 639 203 589 _c
177 539 165 464 165 364 _c
165 264 177 189 203 139 _c
229 89 267 64 318 64 _c
369 64 407 89 433 139 _c
458 189 471 264 471 364 _c
471 464 458 539 433 589 _c
407 639 369 664 318 664 _c
318 742 _m
399 742 461 709 505 645 _c
548 580 570 486 570 364 _c
570 241 548 147 505 83 _c
461 19 399 -13 318 -13 _c
236 -13 173 19 130 83 _c
87 147 66 241 66 364 _c
66 486 87 580 130 645 _c
173 709 236 742 318 742 _c
_cl}_d
/one{636 0 110 0 544 729 _sc
124 83 _m
285 83 _l
285 639 _l
110 604 _l
110 694 _l
284 729 _l
383 729 _l
383 83 _l
544 83 _l
544 0 _l
124 0 _l
124 83 _l
_cl}_d
/two{{636 0 73 0 536 742 _sc
192 83 _m
536 83 _l
536 0 _l
73 0 _l
73 83 _l
110 121 161 173 226 239 _c
290 304 331 346 348 365 _c
380 400 402 430 414 455 _c
426 479 433 504 433 528 _c
433 566 419 598 392 622 _c
365 646 330 659 286 659 _c
255 659 222 653 188 643 _c
154 632 117 616 78 594 _c
78 694 _l
118 710 155 722 189 730 _c
223 738 255 742 284 742 _c
}_e{359 742 419 723 464 685 _c
509 647 532 597 532 534 _c
532 504 526 475 515 449 _c
504 422 484 390 454 354 _c
446 344 420 317 376 272 _c
332 227 271 164 192 83 _c
_cl}_e}_d
/three{{636 0 76 -13 556 742 _sc
406 393 _m
453 383 490 362 516 330 _c
542 298 556 258 556 212 _c
556 140 531 84 482 45 _c
432 6 362 -13 271 -13 _c
240 -13 208 -10 176 -4 _c
144 1 110 10 76 22 _c
76 117 _l
103 101 133 89 166 81 _c
198 73 232 69 268 69 _c
330 69 377 81 409 105 _c
441 129 458 165 458 212 _c
458 254 443 288 413 312 _c
383 336 341 349 287 349 _c
}_e{202 349 _l
202 430 _l
291 430 _l
339 430 376 439 402 459 _c
428 478 441 506 441 543 _c
441 580 427 609 401 629 _c
374 649 336 659 287 659 _c
260 659 231 656 200 650 _c
169 644 135 635 98 623 _c
98 711 _l
135 721 170 729 203 734 _c
235 739 266 742 296 742 _c
370 742 429 725 473 691 _c
517 657 539 611 539 553 _c
539 513 527 479 504 451 _c
481 423 448 403 406 393 _c
_cl}_e}_d
/five{{636 0 77 -13 549 729 _sc
108 729 _m
495 729 _l
495 646 _l
198 646 _l
198 467 _l
212 472 227 476 241 478 _c
255 480 270 482 284 482 _c
365 482 429 459 477 415 _c
525 370 549 310 549 234 _c
549 155 524 94 475 51 _c
426 8 357 -13 269 -13 _c
238 -13 207 -10 175 -6 _c
143 -1 111 6 77 17 _c
77 116 _l
106 100 136 88 168 80 _c
199 72 232 69 267 69 _c
}_e{323 69 368 83 401 113 _c
433 143 450 183 450 234 _c
450 284 433 324 401 354 _c
368 384 323 399 267 399 _c
241 399 214 396 188 390 _c
162 384 135 375 108 363 _c
108 729 _l
_cl}_e}_d
/a{{613 0 60 -13 522 560 _sc
343 275 _m
270 275 220 266 192 250 _c
164 233 150 205 150 165 _c
150 133 160 107 181 89 _c
202 70 231 61 267 61 _c
317 61 357 78 387 114 _c
417 149 432 196 432 255 _c
432 275 _l
343 275 _l
522 312 _m
522 0 _l
432 0 _l
432 83 _l
411 49 385 25 355 10 _c
325 -5 287 -13 243 -13 _c
187 -13 142 2 109 33 _c
76 64 60 106 60 159 _c
}_e{60 220 80 266 122 298 _c
163 329 224 345 306 345 _c
432 345 _l
432 354 _l
432 395 418 427 391 450 _c
364 472 326 484 277 484 _c
245 484 215 480 185 472 _c
155 464 127 453 100 439 _c
100 522 _l
132 534 164 544 195 550 _c
226 556 256 560 286 560 _c
365 560 424 539 463 498 _c
502 457 522 395 522 312 _c
_cl}_e}_d
/d{{635 0 55 -13 544 760 _sc
454 464 _m
454 760 _l
544 760 _l
544 0 _l
454 0 _l
454 82 _l
435 49 411 25 382 10 _c
353 -5 319 -13 279 -13 _c
213 -13 159 13 117 65 _c
75 117 55 187 55 273 _c
55 359 75 428 117 481 _c
159 533 213 560 279 560 _c
319 560 353 552 382 536 _c
411 520 435 496 454 464 _c
148 273 _m
148 207 161 155 188 117 _c
215 79 253 61 301 61 _c
}_e{348 61 385 79 413 117 _c
440 155 454 207 454 273 _c
454 339 440 390 413 428 _c
385 466 348 485 301 485 _c
253 485 215 466 188 428 _c
161 390 148 339 148 273 _c
_cl}_e}_d
/e{{615 0 55 -13 562 560 _sc
562 296 _m
562 252 _l
149 252 _l
153 190 171 142 205 110 _c
238 78 284 62 344 62 _c
378 62 412 66 444 74 _c
476 82 509 95 541 113 _c
541 28 _l
509 14 476 3 442 -3 _c
408 -9 373 -13 339 -13 _c
251 -13 182 12 131 62 _c
80 112 55 181 55 268 _c
55 357 79 428 127 481 _c
175 533 241 560 323 560 _c
397 560 455 536 498 489 _c
}_e{540 441 562 377 562 296 _c
472 322 _m
471 371 457 410 431 440 _c
404 469 368 484 324 484 _c
274 484 234 469 204 441 _c
174 413 156 373 152 322 _c
472 322 _l
_cl}_e}_d
/i{278 0 94 0 184 760 _sc
94 547 _m
184 547 _l
184 0 _l
94 0 _l
94 547 _l
94 760 _m
184 760 _l
184 646 _l
94 646 _l
94 760 _l
_cl}_d
/m{{974 0 91 0 889 560 _sc
520 442 _m
542 482 569 511 600 531 _c
631 550 668 560 711 560 _c
767 560 811 540 842 500 _c
873 460 889 403 889 330 _c
889 0 _l
799 0 _l
799 327 _l
799 379 789 418 771 444 _c
752 469 724 482 686 482 _c
639 482 602 466 575 435 _c
548 404 535 362 535 309 _c
535 0 _l
445 0 _l
445 327 _l
445 379 435 418 417 444 _c
398 469 369 482 331 482 _c
}_e{285 482 248 466 221 435 _c
194 404 181 362 181 309 _c
181 0 _l
91 0 _l
91 547 _l
181 547 _l
181 462 _l
201 495 226 520 255 536 _c
283 552 317 560 357 560 _c
397 560 430 550 458 530 _c
486 510 506 480 520 442 _c
_cl}_e}_d
/r{411 0 91 0 411 560 _sc
411 463 _m
401 469 390 473 378 476 _c
366 478 353 480 339 480 _c
288 480 249 463 222 430 _c
194 397 181 350 181 288 _c
181 0 _l
91 0 _l
91 547 _l
181 547 _l
181 462 _l
199 495 224 520 254 536 _c
284 552 321 560 365 560 _c
371 560 378 559 386 559 _c
393 558 401 557 411 555 _c
411 463 _l
_cl}_d
/t{392 0 27 0 368 702 _sc
183 702 _m
183 547 _l
368 547 _l
368 477 _l
183 477 _l
183 180 _l
183 135 189 106 201 94 _c
213 81 238 75 276 75 _c
368 75 _l
368 0 _l
276 0 _l
206 0 158 13 132 39 _c
106 65 93 112 93 180 _c
93 477 _l
27 477 _l
27 547 _l
93 547 _l
93 702 _l
183 702 _l
_cl}_d
/minus{838 0 106 272 732 355 _sc
106 355 _m
732 355 _l
732 272 _l
106 272 _l
106 355 _l
_cl}_d
end readonly def

/BuildGlyph
 {exch begin
 CharStrings exch
 2 copy known not{pop /.notdef}if
 true 3 1 roll get exec
 end}_d

/BuildChar {
 1 index /Encoding get exch get
 1 index /BuildGlyph get exec
}_d

FontName currentdict end definefont pop
end
%%EndProlog
mpldict begin
18 180 translate
576 432 0 0 clipbox
gsave
0 0 m
576 0 l
576 432 l
0 432 l
cl
1.000 setgray
fill
grestore
gsave
72 43.2 m
518.4 43.2 l
518.4 388.8 l
72 388.8 l
cl
1.000 setgray
fill
grestore
1.000 setlinewidth
1 setlinejoin
2 setlinecap
[] 0 setdash
0.000 0.000 1.000 setrgbcolor
gsave
446.4 345.6 72 43.2 clipbox
72 226.661 m
72.3393 226.55 l
72.7879 226.139 l
74.3637 224.494 l
74.7096 224.518 l
75.0355 224.777 l
75.4038 225.383 l
75.8413 226.574 l
76.3725 228.726 l
77.0332 232.42 l
77.9505 238.962 l
79.8879 253.038 l
80.4905 255.768 l
80.9101 256.793 l
81.1869 257.002 l
81.3878 256.898 l
81.6266 256.479 l
81.9391 255.415 l
82.3342 253.191 l
82.8185 249.068 l
83.4033 242.012 l
84.1175 230.471 l
85.0617 211.256 l
88.1262 146.008 l
88.9587 134.167 l
89.635 127.417 l
90.1707 124.041 l
90.568 122.738 l
90.8314 122.472 l
91.0055 122.57 l
91.2198 123.001 l
91.5099 124.155 l
91.8827 126.655 l
92.3358 131.35 l
92.867 139.361 l
93.4808 152.234 l
94.1995 172.342 l
95.1124 204.719 l
98.3733 326.556 l
100.333 383.438 l
100.335 48.5666 l
100.445 51.905 l
101.451 86.3154 l
102.322 124.055 l
103.279 176.012 l
105.75 315.631 l
106.629 349.597 l
107.529 375.974 l
107.828 383.426 l
107.83 48.5408 l
107.94 51.1439 l
109.326 81.1479 l
110.701 112.38 l
111.663 139.715 l
112.68 175.419 l
115.935 295.573 l
116.841 317.522 l
117.772 334.815 l
118.946 352.299 l
120.774 379.336 l
121.008 383.449 l
121.01 48.551 l
121.12 50.5582 l
121.957 68.2143 l
122.745 89.7421 l
123.535 117.736 l
124.403 156.95 l
125.785 231.608 l
126.956 289.467 l
127.767 319.149 l
128.467 337.308 l
129.079 347.909 l
129.592 353.374 l
129.992 355.599 l
130.264 356.134 l
130.418 356.089 l
130.597 355.724 l
130.853 354.608 l
131.199 351.992 l
131.637 346.805 l
132.159 337.729 l
132.762 323.079 l
133.447 300.608 l
134.257 266.157 l
135.592 197.892 l
136.788 141.676 l
137.605 113.152 l
138.306 95.8481 l
138.909 85.9388 l
139.406 80.9802 l
139.786 79.0752 l
140.034 78.6916 l
140.176 78.7786 l
140.362 79.2286 l
140.63 80.5587 l
140.984 83.5842 l
141.429 89.4783 l
141.955 99.6942 l
142.56 116.082 l
143.252 141.304 l
144.098 180.991 l
146.989 324.607 l
147.857 352.528 l
148.732 373.769 l
149.221 383.444 l
149.223 48.5464 l
149.332 50.5456 l
150.432 68.3869 l
152.769 104.922 l
153.642 123.35 l
154.497 146.356 l
155.452 178.495 l
157.383 253.71 l
158.532 292.549 l
159.517 318.547 l
160.575 340.62 l
162.856 383.431 l
162.858 48.5405 l
162.967 50.9123 l
163.838 72.4738 l
164.637 98.0272 l
165.445 131.385 l
166.387 180.272 l
168.782 309.396 l
169.625 340.371 l
170.427 362.055 l
171.226 377.948 l
171.57 383.45 l
171.572 48.5449 l
171.681 50.1574 l
172.554 61.1703 l
173.712 72.787 l
175.051 86.5622 l
175.819 97.0218 l
176.527 109.855 l
177.234 126.962 l
177.984 150.819 l
178.857 186.243 l
180.397 260.13 l
181.852 324.748 l
183.343 383.445 l
183.346 48.5968 l
183.455 53.0662 l
184.482 99.9213 l
185.379 151.692 l
186.613 237.96 l
188.097 337.17 l
188.905 383.434 l
188.908 48.6195 l
189.017 54.6863 l
190.821 160.776 l
192.972 291.789 l
193.802 327.178 l
194.577 351.227 l
195.358 368.869 l
196.224 383.467 l
196.226 48.5618 l
196.336 50.177 l
198.668 85.8774 l
199.389 102.443 l
200.099 124.155 l
200.856 154.561 l
201.771 201.116 l
205.112 383.368 l
205.114 48.5452 l
205.224 54.2678 l
206.346 119.192 l
207.391 193.876 l
209.607 356.169 l
210.038 383.333 l
210.04 48.534 l
210.15 55.3412 l
211.984 176.325 l
213.765 295.04 l
214.658 338.926 l
215.578 373.377 l
215.888 383.411 l
215.89 48.5431 l
216 51.9617 l
218.348 128.254 l
219.321 170.712 l
220.921 252.759 l
222.274 316.212 l
223.963 383.39 l
223.966 48.542 l
224.075 52.9992 l
225.084 98.9997 l
225.954 149.516 l
227.062 228.453 l
228.97 363.678 l
229.273 383.451 l
229.276 48.6574 l
229.385 55.7885 l
230.86 159.376 l
233.255 334.527 l
234.144 383.384 l
234.146 48.5599 l
234.255 54.159 l
236.791 188.996 l
238.411 276.084 l
239.297 311.781 l
240.125 336.592 l
241.014 356.638 l
242.451 383.464 l
242.453 48.5679 l
242.563 50.6733 l
243.476 70.5756 l
244.223 91.9685 l
244.951 119.495 l
245.73 157.955 l
246.739 220.057 l
249.076 366.678 l
249.364 383.355 l
249.366 48.5459 l
249.475 54.9217 l
250.797 138.689 l
254.223 370.916 l
254.468 383.445 l
254.47 48.619 l
254.58 54.1016 l
257.037 182.24 l
258.729 271.868 l
259.582 305.218 l
260.338 326.662 l
261.055 341.053 l
261.76 351.007 l
262.495 358.345 l
263.378 364.89 l
265.003 376.462 l
265.704 383.458 l
265.706 48.5455 l
265.816 49.8395 l
266.485 59.3151 l
267.148 72.0088 l
267.825 89.4489 l
268.528 113.647 l
269.295 148.262 l
270.266 203.156 l
272.367 324.325 l
273.498 374.134 l
273.73 383.41 l
273.733 48.5596 l
273.842 52.8759 l
275.927 139.247 l
279.096 280.97 l
279.772 298.186 l
280.333 307.38 l
280.784 311.601 l
281.114 312.986 l
281.317 313.15 l
281.46 312.96 l
281.67 312.235 l
281.973 310.266 l
282.377 306.016 l
282.893 298.013 l
283.538 284.231 l
284.373 261.196 l
287.165 179.811 l
287.752 170.578 l
288.194 166.643 l
288.502 165.495 l
288.66 165.42 l
288.674 165.43 l
288.819 165.693 l
289.04 166.651 l
289.354 169.154 l
289.774 174.486 l
290.323 184.603 l
291.069 202.912 l
293.863 275.989 l
294.439 283.934 l
294.867 287.224 l
295.158 288.095 l
295.305 288.103 l
295.312 288.097 l
295.463 287.78 l
295.693 286.69 l
296.01 283.961 l
296.423 278.25 l
296.936 267.759 l
297.575 249.75 l
298.427 218.723 l
301.414 104.237 l
302.572 72.0466 l
303.53 48.551 l
303.532 383.436 l
303.641 380.796 l
305.213 340.132 l
306.239 307.289 l
307.358 263.813 l
309.541 177.214 l
310.266 157.921 l
310.84 147.955 l
311.288 143.524 l
311.61 142.147 l
311.786 142.016 l
311.797 142.023 l
311.938 142.253 l
312.152 143.127 l
312.458 145.443 l
312.869 150.451 l
313.402 159.966 l
314.098 176.754 l
315.201 209.591 l
316.562 248.458 l
317.266 262.593 l
317.79 269.205 l
318.172 271.665 l
318.417 272.157 l
318.542 272.074 l
318.714 271.591 l
318.969 270.092 l
319.319 266.506 l
319.772 259.331 l
320.352 246.273 l
321.131 223.221 l
324.064 131.081 l
324.765 118.019 l
325.328 111.231 l
325.756 108.366 l
326.048 107.6 l
326.209 107.602 l
326.37 107.913 l
326.604 108.932 l
326.926 111.458 l
327.332 116.614 l
327.823 125.949 l
328.399 141.481 l
329.08 166.324 l
329.959 207.389 l
333.126 363.156 l
333.597 383.467 l
333.599 48.625 l
333.709 53.3936 l
334.965 113.256 l
336.043 176.333 l
338.175 303.974 l
339.041 340.617 l
339.889 367.457 l
340.525 383.436 l
340.527 48.5492 l
340.637 51.0429 l
341.951 78.1504 l
343.266 106.579 l
344.161 131.163 l
345.065 162.533 l
346.228 211.58 l
348.188 294.054 l
349.306 330.883 l
351.143 383.439 l
351.145 48.5681 l
351.254 51.9194 l
352.185 84.1647 l
353.004 120.648 l
353.879 170.249 l
357.386 383.455 l
357.388 48.6286 l
357.497 54.0954 l
359.31 150.092 l
361.827 290.279 l
362.6 318.501 l
363.285 336.016 l
363.901 346.541 l
364.439 352.315 l
364.888 355.034 l
365.229 355.968 l
365.452 356.089 l
365.633 355.918 l
365.881 355.306 l
366.216 353.814 l
366.653 350.755 l
367.195 345.26 l
367.836 336.335 l
368.559 322.97 l
369.369 303.651 l
370.327 275.094 l
373.387 178.871 l
374.003 168.3 l
374.481 163.427 l
374.831 161.727 l
375.052 161.461 l
375.188 161.601 l
375.385 162.205 l
375.673 163.921 l
376.065 167.775 l
376.588 175.341 l
377.291 189.082 l
378.683 221.874 l
379.681 242.52 l
380.32 251.6 l
380.788 255.524 l
381.114 256.737 l
381.302 256.848 l
381.304 256.847 l
381.447 256.636 l
381.659 255.855 l
381.962 253.768 l
382.366 249.252 l
382.886 240.687 l
383.569 225.402 l
384.641 195.638 l
386.212 152.984 l
387.007 137.248 l
387.62 129.046 l
388.087 125.389 l
388.415 124.239 l
388.607 124.135 l
388.752 124.343 l
388.966 125.114 l
389.265 127.142 l
389.652 131.463 l
390.125 139.493 l
390.692 153.218 l
391.375 175.602 l
392.272 213.061 l
395.278 344.598 l
396.327 383.466 l
396.33 48.6117 l
396.439 52.7405 l
397.611 101.425 l
398.591 152.076 l
401.727 324.239 l
402.528 350.664 l
403.309 369.484 l
404.097 383.443 l
404.099 48.5387 l
404.209 50.1769 l
405.115 61.8547 l
407.717 93.0265 l
408.434 106.29 l
409.141 123.746 l
409.887 148.007 l
410.742 183.646 l
412.143 253.378 l
413.713 327.238 l
415.045 383.456 l
415.047 48.6142 l
415.157 53.3872 l
416.201 104.161 l
417.123 160.561 l
418.735 277.068 l
420.022 360.332 l
420.417 383.451 l
420.42 48.6418 l
420.529 54.9731 l
422.303 164.027 l
424.368 294.733 l
425.223 333.255 l
426.053 361.039 l
426.928 383.452 l
426.93 48.5654 l
427.04 51.0604 l
429.511 109.385 l
430.328 137.083 l
431.205 174.917 l
432.522 243.094 l
434.167 324.94 l
435.488 383.415 l
435.49 48.5778 l
435.599 53.5699 l
436.644 106.691 l
437.566 165.73 l
440.606 383.435 l
440.608 48.64 l
440.717 55.6759 l
442.32 165.959 l
444.423 314.893 l
445.4 365.62 l
445.798 383.414 l
445.8 48.5726 l
445.909 53.298 l
448.454 167.333 l
451.032 293.132 l
451.96 325.118 l
452.985 352.674 l
454.259 383.462 l
454.261 48.5804 l
454.371 51.384 l
455.284 77.918 l
456.06 107.313 l
456.844 145.893 l
457.795 204.809 l
460.506 379.351 l
460.576 383.425 l
460.578 48.6176 l
460.687 55.0736 l
462.091 144.686 l
465.055 345.152 l
465.854 383.459 l
465.856 48.6206 l
465.966 53.5105 l
468.573 174.305 l
470.626 274.794 l
471.492 305.514 l
472.28 326.008 l
473.055 340.652 l
473.892 352.356 l
475.124 366.088 l
476.244 379.446 l
476.525 383.464 l
476.528 48.5589 l
476.637 50.2295 l
477.369 63.3574 l
478.074 80.2028 l
478.782 102.703 l
479.53 134.021 l
480.4 180.618 l
483.427 352.339 l
484.15 383.415 l
484.152 48.5694 l
484.262 53.0967 l
486.266 140.44 l
489.308 282.771 l
490 301.732 l
490.578 312.078 l
491.049 317.006 l
491.402 318.758 l
491.627 319.046 l
491.761 318.92 l
491.953 318.359 l
492.234 316.746 l
492.616 313.095 l
493.1 306.119 l
493.701 294.013 l
494.451 274.05 l
495.542 238.267 l
497.102 188.121 l
497.825 171.778 l
498.37 163.918 l
498.776 160.781 l
499.049 160.016 l
499.189 160.044 l
499.348 160.417 l
499.584 161.646 l
499.917 164.707 l
500.357 171.044 l
500.926 182.767 l
501.705 203.894 l
504.298 278.129 l
504.923 288.46 l
505.396 293.092 l
505.731 294.589 l
505.923 294.756 l
505.928 294.754 l
506.062 294.558 l
506.262 293.787 l
506.55 291.669 l
506.93 287.023 l
507.407 278.149 l
507.994 262.705 l
508.735 236.815 l
509.914 186.522 l
511.532 119.644 l
512.704 80.7749 l
513.818 48.55 l
513.82 383.425 l
513.929 380.311 l
515.376 335.909 l
516.405 296.918 l
517.672 239.328 l
518.398 205.515 l
518.398 205.515 l
stroke
grestore
0.000 0.500 0.000 setrgbcolor
gsave
446.4 345.6 72 43.2 clipbox
72 226.661 m
72.3393 226.551 l
72.7901 226.138 l
74.357 224.5 l
74.7052 224.521 l
75.0311 224.777 l
75.3971 225.374 l
75.8346 226.557 l
76.3658 228.699 l
77.0265 232.381 l
77.9416 238.896 l
79.8924 253.061 l
80.495 255.78 l
80.9101 256.789 l
81.1869 256.998 l
81.3878 256.894 l
81.6288 256.468 l
81.9413 255.4 l
82.3386 253.155 l
82.8252 248.994 l
83.41 241.912 l
84.1242 230.344 l
85.0751 210.956 l
88.1061 146.342 l
88.9409 134.387 l
89.6194 127.549 l
90.1596 124.101 l
90.5568 122.769 l
90.8247 122.482 l
90.9988 122.572 l
91.2131 122.993 l
91.5032 124.132 l
91.8737 126.594 l
92.3246 131.226 l
92.8558 139.18 l
93.4674 151.929 l
94.1816 171.798 l
95.0878 203.79 l
98.4224 328.052 l
100.333 383.423 l
100.337 48.6199 l
100.445 51.8897 l
101.449 86.2031 l
102.319 123.907 l
103.275 175.694 l
105.757 315.869 l
106.636 349.765 l
107.533 376.029 l
107.833 383.469 l
107.837 48.6375 l
107.944 51.183 l
109.332 81.1865 l
110.703 112.268 l
111.663 139.487 l
112.68 175.135 l
115.957 296.035 l
116.863 317.919 l
117.801 335.298 l
119.001 353.189 l
120.742 379.134 l
120.988 383.458 l
120.992 48.6011 l
121.1 50.5774 l
121.939 68.3723 l
122.724 89.9526 l
123.515 118.087 l
124.385 157.6 l
125.796 234.09 l
126.947 290.775 l
127.76 320.419 l
128.461 338.511 l
129.077 349.177 l
129.595 354.711 l
130.001 357.009 l
130.278 357.583 l
130.438 357.553 l
130.617 357.209 l
130.871 356.15 l
131.215 353.651 l
131.648 348.708 l
132.166 340.041 l
132.764 326.018 l
133.442 304.514 l
134.237 271.705 l
135.411 212.525 l
136.799 145.575 l
137.625 116.098 l
138.326 98.3934 l
138.929 88.266 l
139.424 83.2426 l
139.799 81.341 l
140.045 80.9683 l
140.183 81.0619 l
140.371 81.5392 l
140.638 82.9274 l
140.996 86.0968 l
141.442 92.2583 l
141.969 102.859 l
142.576 119.874 l
143.277 146.202 l
144.152 188.214 l
146.723 317.525 l
147.607 347.715 l
148.482 370.302 l
149.116 383.39 l
149.12 48.5363 l
149.227 50.5435 l
150.366 69.5443 l
152.539 104.875 l
153.437 124.15 l
154.312 147.983 l
155.303 181.511 l
158.535 296.611 l
159.472 318.891 l
160.454 337.033 l
161.851 358.291 l
163.266 380.747 l
163.414 383.425 l
163.418 48.5693 l
163.525 50.5797 l
164.387 69.0694 l
165.19 91.2953 l
165.994 119.991 l
166.887 160.422 l
169.949 307.93 l
170.65 327.116 l
171.248 337.955 l
171.739 343.285 l
172.11 345.276 l
172.351 345.658 l
172.485 345.56 l
172.668 345.071 l
172.936 343.611 l
173.293 340.275 l
173.739 333.814 l
174.275 322.566 l
174.9 304.398 l
175.636 275.989 l
176.627 228.139 l
178.466 138.719 l
179.306 109.277 l
180.033 90.9722 l
180.676 79.9149 l
181.221 73.9587 l
181.654 71.3191 l
181.962 70.5399 l
182.145 70.5068 l
182.314 70.7632 l
182.555 71.6072 l
182.881 73.6601 l
183.296 77.8498 l
183.792 85.3045 l
184.363 97.5175 l
185.006 116.377 l
185.734 144.745 l
186.64 189.588 l
189.019 311.866 l
189.89 342.806 l
190.733 365.24 l
191.604 382.66 l
191.649 383.434 l
191.653 48.5727 l
191.76 50.3902 l
192.765 65.318 l
195.644 105.48 l
196.443 121.913 l
197.242 143.164 l
198.126 173.028 l
199.376 223.904 l
201.081 291.628 l
202.197 326.792 l
203.893 371.852 l
204.313 383.436 l
204.317 48.6246 l
204.425 51.7165 l
205.353 82.0448 l
206.174 116.522 l
207.04 162.849 l
208.5 255.934 l
209.714 326.07 l
210.848 378.372 l
210.969 383.456 l
210.973 48.7045 l
211.08 53.1834 l
213.272 149.101 l
215.964 275.1 l
216.696 296.906 l
217.312 309.248 l
217.825 315.564 l
218.227 318.166 l
218.508 318.837 l
218.665 318.817 l
218.834 318.486 l
219.084 317.427 l
219.433 314.849 l
219.883 309.675 l
220.45 300.372 l
221.151 284.9 l
222.071 259.181 l
224.495 188.744 l
225.146 177.109 l
225.642 171.744 l
226.004 169.837 l
226.231 169.513 l
226.361 169.629 l
226.548 170.178 l
226.825 171.797 l
227.204 175.52 l
227.704 182.866 l
228.374 196.315 l
229.503 224.329 l
230.753 253.571 l
231.441 264.881 l
231.945 270.001 l
232.307 271.795 l
232.53 272.076 l
232.664 271.934 l
232.856 271.318 l
233.133 269.565 l
233.503 265.613 l
233.976 257.931 l
234.574 244.246 l
235.365 220.55 l
238.686 114.218 l
239.525 97.4196 l
240.266 86.7124 l
240.895 80.531 l
241.4 77.5087 l
241.766 76.4308 l
242.003 76.2575 l
242.172 76.3975 l
242.395 76.9323 l
242.694 78.3061 l
243.074 81.2147 l
243.529 86.6067 l
244.047 95.5951 l
244.627 109.821 l
245.27 131.405 l
246.007 164.143 l
246.989 218.836 l
249.257 347.69 l
249.971 383.282 l
249.975 48.5648 l
250.082 53.8998 l
251.448 127.599 l
252.765 212.973 l
254.127 297.001 l
255.02 338.653 l
255.908 370.016 l
256.363 383.39 l
256.368 48.5757 l
256.475 51.5384 l
259.671 142.078 l
260.725 184.297 l
263.501 299.922 l
264.537 330.907 l
266.099 369.854 l
266.626 383.454 l
266.63 48.6356 l
266.738 51.5601 l
267.635 79.4068 l
268.429 111.31 l
269.255 154.009 l
270.367 224.635 l
272.032 328.573 l
273.099 383.392 l
273.103 48.6724 l
273.21 53.9113 l
275.014 147.412 l
277.639 291.052 l
278.398 317.77 l
279.067 334.113 l
279.656 343.577 l
280.161 348.514 l
280.567 350.613 l
280.857 351.174 l
281.031 351.156 l
281.219 350.85 l
281.487 349.911 l
281.848 347.734 l
282.312 343.445 l
282.875 336.016 l
283.531 324.209 l
284.281 306.464 l
285.165 279.891 l
286.522 231.178 l
287.785 188.816 l
288.522 170.999 l
289.089 162.082 l
289.522 158.295 l
289.821 157.225 l
289.977 157.165 l
289.986 157.172 l
290.133 157.443 l
290.357 158.417 l
290.674 160.938 l
291.098 166.294 l
291.656 176.47 l
292.414 194.832 l
295.035 262.019 l
295.196 264.627 l
295.196 264.627 l
stroke
grestore
0 setlinejoin
0.000 setgray
gsave
72 388.8 m
518.4 388.8 l
stroke
grestore
gsave
518.4 43.2 m
518.4 388.8 l
stroke
grestore
gsave
72 43.2 m
518.4 43.2 l
stroke
grestore
gsave
72 43.2 m
72 388.8 l
stroke
grestore
0.500 setlinewidth
1 setlinejoin
0 setlinecap
gsave
/o {
gsave
newpath
translate
0.5 setlinewidth
1 setlinejoin
0 setlinecap
0 0 m
0 4 l
gsave
0.000 setgray
fill
grestore
stroke
grestore
} bind def
72 43.2 o
grestore
gsave
/o {
gsave
newpath
translate
0.5 setlinewidth
1 setlinejoin
0 setlinecap
0 0 m
0 -4 l
gsave
0.000 setgray
fill
grestore
stroke
grestore
} bind def
72 388.8 o
grestore
/BitstreamVeraSans-Roman findfont
12.000 scalefont
setfont
gsave
68.976562 30.075000 translate
0.000000 rotate
0.000000 0.000000 m /zero glyphshow
grestore
gsave
/o {
gsave
newpath
translate
0.5 setlinewidth
1 setlinejoin
0 setlinecap
0 0 m
0 4 l
gsave
0.000 setgray
fill
grestore
stroke
grestore
} bind def
183.6 43.2 o
grestore
gsave
/o {
gsave
newpath
translate
0.5 setlinewidth
1 setlinejoin
0 setlinecap
0 0 m
0 -4 l
gsave
0.000 setgray
fill
grestore
stroke
grestore
} bind def
183.6 388.8 o
grestore
gsave
176.818750 30.075000 translate
0.000000 rotate
0.000000 0.000000 m /five glyphshow
7.634766 0.000000 m /zero glyphshow
grestore
gsave
/o {
gsave
newpath
translate
0.5 setlinewidth
1 setlinejoin
0 setlinecap
0 0 m
0 4 l
gsave
0.000 setgray
fill
grestore
stroke
grestore
} bind def
295.2 43.2 o
grestore
gsave
/o {
gsave
newpath
translate
0.5 setlinewidth
1 setlinejoin
0 setlinecap
0 0 m
0 -4 l
gsave
0.000 setgray
fill
grestore
stroke
grestore
} bind def
295.2 388.8 o
grestore
gsave
284.793750 30.075000 translate
0.000000 rotate
0.000000 0.000000 m /one glyphshow
7.634766 0.000000 m /zero glyphshow
15.269531 0.000000 m /zero glyphshow
grestore
gsave
/o {
gsave
newpath
translate
0.5 setlinewidth
1 setlinejoin
0 setlinecap
0 0 m
0 4 l
gsave
0.000 setgray
fill
grestore
stroke
grestore
} bind def
406.8 43.2 o
grestore
gsave
/o {
gsave
newpath
translate
0.5 setlinewidth
1 setlinejoin
0 setlinecap
0 0 m
0 -4 l
gsave
0.000 setgray
fill
grestore
stroke
grestore
} bind def
406.8 388.8 o
grestore
gsave
396.393750 30.075000 translate
0.000000 rotate
0.000000 0.000000 m /one glyphshow
7.634766 0.000000 m /five glyphshow
15.269531 0.000000 m /zero glyphshow
grestore
gsave
/o {
gsave
newpath
translate
0.5 setlinewidth
1 setlinejoin
0 setlinecap
0 0 m
0 4 l
gsave
0.000 setgray
fill
grestore
stroke
grestore
} bind def
518.4 43.2 o
grestore
gsave
/o {
gsave
newpath
translate
0.5 setlinewidth
1 setlinejoin
0 setlinecap
0 0 m
0 -4 l
gsave
0.000 setgray
fill
grestore
stroke
grestore
} bind def
518.4 388.8 o
grestore
gsave
507.775000 30.075000 translate
0.000000 rotate
0.000000 0.000000 m /two glyphshow
7.634766 0.000000 m /zero glyphshow
15.269531 0.000000 m /zero glyphshow
grestore
gsave
269.200000 11.934375 translate
0.000000 rotate
/BitstreamVeraSans-Roman findfont
14.0 scalefont
setfont
0.000000 0.359375 moveto
/t glyphshow

5.489258 0.359375 moveto
/i glyphshow

9.378906 0.359375 moveto
/m glyphshow

23.016602 0.359375 moveto
/e glyphshow

31.629883 0.359375 moveto
/space glyphshow

36.080078 0.359375 moveto
/slash glyphshow

40.796875 0.359375 moveto
/space glyphshow

/Cmmi10 findfont
14.0 scalefont
setfont
45.247070 0.359375 moveto
/s glyphshow


grestore
gsave
/o {
gsave
newpath
translate
0.5 setlinewidth
1 setlinejoin
0 setlinecap
0 0 m
4 0 l
gsave
0.000 setgray
fill
grestore
stroke
grestore
} bind def
72 56.0786 o
grestore
gsave
/o {
gsave
newpath
translate
0.5 setlinewidth
1 setlinejoin
0 setlinecap
0 0 m
-4 0 l
gsave
0.000 setgray
fill
grestore
stroke
grestore
} bind def
518.4 56.0786 o
grestore
gsave
52.531250 52.766111 translate
0.000000 rotate
0.000000 0.000000 m /minus glyphshow
10.054688 0.000000 m /three glyphshow
grestore
gsave
/o {
gsave
newpath
translate
0.5 setlinewidth
1 setlinejoin
0 setlinecap
0 0 m
4 0 l
gsave
0.000 setgray
fill
grestore
stroke
grestore
} bind def
72 109.386 o
grestore
gsave
/o {
gsave
newpath
translate
0.5 setlinewidth
1 setlinejoin
0 setlinecap
0 0 m
-4 0 l
gsave
0.000 setgray
fill
grestore
stroke
grestore
} bind def
518.4 109.386 o
grestore
gsave
52.765625 106.073241 translate
0.000000 rotate
0.000000 0.000000 m /minus glyphshow
10.054688 0.000000 m /two glyphshow
grestore
gsave
/o {
gsave
newpath
translate
0.5 setlinewidth
1 setlinejoin
0 setlinecap
0 0 m
4 0 l
gsave
0.000 setgray
fill
grestore
stroke
grestore
} bind def
72 162.693 o
grestore
gsave
/o {
gsave
newpath
translate
0.5 setlinewidth
1 setlinejoin
0 setlinecap
0 0 m
-4 0 l
gsave
0.000 setgray
fill
grestore
stroke
grestore
} bind def
518.4 162.693 o
grestore
gsave
52.671875 159.380370 translate
0.000000 rotate
0.000000 0.000000 m /minus glyphshow
10.054688 0.000000 m /one glyphshow
grestore
gsave
/o {
gsave
newpath
translate
0.5 setlinewidth
1 setlinejoin
0 setlinecap
0 0 m
4 0 l
gsave
0.000 setgray
fill
grestore
stroke
grestore
} bind def
72 216 o
grestore
gsave
/o {
gsave
newpath
translate
0.5 setlinewidth
1 setlinejoin
0 setlinecap
0 0 m
-4 0 l
gsave
0.000 setgray
fill
grestore
stroke
grestore
} bind def
518.4 216 o
grestore
gsave
61.953125 212.687500 translate
0.000000 rotate
0.000000 0.000000 m /zero glyphshow
grestore
gsave
/o {
gsave
newpath
translate
0.5 setlinewidth
1 setlinejoin
0 setlinecap
0 0 m
4 0 l
gsave
0.000 setgray
fill
grestore
stroke
grestore
} bind def
72 269.307 o
grestore
gsave
/o {
gsave
newpath
translate
0.5 setlinewidth
1 setlinejoin
0 setlinecap
0 0 m
-4 0 l
gsave
0.000 setgray
fill
grestore
stroke
grestore
} bind def
518.4 269.307 o
grestore
gsave
62.781250 265.994630 translate
0.000000 rotate
0.000000 0.000000 m /one glyphshow
grestore
gsave
/o {
gsave
newpath
translate
0.5 setlinewidth
1 setlinejoin
0 setlinecap
0 0 m
4 0 l
gsave
0.000 setgray
fill
grestore
stroke
grestore
} bind def
72 322.614 o
grestore
gsave
/o {
gsave
newpath
translate
0.5 setlinewidth
1 setlinejoin
0 setlinecap
0 0 m
-4 0 l
gsave
0.000 setgray
fill
grestore
stroke
grestore
} bind def
518.4 322.614 o
grestore
gsave
62.437500 319.301759 translate
0.000000 rotate
0.000000 0.000000 m /two glyphshow
grestore
gsave
/o {
gsave
newpath
translate
0.5 setlinewidth
1 setlinejoin
0 setlinecap
0 0 m
4 0 l
gsave
0.000 setgray
fill
grestore
stroke
grestore
} bind def
72 375.921 o
grestore
gsave
/o {
gsave
newpath
translate
0.5 setlinewidth
1 setlinejoin
0 setlinecap
0 0 m
-4 0 l
gsave
0.000 setgray
fill
grestore
stroke
grestore
} bind def
518.4 375.921 o
grestore
gsave
62.250000 372.608889 translate
0.000000 rotate
0.000000 0.000000 m /three glyphshow
grestore
gsave
44.625000 194.000000 translate
90.000000 rotate
/Cmmi10 findfont
14.0 scalefont
setfont
0.000000 0.359375 moveto
/theta glyphshow

/BitstreamVeraSans-Roman findfont
14.0 scalefont
setfont
6.569336 0.359375 moveto
/space glyphshow

11.019531 0.359375 moveto
/slash glyphshow

15.736328 0.359375 moveto
/space glyphshow

20.186523 0.359375 moveto
/r glyphshow

25.942383 0.359375 moveto
/a glyphshow

34.521484 0.359375 moveto
/d glyphshow


grestore
1.000 setlinewidth
0 setlinejoin
gsave
394.36 335.786 m
511.2 335.786 l
511.2 381.6 l
394.36 381.6 l
cl
gsave
1.000 setgray
fill
grestore
stroke
grestore
1 setlinejoin
2 setlinecap
0.000 0.000 1.000 setrgbcolor
gsave
404.44 370.239 m
424.6 370.239 l
stroke
grestore
0.000 setgray
gsave
440.440000 365.199375 translate
0.000000 rotate
/Cmr10 findfont
14.4 scalefont
setfont
0.000000 0.703125 moveto
/Delta glyphshow

/Cmmi10 findfont
14.4 scalefont
setfont
11.987503 0.703125 moveto
/t glyphshow

/Cmr10 findfont
14.4 scalefont
setfont
19.706998 0.703125 moveto
/equal glyphshow

31.796289 0.703125 moveto
/zero glyphshow

/Cmmi10 findfont
14.4 scalefont
setfont
38.991602 0.703125 moveto
/period glyphshow

/Cmr10 findfont
14.4 scalefont
setfont
43.096518 0.703125 moveto
/zero glyphshow

50.291830 0.703125 moveto
/zero glyphshow

57.487143 0.703125 moveto
/one glyphshow


grestore
0.000 0.500 0.000 setrgbcolor
gsave
404.44 349.493 m
424.6 349.493 l
stroke
grestore
0.000 setgray
gsave
440.440000 344.452500 translate
0.000000 rotate
/Cmr10 findfont
14.4 scalefont
setfont
0.000000 0.703125 moveto
/Delta glyphshow

/Cmmi10 findfont
14.4 scalefont
setfont
11.987503 0.703125 moveto
/t glyphshow

/Cmr10 findfont
14.4 scalefont
setfont
19.706998 0.703125 moveto
/equal glyphshow

31.796289 0.703125 moveto
/zero glyphshow

/Cmmi10 findfont
14.4 scalefont
setfont
38.991602 0.703125 moveto
/period glyphshow

/Cmr10 findfont
14.4 scalefont
setfont
43.096518 0.703125 moveto
/zero glyphshow

50.291830 0.703125 moveto
/zero glyphshow

57.487143 0.703125 moveto
/two glyphshow


grestore

end
showpage
