%!PS-Adobe-3.0 EPSF-3.0
%%Title: /home/sunoru/Study/computational-physics/homework/c4/p4-12.eps
%%Creator: matplotlib version 1.4.3, http://matplotlib.org/
%%CreationDate: Thu Dec 31 10:36:12 2015
%%Orientation: portrait
%%BoundingBox: -414 35 1026 756
%%EndComments
%%BeginProlog
/mpldict 10 dict def
mpldict begin
/m { moveto } bind def
/l { lineto } bind def
/r { rlineto } bind def
/c { curveto } bind def
/cl { closepath } bind def
/box {
m
1 index 0 r
0 exch r
neg 0 r
cl
} bind def
/clipbox {
box
clip
newpath
} bind def
%!PS-Adobe-3.0 Resource-Font
%%Title: cmr10
%%Copyright: Copyright (C) 1994, Basil K. Malyshev. All Rights Reserved.012BaKoMa Fonts Collection, Level-B.
%%Creator: Converted from TrueType to type 3 by PPR
25 dict begin
/_d{bind def}bind def
/_m{moveto}_d
/_l{lineto}_d
/_cl{closepath eofill}_d
/_c{curveto}_d
/_sc{7 -1 roll{setcachedevice}{pop pop pop pop pop pop}ifelse}_d
/_e{exec}_d
/FontName /Cmr10 def
/PaintType 0 def
/FontMatrix[.001 0 0 .001 0 0]def
/FontBBox[-44 -250 1009 750]def
/FontType 3 def
/Encoding [ /h /one /c ] def
/FontInfo 10 dict dup begin
/FamilyName (cmr10) def
/FullName (cmr10) def
/Notice (Copyright (C) 1994, Basil K. Malyshev. All Rights Reserved.012BaKoMa Fonts Collection, Level-B. ) def
/Weight (Regular) def
/Version (1.1/12-Nov-94) def
/ItalicAngle 0.0 def
/isFixedPitch false def
/UnderlinePosition -133 def
/UnderlineThickness 20 def
end readonly def
/CharStrings 3 dict dup begin
/h{{555 0 30 0 537 694 _sc
30 0 _m
30 35 _l
52 35 71 36 86 40 _c
100 44 108 53 108 67 _c
108 592 _l
108 610 105 623 100 631 _c
94 639 87 643 77 645 _c
67 647 51 648 30 648 _c
30 683 _l
178 694 _l
178 350 _l
192 378 211 400 236 417 _c
261 433 289 442 320 442 _c
366 442 400 430 424 408 _c
447 386 459 352 459 307 _c
459 67 _l
459 53 466 44 481 40 _c
}_e{495 36 514 35 537 35 _c
537 0 _l
308 0 _l
308 35 _l
330 35 349 36 364 40 _c
378 44 386 53 386 67 _c
386 304 _l
386 336 381 363 372 384 _c
362 405 343 416 314 416 _c
275 416 243 400 218 369 _c
193 338 181 303 181 264 _c
181 67 _l
181 53 188 44 203 40 _c
217 36 236 35 259 35 _c
259 0 _l
30 0 _l
_cl}_e}_d
/one{500 0 87 0 421 666 _sc
93 0 _m
93 35 _l
176 35 218 45 218 67 _c
218 592 _l
183 575 139 567 87 567 _c
87 602 _l
168 602 230 623 272 666 _c
286 666 _l
288 666 291 665 293 663 _c
295 661 296 659 296 657 _c
296 67 _l
296 45 337 35 421 35 _c
421 0 _l
93 0 _l
_cl}_d
/c{{444 0 33 -10 415 448 _sc
249 -10 _m
208 -10 171 0 139 21 _c
106 41 80 69 61 104 _c
42 139 33 176 33 216 _c
33 255 42 293 61 329 _c
79 365 105 393 138 415 _c
171 437 208 448 249 448 _c
288 448 324 440 356 425 _c
388 409 404 384 404 350 _c
404 337 399 326 390 316 _c
380 306 369 302 356 302 _c
342 302 331 306 322 316 _c
312 326 308 337 308 350 _c
}_e{308 362 311 372 319 381 _c
327 389 336 395 347 397 _c
324 411 292 419 250 419 _c
218 419 192 408 173 387 _c
153 365 140 339 132 308 _c
124 277 120 246 120 216 _c
120 183 124 152 134 122 _c
144 92 159 67 181 47 _c
202 27 229 18 261 18 _c
293 18 320 27 342 47 _c
364 66 379 91 387 123 _c
387 127 389 129 395 129 _c
407 129 _l
409 129 410 128 412 126 _c
}_e{414 124 415 122 415 120 _c
415 117 _l
405 77 385 46 355 24 _c
325 1 289 -10 249 -10 _c
_cl}_e}_d
end readonly def

/BuildGlyph
 {exch begin
 CharStrings exch
 2 copy known not{pop /.notdef}if
 true 3 1 roll get exec
 end}_d

/BuildChar {
 1 index /Encoding get exch get
 1 index /BuildGlyph get exec
}_d

FontName currentdict end definefont pop
%!PS-Adobe-3.0 Resource-Font
%%Title: cmmi10
%%Copyright: Copyright (C) 1994, Basil K. Malyshev. All Rights Reserved.012BaKoMa Fonts Collection, Level-B.
%%Creator: Converted from TrueType to type 3 by PPR
25 dict begin
/_d{bind def}bind def
/_m{moveto}_d
/_l{lineto}_d
/_cl{closepath eofill}_d
/_c{curveto}_d
/_sc{7 -1 roll{setcachedevice}{pop pop pop pop pop pop}ifelse}_d
/_e{exec}_d
/FontName /Cmmi10 def
/PaintType 0 def
/FontMatrix[.001 0 0 .001 0 0]def
/FontBBox[-34 -250 1048 750]def
/FontType 3 def
/Encoding [ /x /slash ] def
/FontInfo 10 dict dup begin
/FamilyName (cmmi10) def
/FullName (cmmi10) def
/Notice (Copyright (C) 1994, Basil K. Malyshev. All Rights Reserved.012BaKoMa Fonts Collection, Level-B. ) def
/Weight (Regular) def
/Version (1.1/12-Nov-94) def
/ItalicAngle 0.0 def
/isFixedPitch false def
/UnderlinePosition -133 def
/UnderlineThickness 20 def
end readonly def
/CharStrings 2 dict dup begin
/x{{571 0 31 -10 526 442 _sc
78 29 _m
90 19 106 15 128 15 _c
148 15 167 25 183 45 _c
199 65 210 87 216 111 _c
261 288 _l
268 320 272 342 272 354 _c
272 370 267 385 258 397 _c
248 409 235 416 219 416 _c
198 416 178 409 160 396 _c
141 382 125 365 113 345 _c
100 325 91 304 86 284 _c
84 280 82 278 78 278 _c
66 278 _l
60 278 58 281 58 287 _c
58 290 _l
}_e{64 314 75 338 91 362 _c
107 386 126 405 149 420 _c
171 434 195 442 221 442 _c
245 442 267 435 287 422 _c
307 409 321 391 329 369 _c
340 389 354 407 372 421 _c
390 435 409 442 431 442 _c
445 442 460 439 475 434 _c
490 429 502 421 512 411 _c
521 401 526 388 526 372 _c
526 355 520 340 509 328 _c
498 316 484 310 468 310 _c
457 310 448 313 441 320 _c
}_e{433 327 430 336 430 346 _c
430 360 434 372 444 383 _c
454 393 465 400 479 402 _c
467 411 450 416 429 416 _c
407 416 389 406 373 386 _c
357 366 346 344 340 320 _c
296 143 _l
288 116 285 94 285 77 _c
285 60 289 45 299 33 _c
309 21 322 15 338 15 _c
369 15 397 28 421 56 _c
445 84 462 114 470 147 _c
471 151 474 153 478 153 _c
490 153 _l
492 153 494 152 496 150 _c
}_e{498 148 499 146 499 144 _c
499 143 498 142 498 141 _c
488 101 468 66 438 36 _c
408 5 374 -10 336 -10 _c
311 -10 289 -3 269 9 _c
249 21 236 39 228 62 _c
217 42 202 25 184 11 _c
166 -3 146 -10 126 -10 _c
111 -10 96 -7 81 -3 _c
66 1 54 9 45 19 _c
35 29 31 43 31 59 _c
31 75 36 89 47 102 _c
57 114 71 121 88 121 _c
}_e{98 121 107 117 115 111 _c
123 104 127 95 127 85 _c
127 71 122 58 113 48 _c
103 38 92 31 78 29 _c
_cl}_e}_d
/slash{500 0 56 -249 443 750 _sc
56 -229 _m
56 -227 56 -225 57 -225 _c
405 738 _l
406 742 408 745 412 747 _c
415 749 419 750 423 750 _c
429 750 433 748 437 744 _c
441 740 443 736 443 730 _c
443 726 _l
95 -237 _l
91 -245 84 -249 76 -249 _c
70 -249 66 -247 62 -243 _c
58 -239 56 -234 56 -229 _c
_cl}_d
end readonly def

/BuildGlyph
 {exch begin
 CharStrings exch
 2 copy known not{pop /.notdef}if
 true 3 1 roll get exec
 end}_d

/BuildChar {
 1 index /Encoding get exch get
 1 index /BuildGlyph get exec
}_d

FontName currentdict end definefont pop
%!PS-Adobe-3.0 Resource-Font
%%Title: Bitstream Vera Sans
%%Copyright: Copyright (c) 2003 by Bitstream, Inc. All Rights Reserved.
%%Creator: Converted from TrueType to type 3 by PPR
25 dict begin
/_d{bind def}bind def
/_m{moveto}_d
/_l{lineto}_d
/_cl{closepath eofill}_d
/_c{curveto}_d
/_sc{7 -1 roll{setcachedevice}{pop pop pop pop pop pop}ifelse}_d
/_e{exec}_d
/FontName /BitstreamVeraSans-Roman def
/PaintType 0 def
/FontMatrix[.001 0 0 .001 0 0]def
/FontBBox[-183 -236 1287 928]def
/FontType 3 def
/Encoding [ /period /zero /one /two /three /four /five /six /eight /minus ] def
/FontInfo 10 dict dup begin
/FamilyName (Bitstream Vera Sans) def
/FullName (Bitstream Vera Sans) def
/Notice (Copyright (c) 2003 by Bitstream, Inc. All Rights Reserved. Bitstream Vera is a trademark of Bitstream, Inc.) def
/Weight (Roman) def
/Version (Release 1.10) def
/ItalicAngle 0.0 def
/isFixedPitch false def
/UnderlinePosition -213 def
/UnderlineThickness 143 def
end readonly def
/CharStrings 10 dict dup begin
/period{318 0 107 0 210 124 _sc
107 124 _m
210 124 _l
210 0 _l
107 0 _l
107 124 _l
_cl}_d
/zero{636 0 66 -13 570 742 _sc
318 664 _m
267 664 229 639 203 589 _c
177 539 165 464 165 364 _c
165 264 177 189 203 139 _c
229 89 267 64 318 64 _c
369 64 407 89 433 139 _c
458 189 471 264 471 364 _c
471 464 458 539 433 589 _c
407 639 369 664 318 664 _c
318 742 _m
399 742 461 709 505 645 _c
548 580 570 486 570 364 _c
570 241 548 147 505 83 _c
461 19 399 -13 318 -13 _c
236 -13 173 19 130 83 _c
87 147 66 241 66 364 _c
66 486 87 580 130 645 _c
173 709 236 742 318 742 _c
_cl}_d
/one{636 0 110 0 544 729 _sc
124 83 _m
285 83 _l
285 639 _l
110 604 _l
110 694 _l
284 729 _l
383 729 _l
383 83 _l
544 83 _l
544 0 _l
124 0 _l
124 83 _l
_cl}_d
/two{{636 0 73 0 536 742 _sc
192 83 _m
536 83 _l
536 0 _l
73 0 _l
73 83 _l
110 121 161 173 226 239 _c
290 304 331 346 348 365 _c
380 400 402 430 414 455 _c
426 479 433 504 433 528 _c
433 566 419 598 392 622 _c
365 646 330 659 286 659 _c
255 659 222 653 188 643 _c
154 632 117 616 78 594 _c
78 694 _l
118 710 155 722 189 730 _c
223 738 255 742 284 742 _c
}_e{359 742 419 723 464 685 _c
509 647 532 597 532 534 _c
532 504 526 475 515 449 _c
504 422 484 390 454 354 _c
446 344 420 317 376 272 _c
332 227 271 164 192 83 _c
_cl}_e}_d
/three{{636 0 76 -13 556 742 _sc
406 393 _m
453 383 490 362 516 330 _c
542 298 556 258 556 212 _c
556 140 531 84 482 45 _c
432 6 362 -13 271 -13 _c
240 -13 208 -10 176 -4 _c
144 1 110 10 76 22 _c
76 117 _l
103 101 133 89 166 81 _c
198 73 232 69 268 69 _c
330 69 377 81 409 105 _c
441 129 458 165 458 212 _c
458 254 443 288 413 312 _c
383 336 341 349 287 349 _c
}_e{202 349 _l
202 430 _l
291 430 _l
339 430 376 439 402 459 _c
428 478 441 506 441 543 _c
441 580 427 609 401 629 _c
374 649 336 659 287 659 _c
260 659 231 656 200 650 _c
169 644 135 635 98 623 _c
98 711 _l
135 721 170 729 203 734 _c
235 739 266 742 296 742 _c
370 742 429 725 473 691 _c
517 657 539 611 539 553 _c
539 513 527 479 504 451 _c
481 423 448 403 406 393 _c
_cl}_e}_d
/four{636 0 49 0 580 729 _sc
378 643 _m
129 254 _l
378 254 _l
378 643 _l
352 729 _m
476 729 _l
476 254 _l
580 254 _l
580 172 _l
476 172 _l
476 0 _l
378 0 _l
378 172 _l
49 172 _l
49 267 _l
352 729 _l
_cl}_d
/five{{636 0 77 -13 549 729 _sc
108 729 _m
495 729 _l
495 646 _l
198 646 _l
198 467 _l
212 472 227 476 241 478 _c
255 480 270 482 284 482 _c
365 482 429 459 477 415 _c
525 370 549 310 549 234 _c
549 155 524 94 475 51 _c
426 8 357 -13 269 -13 _c
238 -13 207 -10 175 -6 _c
143 -1 111 6 77 17 _c
77 116 _l
106 100 136 88 168 80 _c
199 72 232 69 267 69 _c
}_e{323 69 368 83 401 113 _c
433 143 450 183 450 234 _c
450 284 433 324 401 354 _c
368 384 323 399 267 399 _c
241 399 214 396 188 390 _c
162 384 135 375 108 363 _c
108 729 _l
_cl}_e}_d
/six{{636 0 70 -13 573 742 _sc
330 404 _m
286 404 251 388 225 358 _c
199 328 186 286 186 234 _c
186 181 199 139 225 109 _c
251 79 286 64 330 64 _c
374 64 409 79 435 109 _c
461 139 474 181 474 234 _c
474 286 461 328 435 358 _c
409 388 374 404 330 404 _c
526 713 _m
526 623 _l
501 635 476 644 451 650 _c
425 656 400 659 376 659 _c
310 659 260 637 226 593 _c
}_e{192 549 172 482 168 394 _c
187 422 211 444 240 459 _c
269 474 301 482 336 482 _c
409 482 467 459 509 415 _c
551 371 573 310 573 234 _c
573 159 550 99 506 54 _c
462 9 403 -13 330 -13 _c
246 -13 181 19 137 83 _c
92 147 70 241 70 364 _c
70 479 97 571 152 639 _c
206 707 280 742 372 742 _c
396 742 421 739 447 735 _c
472 730 498 723 526 713 _c
_cl}_e}_d
/eight{{636 0 68 -13 568 742 _sc
318 346 _m
271 346 234 333 207 308 _c
180 283 167 249 167 205 _c
167 161 180 126 207 101 _c
234 76 271 64 318 64 _c
364 64 401 76 428 102 _c
455 127 469 161 469 205 _c
469 249 455 283 429 308 _c
402 333 365 346 318 346 _c
219 388 _m
177 398 144 418 120 447 _c
96 476 85 511 85 553 _c
85 611 105 657 147 691 _c
188 725 245 742 318 742 _c
}_e{390 742 447 725 489 691 _c
530 657 551 611 551 553 _c
551 511 539 476 515 447 _c
491 418 459 398 417 388 _c
464 377 501 355 528 323 _c
554 291 568 251 568 205 _c
568 134 546 80 503 43 _c
459 5 398 -13 318 -13 _c
237 -13 175 5 132 43 _c
89 80 68 134 68 205 _c
68 251 81 291 108 323 _c
134 355 171 377 219 388 _c
183 544 _m
183 506 194 476 218 455 _c
}_e{242 434 275 424 318 424 _c
360 424 393 434 417 455 _c
441 476 453 506 453 544 _c
453 582 441 611 417 632 _c
393 653 360 664 318 664 _c
275 664 242 653 218 632 _c
194 611 183 582 183 544 _c
_cl}_e}_d
/minus{838 0 106 272 732 355 _sc
106 355 _m
732 355 _l
732 272 _l
106 272 _l
106 355 _l
_cl}_d
end readonly def

/BuildGlyph
 {exch begin
 CharStrings exch
 2 copy known not{pop /.notdef}if
 true 3 1 roll get exec
 end}_d

/BuildChar {
 1 index /Encoding get exch get
 1 index /BuildGlyph get exec
}_d

FontName currentdict end definefont pop
end
%%EndProlog
mpldict begin
-414 35.1 translate
1440 721.8 0 0 clipbox
gsave
0 0 m
1440 0 l
1440 721.8 l
0 721.8 l
cl
1.000 setgray
fill
grestore
gsave
180 72.18 m
1296 72.18 l
1296 649.62 l
180 649.62 l
cl
1.000 setgray
fill
grestore
1.000 setlinewidth
0 setlinejoin
0 setlinecap
[] 0 setdash
0.000 setgray
gsave
1116 577.4 180 72.18 clipbox
180 72.18 m
186.975 72.18 l
186.975 72.18 l
180 72.18 l
cl
gsave
0.000 0.500 0.000 setrgbcolor
fill
grestore
stroke
grestore
gsave
1116 577.4 180 72.18 clipbox
186.975 72.18 m
193.95 72.18 l
193.95 72.18 l
186.975 72.18 l
cl
gsave
0.000 0.500 0.000 setrgbcolor
fill
grestore
stroke
grestore
gsave
1116 577.4 180 72.18 clipbox
193.95 72.18 m
200.925 72.18 l
200.925 72.18 l
193.95 72.18 l
cl
gsave
0.000 0.500 0.000 setrgbcolor
fill
grestore
stroke
grestore
gsave
1116 577.4 180 72.18 clipbox
200.925 72.18 m
207.9 72.18 l
207.9 72.18 l
200.925 72.18 l
cl
gsave
0.000 0.500 0.000 setrgbcolor
fill
grestore
stroke
grestore
gsave
1116 577.4 180 72.18 clipbox
207.9 72.18 m
214.875 72.18 l
214.875 72.18 l
207.9 72.18 l
cl
gsave
0.000 0.500 0.000 setrgbcolor
fill
grestore
stroke
grestore
gsave
1116 577.4 180 72.18 clipbox
214.875 72.18 m
221.85 72.18 l
221.85 72.18 l
214.875 72.18 l
cl
gsave
0.000 0.500 0.000 setrgbcolor
fill
grestore
stroke
grestore
gsave
1116 577.4 180 72.18 clipbox
221.85 72.18 m
228.825 72.18 l
228.825 72.18 l
221.85 72.18 l
cl
gsave
0.000 0.500 0.000 setrgbcolor
fill
grestore
stroke
grestore
gsave
1116 577.4 180 72.18 clipbox
228.825 72.18 m
235.8 72.18 l
235.8 72.18 l
228.825 72.18 l
cl
gsave
0.000 0.500 0.000 setrgbcolor
fill
grestore
stroke
grestore
gsave
1116 577.4 180 72.18 clipbox
235.8 72.18 m
242.775 72.18 l
242.775 72.18 l
235.8 72.18 l
cl
gsave
0.000 0.500 0.000 setrgbcolor
fill
grestore
stroke
grestore
gsave
1116 577.4 180 72.18 clipbox
242.775 72.18 m
249.75 72.18 l
249.75 72.18 l
242.775 72.18 l
cl
gsave
0.000 0.500 0.000 setrgbcolor
fill
grestore
stroke
grestore
gsave
1116 577.4 180 72.18 clipbox
249.75 72.18 m
256.725 72.18 l
256.725 72.18 l
249.75 72.18 l
cl
gsave
0.000 0.500 0.000 setrgbcolor
fill
grestore
stroke
grestore
gsave
1116 577.4 180 72.18 clipbox
256.725 72.18 m
263.7 72.18 l
263.7 72.18 l
256.725 72.18 l
cl
gsave
0.000 0.500 0.000 setrgbcolor
fill
grestore
stroke
grestore
gsave
1116 577.4 180 72.18 clipbox
263.7 72.18 m
270.675 72.18 l
270.675 72.18 l
263.7 72.18 l
cl
gsave
0.000 0.500 0.000 setrgbcolor
fill
grestore
stroke
grestore
gsave
1116 577.4 180 72.18 clipbox
270.675 72.18 m
277.65 72.18 l
277.65 72.18 l
270.675 72.18 l
cl
gsave
0.000 0.500 0.000 setrgbcolor
fill
grestore
stroke
grestore
gsave
1116 577.4 180 72.18 clipbox
277.65 72.18 m
284.625 72.18 l
284.625 72.18 l
277.65 72.18 l
cl
gsave
0.000 0.500 0.000 setrgbcolor
fill
grestore
stroke
grestore
gsave
1116 577.4 180 72.18 clipbox
284.625 72.18 m
291.6 72.18 l
291.6 72.18 l
284.625 72.18 l
cl
gsave
0.000 0.500 0.000 setrgbcolor
fill
grestore
stroke
grestore
gsave
1116 577.4 180 72.18 clipbox
291.6 72.18 m
298.575 72.18 l
298.575 72.18 l
291.6 72.18 l
cl
gsave
0.000 0.500 0.000 setrgbcolor
fill
grestore
stroke
grestore
gsave
1116 577.4 180 72.18 clipbox
298.575 72.18 m
305.55 72.18 l
305.55 72.18 l
298.575 72.18 l
cl
gsave
0.000 0.500 0.000 setrgbcolor
fill
grestore
stroke
grestore
gsave
1116 577.4 180 72.18 clipbox
305.55 72.18 m
312.525 72.18 l
312.525 72.18 l
305.55 72.18 l
cl
gsave
0.000 0.500 0.000 setrgbcolor
fill
grestore
stroke
grestore
gsave
1116 577.4 180 72.18 clipbox
312.525 72.18 m
319.5 72.18 l
319.5 72.18 l
312.525 72.18 l
cl
gsave
0.000 0.500 0.000 setrgbcolor
fill
grestore
stroke
grestore
gsave
1116 577.4 180 72.18 clipbox
319.5 72.18 m
326.475 72.18 l
326.475 72.18 l
319.5 72.18 l
cl
gsave
0.000 0.500 0.000 setrgbcolor
fill
grestore
stroke
grestore
gsave
1116 577.4 180 72.18 clipbox
326.475 72.18 m
333.45 72.18 l
333.45 72.18 l
326.475 72.18 l
cl
gsave
0.000 0.500 0.000 setrgbcolor
fill
grestore
stroke
grestore
gsave
1116 577.4 180 72.18 clipbox
333.45 72.18 m
340.425 72.18 l
340.425 72.18 l
333.45 72.18 l
cl
gsave
0.000 0.500 0.000 setrgbcolor
fill
grestore
stroke
grestore
gsave
1116 577.4 180 72.18 clipbox
340.425 72.18 m
347.4 72.18 l
347.4 72.18 l
340.425 72.18 l
cl
gsave
0.000 0.500 0.000 setrgbcolor
fill
grestore
stroke
grestore
gsave
1116 577.4 180 72.18 clipbox
347.4 72.18 m
354.375 72.18 l
354.375 72.18 l
347.4 72.18 l
cl
gsave
0.000 0.500 0.000 setrgbcolor
fill
grestore
stroke
grestore
gsave
1116 577.4 180 72.18 clipbox
354.375 72.18 m
361.35 72.18 l
361.35 72.18 l
354.375 72.18 l
cl
gsave
0.000 0.500 0.000 setrgbcolor
fill
grestore
stroke
grestore
gsave
1116 577.4 180 72.18 clipbox
361.35 72.18 m
368.325 72.18 l
368.325 72.18 l
361.35 72.18 l
cl
gsave
0.000 0.500 0.000 setrgbcolor
fill
grestore
stroke
grestore
gsave
1116 577.4 180 72.18 clipbox
368.325 72.18 m
375.3 72.18 l
375.3 72.2638 l
368.325 72.2638 l
cl
gsave
0.000 0.500 0.000 setrgbcolor
fill
grestore
stroke
grestore
gsave
1116 577.4 180 72.18 clipbox
375.3 72.18 m
382.275 72.18 l
382.275 72.599 l
375.3 72.599 l
cl
gsave
0.000 0.500 0.000 setrgbcolor
fill
grestore
stroke
grestore
gsave
1116 577.4 180 72.18 clipbox
382.275 72.18 m
389.25 72.18 l
389.25 73.4873 l
382.275 73.4873 l
cl
gsave
0.000 0.500 0.000 setrgbcolor
fill
grestore
stroke
grestore
gsave
1116 577.4 180 72.18 clipbox
389.25 72.18 m
396.225 72.18 l
396.225 73.6549 l
389.25 73.6549 l
cl
gsave
0.000 0.500 0.000 setrgbcolor
fill
grestore
stroke
grestore
gsave
1116 577.4 180 72.18 clipbox
396.225 72.18 m
403.2 72.18 l
403.2 73.9901 l
396.225 73.9901 l
cl
gsave
0.000 0.500 0.000 setrgbcolor
fill
grestore
stroke
grestore
gsave
1116 577.4 180 72.18 clipbox
403.2 72.18 m
410.175 72.18 l
410.175 74.5767 l
403.2 74.5767 l
cl
gsave
0.000 0.500 0.000 setrgbcolor
fill
grestore
stroke
grestore
gsave
1116 577.4 180 72.18 clipbox
410.175 72.18 m
417.15 72.18 l
417.15 75.5152 l
410.175 75.5152 l
cl
gsave
0.000 0.500 0.000 setrgbcolor
fill
grestore
stroke
grestore
gsave
1116 577.4 180 72.18 clipbox
417.15 72.18 m
424.125 72.18 l
424.125 75.2973 l
417.15 75.2973 l
cl
gsave
0.000 0.500 0.000 setrgbcolor
fill
grestore
stroke
grestore
gsave
1116 577.4 180 72.18 clipbox
424.125 72.18 m
431.1 72.18 l
431.1 77.2415 l
424.125 77.2415 l
cl
gsave
0.000 0.500 0.000 setrgbcolor
fill
grestore
stroke
grestore
gsave
1116 577.4 180 72.18 clipbox
431.1 72.18 m
438.075 72.18 l
438.075 78.2471 l
431.1 78.2471 l
cl
gsave
0.000 0.500 0.000 setrgbcolor
fill
grestore
stroke
grestore
gsave
1116 577.4 180 72.18 clipbox
438.075 72.18 m
445.05 72.18 l
445.05 80.3085 l
438.075 80.3085 l
cl
gsave
0.000 0.500 0.000 setrgbcolor
fill
grestore
stroke
grestore
gsave
1116 577.4 180 72.18 clipbox
445.05 72.18 m
452.025 72.18 l
452.025 82.9733 l
445.05 82.9733 l
cl
gsave
0.000 0.500 0.000 setrgbcolor
fill
grestore
stroke
grestore
gsave
1116 577.4 180 72.18 clipbox
452.025 72.18 m
459 72.18 l
459 87.3309 l
452.025 87.3309 l
cl
gsave
0.000 0.500 0.000 setrgbcolor
fill
grestore
stroke
grestore
gsave
1116 577.4 180 72.18 clipbox
459 72.18 m
465.975 72.18 l
465.975 91.722 l
459 91.722 l
cl
gsave
0.000 0.500 0.000 setrgbcolor
fill
grestore
stroke
grestore
gsave
1116 577.4 180 72.18 clipbox
465.975 72.18 m
472.95 72.18 l
472.95 93.2639 l
465.975 93.2639 l
cl
gsave
0.000 0.500 0.000 setrgbcolor
fill
grestore
stroke
grestore
gsave
1116 577.4 180 72.18 clipbox
472.95 72.18 m
479.925 72.18 l
479.925 93.046 l
472.95 93.046 l
cl
gsave
0.000 0.500 0.000 setrgbcolor
fill
grestore
stroke
grestore
gsave
1116 577.4 180 72.18 clipbox
479.925 72.18 m
486.9 72.18 l
486.9 95.1913 l
479.925 95.1913 l
cl
gsave
0.000 0.500 0.000 setrgbcolor
fill
grestore
stroke
grestore
gsave
1116 577.4 180 72.18 clipbox
486.9 72.18 m
493.875 72.18 l
493.875 100.135 l
486.9 100.135 l
cl
gsave
0.000 0.500 0.000 setrgbcolor
fill
grestore
stroke
grestore
gsave
1116 577.4 180 72.18 clipbox
493.875 72.18 m
500.85 72.18 l
500.85 102.013 l
493.875 102.013 l
cl
gsave
0.000 0.500 0.000 setrgbcolor
fill
grestore
stroke
grestore
gsave
1116 577.4 180 72.18 clipbox
500.85 72.18 m
507.825 72.18 l
507.825 105.549 l
500.85 105.549 l
cl
gsave
0.000 0.500 0.000 setrgbcolor
fill
grestore
stroke
grestore
gsave
1116 577.4 180 72.18 clipbox
507.825 72.18 m
514.8 72.18 l
514.8 111.096 l
507.825 111.096 l
cl
gsave
0.000 0.500 0.000 setrgbcolor
fill
grestore
stroke
grestore
gsave
1116 577.4 180 72.18 clipbox
514.8 72.18 m
521.775 72.18 l
521.775 118.471 l
514.8 118.471 l
cl
gsave
0.000 0.500 0.000 setrgbcolor
fill
grestore
stroke
grestore
gsave
1116 577.4 180 72.18 clipbox
521.775 72.18 m
528.75 72.18 l
528.75 121.906 l
521.775 121.906 l
cl
gsave
0.000 0.500 0.000 setrgbcolor
fill
grestore
stroke
grestore
gsave
1116 577.4 180 72.18 clipbox
528.75 72.18 m
535.725 72.18 l
535.725 123.365 l
528.75 123.365 l
cl
gsave
0.000 0.500 0.000 setrgbcolor
fill
grestore
stroke
grestore
gsave
1116 577.4 180 72.18 clipbox
535.725 72.18 m
542.7 72.18 l
542.7 124.554 l
535.725 124.554 l
cl
gsave
0.000 0.500 0.000 setrgbcolor
fill
grestore
stroke
grestore
gsave
1116 577.4 180 72.18 clipbox
542.7 72.18 m
549.675 72.18 l
549.675 131.158 l
542.7 131.158 l
cl
gsave
0.000 0.500 0.000 setrgbcolor
fill
grestore
stroke
grestore
gsave
1116 577.4 180 72.18 clipbox
549.675 72.18 m
556.65 72.18 l
556.65 143.443 l
549.675 143.443 l
cl
gsave
0.000 0.500 0.000 setrgbcolor
fill
grestore
stroke
grestore
gsave
1116 577.4 180 72.18 clipbox
556.65 72.18 m
563.625 72.18 l
563.625 148.437 l
556.65 148.437 l
cl
gsave
0.000 0.500 0.000 setrgbcolor
fill
grestore
stroke
grestore
gsave
1116 577.4 180 72.18 clipbox
563.625 72.18 m
570.6 72.18 l
570.6 157.119 l
563.625 157.119 l
cl
gsave
0.000 0.500 0.000 setrgbcolor
fill
grestore
stroke
grestore
gsave
1116 577.4 180 72.18 clipbox
570.6 72.18 m
577.575 72.18 l
577.575 165.616 l
570.6 165.616 l
cl
gsave
0.000 0.500 0.000 setrgbcolor
fill
grestore
stroke
grestore
gsave
1116 577.4 180 72.18 clipbox
577.575 72.18 m
584.55 72.18 l
584.55 176.678 l
577.575 176.678 l
cl
gsave
0.000 0.500 0.000 setrgbcolor
fill
grestore
stroke
grestore
gsave
1116 577.4 180 72.18 clipbox
584.55 72.18 m
591.525 72.18 l
591.525 192.231 l
584.55 192.231 l
cl
gsave
0.000 0.500 0.000 setrgbcolor
fill
grestore
stroke
grestore
gsave
1116 577.4 180 72.18 clipbox
591.525 72.18 m
598.5 72.18 l
598.5 206.309 l
591.525 206.309 l
cl
gsave
0.000 0.500 0.000 setrgbcolor
fill
grestore
stroke
grestore
gsave
1116 577.4 180 72.18 clipbox
598.5 72.18 m
605.475 72.18 l
605.475 226.957 l
598.5 226.957 l
cl
gsave
0.000 0.500 0.000 setrgbcolor
fill
grestore
stroke
grestore
gsave
1116 577.4 180 72.18 clipbox
605.475 72.18 m
612.45 72.18 l
612.45 236.845 l
605.475 236.845 l
cl
gsave
0.000 0.500 0.000 setrgbcolor
fill
grestore
stroke
grestore
gsave
1116 577.4 180 72.18 clipbox
612.45 72.18 m
619.425 72.18 l
619.425 250.94 l
612.45 250.94 l
cl
gsave
0.000 0.500 0.000 setrgbcolor
fill
grestore
stroke
grestore
gsave
1116 577.4 180 72.18 clipbox
619.425 72.18 m
626.4 72.18 l
626.4 264.616 l
619.425 264.616 l
cl
gsave
0.000 0.500 0.000 setrgbcolor
fill
grestore
stroke
grestore
gsave
1116 577.4 180 72.18 clipbox
626.4 72.18 m
633.375 72.18 l
633.375 280.723 l
626.4 280.723 l
cl
gsave
0.000 0.500 0.000 setrgbcolor
fill
grestore
stroke
grestore
gsave
1116 577.4 180 72.18 clipbox
633.375 72.18 m
640.35 72.18 l
640.35 299.51 l
633.375 299.51 l
cl
gsave
0.000 0.500 0.000 setrgbcolor
fill
grestore
stroke
grestore
gsave
1116 577.4 180 72.18 clipbox
640.35 72.18 m
647.325 72.18 l
647.325 314.862 l
640.35 314.862 l
cl
gsave
0.000 0.500 0.000 setrgbcolor
fill
grestore
stroke
grestore
gsave
1116 577.4 180 72.18 clipbox
647.325 72.18 m
654.3 72.18 l
654.3 339.566 l
647.325 339.566 l
cl
gsave
0.000 0.500 0.000 setrgbcolor
fill
grestore
stroke
grestore
gsave
1116 577.4 180 72.18 clipbox
654.3 72.18 m
661.275 72.18 l
661.275 362.125 l
654.3 362.125 l
cl
gsave
0.000 0.500 0.000 setrgbcolor
fill
grestore
stroke
grestore
gsave
1116 577.4 180 72.18 clipbox
661.275 72.18 m
668.25 72.18 l
668.25 391.924 l
661.275 391.924 l
cl
gsave
0.000 0.500 0.000 setrgbcolor
fill
grestore
stroke
grestore
gsave
1116 577.4 180 72.18 clipbox
668.25 72.18 m
675.225 72.18 l
675.225 409.723 l
668.25 409.723 l
cl
gsave
0.000 0.500 0.000 setrgbcolor
fill
grestore
stroke
grestore
gsave
1116 577.4 180 72.18 clipbox
675.225 72.18 m
682.2 72.18 l
682.2 436.74 l
675.225 436.74 l
cl
gsave
0.000 0.500 0.000 setrgbcolor
fill
grestore
stroke
grestore
gsave
1116 577.4 180 72.18 clipbox
682.2 72.18 m
689.175 72.18 l
689.175 469.237 l
682.2 469.237 l
cl
gsave
0.000 0.500 0.000 setrgbcolor
fill
grestore
stroke
grestore
gsave
1116 577.4 180 72.18 clipbox
689.175 72.18 m
696.15 72.18 l
696.15 510.031 l
689.175 510.031 l
cl
gsave
0.000 0.500 0.000 setrgbcolor
fill
grestore
stroke
grestore
gsave
1116 577.4 180 72.18 clipbox
696.15 72.18 m
703.125 72.18 l
703.125 529.958 l
696.15 529.958 l
cl
gsave
0.000 0.500 0.000 setrgbcolor
fill
grestore
stroke
grestore
gsave
1116 577.4 180 72.18 clipbox
703.125 72.18 m
710.1 72.18 l
710.1 559.891 l
703.125 559.891 l
cl
gsave
0.000 0.500 0.000 setrgbcolor
fill
grestore
stroke
grestore
gsave
1116 577.4 180 72.18 clipbox
710.1 72.18 m
717.075 72.18 l
717.075 578.428 l
710.1 578.428 l
cl
gsave
0.000 0.500 0.000 setrgbcolor
fill
grestore
stroke
grestore
gsave
1116 577.4 180 72.18 clipbox
717.075 72.18 m
724.05 72.18 l
724.05 601.506 l
717.075 601.506 l
cl
gsave
0.000 0.500 0.000 setrgbcolor
fill
grestore
stroke
grestore
gsave
1116 577.4 180 72.18 clipbox
724.05 72.18 m
731.025 72.18 l
731.025 627.35 l
724.05 627.35 l
cl
gsave
0.000 0.500 0.000 setrgbcolor
fill
grestore
stroke
grestore
gsave
1116 577.4 180 72.18 clipbox
731.025 72.18 m
738 72.18 l
738 642.115 l
731.025 642.115 l
cl
gsave
0.000 0.500 0.000 setrgbcolor
fill
grestore
stroke
grestore
gsave
1116 577.4 180 72.18 clipbox
738 72.18 m
744.975 72.18 l
744.975 640.791 l
738 640.791 l
cl
gsave
0.000 0.500 0.000 setrgbcolor
fill
grestore
stroke
grestore
gsave
1116 577.4 180 72.18 clipbox
744.975 72.18 m
751.95 72.18 l
751.95 632.277 l
744.975 632.277 l
cl
gsave
0.000 0.500 0.000 setrgbcolor
fill
grestore
stroke
grestore
gsave
1116 577.4 180 72.18 clipbox
751.95 72.18 m
758.925 72.18 l
758.925 607.204 l
751.95 607.204 l
cl
gsave
0.000 0.500 0.000 setrgbcolor
fill
grestore
stroke
grestore
gsave
1116 577.4 180 72.18 clipbox
758.925 72.18 m
765.9 72.18 l
765.9 578.126 l
758.925 578.126 l
cl
gsave
0.000 0.500 0.000 setrgbcolor
fill
grestore
stroke
grestore
gsave
1116 577.4 180 72.18 clipbox
765.9 72.18 m
772.875 72.18 l
772.875 564.852 l
765.9 564.852 l
cl
gsave
0.000 0.500 0.000 setrgbcolor
fill
grestore
stroke
grestore
gsave
1116 577.4 180 72.18 clipbox
772.875 72.18 m
779.85 72.18 l
779.85 542.796 l
772.875 542.796 l
cl
gsave
0.000 0.500 0.000 setrgbcolor
fill
grestore
stroke
grestore
gsave
1116 577.4 180 72.18 clipbox
779.85 72.18 m
786.825 72.18 l
786.825 505.506 l
779.85 505.506 l
cl
gsave
0.000 0.500 0.000 setrgbcolor
fill
grestore
stroke
grestore
gsave
1116 577.4 180 72.18 clipbox
786.825 72.18 m
793.8 72.18 l
793.8 459.902 l
786.825 459.902 l
cl
gsave
0.000 0.500 0.000 setrgbcolor
fill
grestore
stroke
grestore
gsave
1116 577.4 180 72.18 clipbox
793.8 72.18 m
800.775 72.18 l
800.775 435.332 l
793.8 435.332 l
cl
gsave
0.000 0.500 0.000 setrgbcolor
fill
grestore
stroke
grestore
gsave
1116 577.4 180 72.18 clipbox
800.775 72.18 m
807.75 72.18 l
807.75 409.572 l
800.775 409.572 l
cl
gsave
0.000 0.500 0.000 setrgbcolor
fill
grestore
stroke
grestore
gsave
1116 577.4 180 72.18 clipbox
807.75 72.18 m
814.725 72.18 l
814.725 372.734 l
807.75 372.734 l
cl
gsave
0.000 0.500 0.000 setrgbcolor
fill
grestore
stroke
grestore
gsave
1116 577.4 180 72.18 clipbox
814.725 72.18 m
821.7 72.18 l
821.7 349.17 l
814.725 349.17 l
cl
gsave
0.000 0.500 0.000 setrgbcolor
fill
grestore
stroke
grestore
gsave
1116 577.4 180 72.18 clipbox
821.7 72.18 m
828.675 72.18 l
828.675 326.695 l
821.7 326.695 l
cl
gsave
0.000 0.500 0.000 setrgbcolor
fill
grestore
stroke
grestore
gsave
1116 577.4 180 72.18 clipbox
828.675 72.18 m
835.65 72.18 l
835.65 303.382 l
828.675 303.382 l
cl
gsave
0.000 0.500 0.000 setrgbcolor
fill
grestore
stroke
grestore
gsave
1116 577.4 180 72.18 clipbox
835.65 72.18 m
842.625 72.18 l
842.625 281.812 l
835.65 281.812 l
cl
gsave
0.000 0.500 0.000 setrgbcolor
fill
grestore
stroke
grestore
gsave
1116 577.4 180 72.18 clipbox
842.625 72.18 m
849.6 72.18 l
849.6 269.611 l
842.625 269.611 l
cl
gsave
0.000 0.500 0.000 setrgbcolor
fill
grestore
stroke
grestore
gsave
1116 577.4 180 72.18 clipbox
849.6 72.18 m
856.575 72.18 l
856.575 260.427 l
849.6 260.427 l
cl
gsave
0.000 0.500 0.000 setrgbcolor
fill
grestore
stroke
grestore
gsave
1116 577.4 180 72.18 clipbox
856.575 72.18 m
863.55 72.18 l
863.55 251.728 l
856.575 251.728 l
cl
gsave
0.000 0.500 0.000 setrgbcolor
fill
grestore
stroke
grestore
gsave
1116 577.4 180 72.18 clipbox
863.55 72.18 m
870.525 72.18 l
870.525 236.276 l
863.55 236.276 l
cl
gsave
0.000 0.500 0.000 setrgbcolor
fill
grestore
stroke
grestore
gsave
1116 577.4 180 72.18 clipbox
870.525 72.18 m
877.5 72.18 l
877.5 228.935 l
870.525 228.935 l
cl
gsave
0.000 0.500 0.000 setrgbcolor
fill
grestore
stroke
grestore
gsave
1116 577.4 180 72.18 clipbox
877.5 72.18 m
884.475 72.18 l
884.475 222.784 l
877.5 222.784 l
cl
gsave
0.000 0.500 0.000 setrgbcolor
fill
grestore
stroke
grestore
gsave
1116 577.4 180 72.18 clipbox
884.475 72.18 m
891.45 72.18 l
891.45 206.929 l
884.475 206.929 l
cl
gsave
0.000 0.500 0.000 setrgbcolor
fill
grestore
stroke
grestore
gsave
1116 577.4 180 72.18 clipbox
891.45 72.18 m
898.425 72.18 l
898.425 195.432 l
891.45 195.432 l
cl
gsave
0.000 0.500 0.000 setrgbcolor
fill
grestore
stroke
grestore
gsave
1116 577.4 180 72.18 clipbox
898.425 72.18 m
905.4 72.18 l
905.4 188.208 l
898.425 188.208 l
cl
gsave
0.000 0.500 0.000 setrgbcolor
fill
grestore
stroke
grestore
gsave
1116 577.4 180 72.18 clipbox
905.4 72.18 m
912.375 72.18 l
912.375 177.767 l
905.4 177.767 l
cl
gsave
0.000 0.500 0.000 setrgbcolor
fill
grestore
stroke
grestore
gsave
1116 577.4 180 72.18 clipbox
912.375 72.18 m
919.35 72.18 l
919.35 168.817 l
912.375 168.817 l
cl
gsave
0.000 0.500 0.000 setrgbcolor
fill
grestore
stroke
grestore
gsave
1116 577.4 180 72.18 clipbox
919.35 72.18 m
926.325 72.18 l
926.325 160.689 l
919.35 160.689 l
cl
gsave
0.000 0.500 0.000 setrgbcolor
fill
grestore
stroke
grestore
gsave
1116 577.4 180 72.18 clipbox
926.325 72.18 m
933.3 72.18 l
933.3 151.337 l
926.325 151.337 l
cl
gsave
0.000 0.500 0.000 setrgbcolor
fill
grestore
stroke
grestore
gsave
1116 577.4 180 72.18 clipbox
933.3 72.18 m
940.275 72.18 l
940.275 143.275 l
933.3 143.275 l
cl
gsave
0.000 0.500 0.000 setrgbcolor
fill
grestore
stroke
grestore
gsave
1116 577.4 180 72.18 clipbox
940.275 72.18 m
947.25 72.18 l
947.25 136.622 l
940.275 136.622 l
cl
gsave
0.000 0.500 0.000 setrgbcolor
fill
grestore
stroke
grestore
gsave
1116 577.4 180 72.18 clipbox
947.25 72.18 m
954.225 72.18 l
954.225 126.197 l
947.25 126.197 l
cl
gsave
0.000 0.500 0.000 setrgbcolor
fill
grestore
stroke
grestore
gsave
1116 577.4 180 72.18 clipbox
954.225 72.18 m
961.2 72.18 l
961.2 121.32 l
954.225 121.32 l
cl
gsave
0.000 0.500 0.000 setrgbcolor
fill
grestore
stroke
grestore
gsave
1116 577.4 180 72.18 clipbox
961.2 72.18 m
968.175 72.18 l
968.175 117.147 l
961.2 117.147 l
cl
gsave
0.000 0.500 0.000 setrgbcolor
fill
grestore
stroke
grestore
gsave
1116 577.4 180 72.18 clipbox
968.175 72.18 m
975.15 72.18 l
975.15 112.538 l
968.175 112.538 l
cl
gsave
0.000 0.500 0.000 setrgbcolor
fill
grestore
stroke
grestore
gsave
1116 577.4 180 72.18 clipbox
975.15 72.18 m
982.125 72.18 l
982.125 108.381 l
975.15 108.381 l
cl
gsave
0.000 0.500 0.000 setrgbcolor
fill
grestore
stroke
grestore
gsave
1116 577.4 180 72.18 clipbox
982.125 72.18 m
989.1 72.18 l
989.1 105.465 l
982.125 105.465 l
cl
gsave
0.000 0.500 0.000 setrgbcolor
fill
grestore
stroke
grestore
gsave
1116 577.4 180 72.18 clipbox
989.1 72.18 m
996.075 72.18 l
996.075 101.61 l
989.1 101.61 l
cl
gsave
0.000 0.500 0.000 setrgbcolor
fill
grestore
stroke
grestore
gsave
1116 577.4 180 72.18 clipbox
996.075 72.18 m
1003.05 72.18 l
1003.05 95.4762 l
996.075 95.4762 l
cl
gsave
0.000 0.500 0.000 setrgbcolor
fill
grestore
stroke
grestore
gsave
1116 577.4 180 72.18 clipbox
1003.05 72.18 m
1010.03 72.18 l
1010.03 92.7443 l
1003.05 92.7443 l
cl
gsave
0.000 0.500 0.000 setrgbcolor
fill
grestore
stroke
grestore
gsave
1116 577.4 180 72.18 clipbox
1010.03 72.18 m
1017 72.18 l
1017 90.0125 l
1010.03 90.0125 l
cl
gsave
0.000 0.500 0.000 setrgbcolor
fill
grestore
stroke
grestore
gsave
1116 577.4 180 72.18 clipbox
1017 72.18 m
1023.98 72.18 l
1023.98 87.4147 l
1017 87.4147 l
cl
gsave
0.000 0.500 0.000 setrgbcolor
fill
grestore
stroke
grestore
gsave
1116 577.4 180 72.18 clipbox
1023.98 72.18 m
1030.95 72.18 l
1030.95 89.208 l
1023.98 89.208 l
cl
gsave
0.000 0.500 0.000 setrgbcolor
fill
grestore
stroke
grestore
gsave
1116 577.4 180 72.18 clipbox
1030.95 72.18 m
1037.92 72.18 l
1037.92 87.3812 l
1030.95 87.3812 l
cl
gsave
0.000 0.500 0.000 setrgbcolor
fill
grestore
stroke
grestore
gsave
1116 577.4 180 72.18 clipbox
1037.93 72.18 m
1044.9 72.18 l
1044.9 86.4426 l
1037.93 86.4426 l
cl
gsave
0.000 0.500 0.000 setrgbcolor
fill
grestore
stroke
grestore
gsave
1116 577.4 180 72.18 clipbox
1044.9 72.18 m
1051.88 72.18 l
1051.88 84.4147 l
1044.9 84.4147 l
cl
gsave
0.000 0.500 0.000 setrgbcolor
fill
grestore
stroke
grestore
gsave
1116 577.4 180 72.18 clipbox
1051.88 72.18 m
1058.85 72.18 l
1058.85 85.4873 l
1051.88 85.4873 l
cl
gsave
0.000 0.500 0.000 setrgbcolor
fill
grestore
stroke
grestore
gsave
1116 577.4 180 72.18 clipbox
1058.85 72.18 m
1065.83 72.18 l
1065.83 84.9678 l
1058.85 84.9678 l
cl
gsave
0.000 0.500 0.000 setrgbcolor
fill
grestore
stroke
grestore
gsave
1116 577.4 180 72.18 clipbox
1065.83 72.18 m
1072.8 72.18 l
1072.8 82.9566 l
1065.83 82.9566 l
cl
gsave
0.000 0.500 0.000 setrgbcolor
fill
grestore
stroke
grestore
gsave
1116 577.4 180 72.18 clipbox
1072.8 72.18 m
1079.78 72.18 l
1079.78 80.4426 l
1072.8 80.4426 l
cl
gsave
0.000 0.500 0.000 setrgbcolor
fill
grestore
stroke
grestore
gsave
1116 577.4 180 72.18 clipbox
1079.78 72.18 m
1086.75 72.18 l
1086.75 79.4538 l
1079.78 79.4538 l
cl
gsave
0.000 0.500 0.000 setrgbcolor
fill
grestore
stroke
grestore
gsave
1116 577.4 180 72.18 clipbox
1086.75 72.18 m
1093.73 72.18 l
1093.73 78.5487 l
1086.75 78.5487 l
cl
gsave
0.000 0.500 0.000 setrgbcolor
fill
grestore
stroke
grestore
gsave
1116 577.4 180 72.18 clipbox
1093.73 72.18 m
1100.7 72.18 l
1100.7 76.2862 l
1093.73 76.2862 l
cl
gsave
0.000 0.500 0.000 setrgbcolor
fill
grestore
stroke
grestore
gsave
1116 577.4 180 72.18 clipbox
1100.7 72.18 m
1107.67 72.18 l
1107.67 75.2303 l
1100.7 75.2303 l
cl
gsave
0.000 0.500 0.000 setrgbcolor
fill
grestore
stroke
grestore
gsave
1116 577.4 180 72.18 clipbox
1107.68 72.18 m
1114.65 72.18 l
1114.65 74.8448 l
1107.68 74.8448 l
cl
gsave
0.000 0.500 0.000 setrgbcolor
fill
grestore
stroke
grestore
gsave
1116 577.4 180 72.18 clipbox
1114.65 72.18 m
1121.62 72.18 l
1121.62 75.1465 l
1114.65 75.1465 l
cl
gsave
0.000 0.500 0.000 setrgbcolor
fill
grestore
stroke
grestore
gsave
1116 577.4 180 72.18 clipbox
1121.62 72.18 m
1128.6 72.18 l
1128.6 75.0459 l
1121.62 75.0459 l
cl
gsave
0.000 0.500 0.000 setrgbcolor
fill
grestore
stroke
grestore
gsave
1116 577.4 180 72.18 clipbox
1128.6 72.18 m
1135.58 72.18 l
1135.58 75.2135 l
1128.6 75.2135 l
cl
gsave
0.000 0.500 0.000 setrgbcolor
fill
grestore
stroke
grestore
gsave
1116 577.4 180 72.18 clipbox
1135.58 72.18 m
1142.55 72.18 l
1142.55 75.8169 l
1135.58 75.8169 l
cl
gsave
0.000 0.500 0.000 setrgbcolor
fill
grestore
stroke
grestore
gsave
1116 577.4 180 72.18 clipbox
1142.55 72.18 m
1149.53 72.18 l
1149.53 76.1018 l
1142.55 76.1018 l
cl
gsave
0.000 0.500 0.000 setrgbcolor
fill
grestore
stroke
grestore
gsave
1116 577.4 180 72.18 clipbox
1149.53 72.18 m
1156.5 72.18 l
1156.5 76.1018 l
1149.53 76.1018 l
cl
gsave
0.000 0.500 0.000 setrgbcolor
fill
grestore
stroke
grestore
gsave
1116 577.4 180 72.18 clipbox
1156.5 72.18 m
1163.48 72.18 l
1163.48 76.4873 l
1156.5 76.4873 l
cl
gsave
0.000 0.500 0.000 setrgbcolor
fill
grestore
stroke
grestore
gsave
1116 577.4 180 72.18 clipbox
1163.48 72.18 m
1170.45 72.18 l
1170.45 75.8504 l
1163.48 75.8504 l
cl
gsave
0.000 0.500 0.000 setrgbcolor
fill
grestore
stroke
grestore
gsave
1116 577.4 180 72.18 clipbox
1170.45 72.18 m
1177.42 72.18 l
1177.42 75.4817 l
1170.45 75.4817 l
cl
gsave
0.000 0.500 0.000 setrgbcolor
fill
grestore
stroke
grestore
gsave
1116 577.4 180 72.18 clipbox
1177.43 72.18 m
1184.4 72.18 l
1184.4 74.6437 l
1177.43 74.6437 l
cl
gsave
0.000 0.500 0.000 setrgbcolor
fill
grestore
stroke
grestore
gsave
1116 577.4 180 72.18 clipbox
1184.4 72.18 m
1191.38 72.18 l
1191.38 74.9957 l
1184.4 74.9957 l
cl
gsave
0.000 0.500 0.000 setrgbcolor
fill
grestore
stroke
grestore
gsave
1116 577.4 180 72.18 clipbox
1191.38 72.18 m
1198.35 72.18 l
1198.35 76.504 l
1191.38 76.504 l
cl
gsave
0.000 0.500 0.000 setrgbcolor
fill
grestore
stroke
grestore
gsave
1116 577.4 180 72.18 clipbox
1198.35 72.18 m
1205.33 72.18 l
1205.33 76.6549 l
1198.35 76.6549 l
cl
gsave
0.000 0.500 0.000 setrgbcolor
fill
grestore
stroke
grestore
gsave
1116 577.4 180 72.18 clipbox
1205.33 72.18 m
1212.3 72.18 l
1212.3 75.4817 l
1205.33 75.4817 l
cl
gsave
0.000 0.500 0.000 setrgbcolor
fill
grestore
stroke
grestore
gsave
1116 577.4 180 72.18 clipbox
1212.3 72.18 m
1219.28 72.18 l
1219.28 74.5264 l
1212.3 74.5264 l
cl
gsave
0.000 0.500 0.000 setrgbcolor
fill
grestore
stroke
grestore
gsave
1116 577.4 180 72.18 clipbox
1219.28 72.18 m
1226.25 72.18 l
1226.25 74.2079 l
1219.28 74.2079 l
cl
gsave
0.000 0.500 0.000 setrgbcolor
fill
grestore
stroke
grestore
gsave
1116 577.4 180 72.18 clipbox
1226.25 72.18 m
1233.23 72.18 l
1233.23 73.4705 l
1226.25 73.4705 l
cl
gsave
0.000 0.500 0.000 setrgbcolor
fill
grestore
stroke
grestore
gsave
1116 577.4 180 72.18 clipbox
1233.23 72.18 m
1240.2 72.18 l
1240.2 73.1521 l
1233.23 73.1521 l
cl
gsave
0.000 0.500 0.000 setrgbcolor
fill
grestore
stroke
grestore
gsave
1116 577.4 180 72.18 clipbox
1240.2 72.18 m
1247.17 72.18 l
1247.17 72.8672 l
1240.2 72.8672 l
cl
gsave
0.000 0.500 0.000 setrgbcolor
fill
grestore
stroke
grestore
gsave
1116 577.4 180 72.18 clipbox
1247.18 72.18 m
1254.15 72.18 l
1254.15 72.5822 l
1247.18 72.5822 l
cl
gsave
0.000 0.500 0.000 setrgbcolor
fill
grestore
stroke
grestore
gsave
1116 577.4 180 72.18 clipbox
1254.15 72.18 m
1261.12 72.18 l
1261.12 72.1968 l
1254.15 72.1968 l
cl
gsave
0.000 0.500 0.000 setrgbcolor
fill
grestore
stroke
grestore
gsave
1116 577.4 180 72.18 clipbox
1261.12 72.18 m
1268.1 72.18 l
1268.1 72.18 l
1261.12 72.18 l
cl
gsave
0.000 0.500 0.000 setrgbcolor
fill
grestore
stroke
grestore
gsave
1116 577.4 180 72.18 clipbox
1268.1 72.18 m
1275.08 72.18 l
1275.08 72.18 l
1268.1 72.18 l
cl
gsave
0.000 0.500 0.000 setrgbcolor
fill
grestore
stroke
grestore
gsave
1116 577.4 180 72.18 clipbox
1275.08 72.18 m
1282.05 72.18 l
1282.05 72.18 l
1275.08 72.18 l
cl
gsave
0.000 0.500 0.000 setrgbcolor
fill
grestore
stroke
grestore
gsave
1116 577.4 180 72.18 clipbox
1282.05 72.18 m
1289.03 72.18 l
1289.03 72.18 l
1282.05 72.18 l
cl
gsave
0.000 0.500 0.000 setrgbcolor
fill
grestore
stroke
grestore
gsave
1116 577.4 180 72.18 clipbox
1289.03 72.18 m
1296 72.18 l
1296 72.18 l
1289.03 72.18 l
cl
gsave
0.000 0.500 0.000 setrgbcolor
fill
grestore
stroke
grestore
1 setlinejoin
2 setlinecap
0.000 0.000 1.000 setrgbcolor
gsave
1116 577.4 180 72.18 clipbox
180 72.5323 m
228.825 72.8895 l
263.7 73.3498 l
291.6 73.9252 l
312.525 74.5357 l
333.45 75.3599 l
354.375 76.4723 l
368.325 77.4226 l
382.275 78.5833 l
396.225 80.0008 l
410.175 81.7321 l
424.125 83.8465 l
431.1 85.0731 l
438.075 86.4286 l
445.05 87.9265 l
452.025 89.5817 l
459 91.4107 l
465.975 93.4316 l
472.95 95.6646 l
479.925 98.1316 l
486.9 100.857 l
493.875 103.868 l
500.85 107.193 l
507.825 110.866 l
514.8 114.922 l
521.775 119.4 l
528.75 124.343 l
535.725 129.797 l
542.7 135.814 l
549.675 142.449 l
556.65 149.763 l
563.625 157.818 l
570.6 166.685 l
577.575 176.435 l
584.55 187.147 l
591.525 198.897 l
598.5 211.768 l
605.475 225.837 l
612.45 241.178 l
619.425 257.858 l
626.4 275.929 l
633.375 295.422 l
640.35 316.337 l
647.325 338.633 l
654.3 362.217 l
661.275 386.924 l
668.25 412.51 l
689.175 490.575 l
696.15 515.176 l
703.125 537.899 l
710.1 557.954 l
717.075 574.56 l
724.05 587.006 l
731.025 594.722 l
738 597.337 l
744.975 594.722 l
751.95 587.006 l
758.925 574.56 l
765.9 557.954 l
772.875 537.899 l
779.85 515.176 l
786.825 490.575 l
793.8 464.84 l
807.75 412.51 l
814.725 386.924 l
821.7 362.217 l
828.675 338.633 l
835.65 316.337 l
842.625 295.422 l
849.6 275.929 l
856.575 257.858 l
863.55 241.178 l
870.525 225.837 l
877.5 211.768 l
884.475 198.897 l
891.45 187.147 l
898.425 176.435 l
905.4 166.685 l
912.375 157.818 l
919.35 149.763 l
926.325 142.449 l
933.3 135.814 l
940.275 129.797 l
947.25 124.343 l
954.225 119.4 l
961.2 114.922 l
968.175 110.866 l
975.15 107.193 l
982.125 103.868 l
989.1 100.857 l
996.075 98.1316 l
1003.05 95.6646 l
1010.02 93.4316 l
1017 91.4107 l
1023.97 89.5817 l
1030.95 87.9265 l
1037.92 86.4286 l
1044.9 85.0731 l
1051.87 83.8465 l
1065.82 81.7321 l
1079.77 80.0008 l
1093.72 78.5833 l
1107.67 77.4226 l
1121.62 76.4723 l
1135.57 75.6943 l
1156.5 74.7835 l
1177.42 74.1087 l
1205.32 73.4728 l
1240.2 72.9641 l
1282.05 72.6104 l
1289.02 72.5694 l
1289.02 72.5694 l
stroke
grestore
0 setlinejoin
0.000 setgray
gsave
180 649.62 m
1296 649.62 l
stroke
grestore
gsave
1296 72.18 m
1296 649.62 l
stroke
grestore
gsave
180 72.18 m
1296 72.18 l
stroke
grestore
gsave
180 72.18 m
180 649.62 l
stroke
grestore
0.500 setlinewidth
1 setlinejoin
0 setlinecap
gsave
/o {
gsave
newpath
translate
0.5 setlinewidth
1 setlinejoin
0 setlinecap
0 0 m
0 4 l
gsave
0.000 setgray
fill
grestore
stroke
grestore
} bind def
180 72.18 o
grestore
gsave
/o {
gsave
newpath
translate
0.5 setlinewidth
1 setlinejoin
0 setlinecap
0 0 m
0 -4 l
gsave
0.000 setgray
fill
grestore
stroke
grestore
} bind def
180 649.62 o
grestore
/BitstreamVeraSans-Roman findfont
12.000 scalefont
setfont
gsave
172.195312 59.055000 translate
0.000000 rotate
0.000000 0.000000 m /minus glyphshow
10.054688 0.000000 m /eight glyphshow
grestore
gsave
/o {
gsave
newpath
translate
0.5 setlinewidth
1 setlinejoin
0 setlinecap
0 0 m
0 4 l
gsave
0.000 setgray
fill
grestore
stroke
grestore
} bind def
319.5 72.18 o
grestore
gsave
/o {
gsave
newpath
translate
0.5 setlinewidth
1 setlinejoin
0 setlinecap
0 0 m
0 -4 l
gsave
0.000 setgray
fill
grestore
stroke
grestore
} bind def
319.5 649.62 o
grestore
gsave
311.664062 59.055000 translate
0.000000 rotate
0.000000 0.000000 m /minus glyphshow
10.054688 0.000000 m /six glyphshow
grestore
gsave
/o {
gsave
newpath
translate
0.5 setlinewidth
1 setlinejoin
0 setlinecap
0 0 m
0 4 l
gsave
0.000 setgray
fill
grestore
stroke
grestore
} bind def
459 72.18 o
grestore
gsave
/o {
gsave
newpath
translate
0.5 setlinewidth
1 setlinejoin
0 setlinecap
0 0 m
0 -4 l
gsave
0.000 setgray
fill
grestore
stroke
grestore
} bind def
459 649.62 o
grestore
gsave
451.117188 59.055000 translate
0.000000 rotate
0.000000 0.000000 m /minus glyphshow
10.054688 0.000000 m /four glyphshow
grestore
gsave
/o {
gsave
newpath
translate
0.5 setlinewidth
1 setlinejoin
0 setlinecap
0 0 m
0 4 l
gsave
0.000 setgray
fill
grestore
stroke
grestore
} bind def
598.5 72.18 o
grestore
gsave
/o {
gsave
newpath
translate
0.5 setlinewidth
1 setlinejoin
0 setlinecap
0 0 m
0 -4 l
gsave
0.000 setgray
fill
grestore
stroke
grestore
} bind def
598.5 649.62 o
grestore
gsave
590.882812 59.055000 translate
0.000000 rotate
0.000000 0.000000 m /minus glyphshow
10.054688 0.000000 m /two glyphshow
grestore
gsave
/o {
gsave
newpath
translate
0.5 setlinewidth
1 setlinejoin
0 setlinecap
0 0 m
0 4 l
gsave
0.000 setgray
fill
grestore
stroke
grestore
} bind def
738 72.18 o
grestore
gsave
/o {
gsave
newpath
translate
0.5 setlinewidth
1 setlinejoin
0 setlinecap
0 0 m
0 -4 l
gsave
0.000 setgray
fill
grestore
stroke
grestore
} bind def
738 649.62 o
grestore
gsave
734.976562 59.055000 translate
0.000000 rotate
0.000000 0.000000 m /zero glyphshow
grestore
gsave
/o {
gsave
newpath
translate
0.5 setlinewidth
1 setlinejoin
0 setlinecap
0 0 m
0 4 l
gsave
0.000 setgray
fill
grestore
stroke
grestore
} bind def
877.5 72.18 o
grestore
gsave
/o {
gsave
newpath
translate
0.5 setlinewidth
1 setlinejoin
0 setlinecap
0 0 m
0 -4 l
gsave
0.000 setgray
fill
grestore
stroke
grestore
} bind def
877.5 649.62 o
grestore
gsave
874.718750 59.055000 translate
0.000000 rotate
0.000000 0.000000 m /two glyphshow
grestore
gsave
/o {
gsave
newpath
translate
0.5 setlinewidth
1 setlinejoin
0 setlinecap
0 0 m
0 4 l
gsave
0.000 setgray
fill
grestore
stroke
grestore
} bind def
1017 72.18 o
grestore
gsave
/o {
gsave
newpath
translate
0.5 setlinewidth
1 setlinejoin
0 setlinecap
0 0 m
0 -4 l
gsave
0.000 setgray
fill
grestore
stroke
grestore
} bind def
1017 649.62 o
grestore
gsave
1013.812500 59.055000 translate
0.000000 rotate
0.000000 0.000000 m /four glyphshow
grestore
gsave
/o {
gsave
newpath
translate
0.5 setlinewidth
1 setlinejoin
0 setlinecap
0 0 m
0 4 l
gsave
0.000 setgray
fill
grestore
stroke
grestore
} bind def
1156.5 72.18 o
grestore
gsave
/o {
gsave
newpath
translate
0.5 setlinewidth
1 setlinejoin
0 setlinecap
0 0 m
0 -4 l
gsave
0.000 setgray
fill
grestore
stroke
grestore
} bind def
1156.5 649.62 o
grestore
gsave
1153.484375 59.055000 translate
0.000000 rotate
0.000000 0.000000 m /six glyphshow
grestore
gsave
/o {
gsave
newpath
translate
0.5 setlinewidth
1 setlinejoin
0 setlinecap
0 0 m
0 4 l
gsave
0.000 setgray
fill
grestore
stroke
grestore
} bind def
1296 72.18 o
grestore
gsave
/o {
gsave
newpath
translate
0.5 setlinewidth
1 setlinejoin
0 setlinecap
0 0 m
0 -4 l
gsave
0.000 setgray
fill
grestore
stroke
grestore
} bind def
1296 649.62 o
grestore
gsave
1293.000000 59.055000 translate
0.000000 rotate
0.000000 0.000000 m /eight glyphshow
grestore
gsave
734.000000 40.914375 translate
0.000000 rotate
/Cmmi10 findfont
14.0 scalefont
setfont
0.000000 0.812500 moveto
/x glyphshow


grestore
gsave
/o {
gsave
newpath
translate
0.5 setlinewidth
1 setlinejoin
0 setlinecap
0 0 m
4 0 l
gsave
0.000 setgray
fill
grestore
stroke
grestore
} bind def
180 72.18 o
grestore
gsave
/o {
gsave
newpath
translate
0.5 setlinewidth
1 setlinejoin
0 setlinecap
0 0 m
-4 0 l
gsave
0.000 setgray
fill
grestore
stroke
grestore
} bind def
1296 72.18 o
grestore
gsave
150.859375 68.867500 translate
0.000000 rotate
0.000000 0.000000 m /zero glyphshow
7.634766 0.000000 m /period glyphshow
11.449219 0.000000 m /zero glyphshow
19.083984 0.000000 m /zero glyphshow
grestore
gsave
/o {
gsave
newpath
translate
0.5 setlinewidth
1 setlinejoin
0 setlinecap
0 0 m
4 0 l
gsave
0.000 setgray
fill
grestore
stroke
grestore
} bind def
180 154.671 o
grestore
gsave
/o {
gsave
newpath
translate
0.5 setlinewidth
1 setlinejoin
0 setlinecap
0 0 m
-4 0 l
gsave
0.000 setgray
fill
grestore
stroke
grestore
} bind def
1296 154.671 o
grestore
gsave
151.109375 151.358929 translate
0.000000 rotate
0.000000 0.000000 m /zero glyphshow
7.634766 0.000000 m /period glyphshow
11.449219 0.000000 m /zero glyphshow
19.083984 0.000000 m /five glyphshow
grestore
gsave
/o {
gsave
newpath
translate
0.5 setlinewidth
1 setlinejoin
0 setlinecap
0 0 m
4 0 l
gsave
0.000 setgray
fill
grestore
stroke
grestore
} bind def
180 237.163 o
grestore
gsave
/o {
gsave
newpath
translate
0.5 setlinewidth
1 setlinejoin
0 setlinecap
0 0 m
-4 0 l
gsave
0.000 setgray
fill
grestore
stroke
grestore
} bind def
1296 237.163 o
grestore
gsave
150.859375 233.850357 translate
0.000000 rotate
0.000000 0.000000 m /zero glyphshow
7.634766 0.000000 m /period glyphshow
11.449219 0.000000 m /one glyphshow
19.083984 0.000000 m /zero glyphshow
grestore
gsave
/o {
gsave
newpath
translate
0.5 setlinewidth
1 setlinejoin
0 setlinecap
0 0 m
4 0 l
gsave
0.000 setgray
fill
grestore
stroke
grestore
} bind def
180 319.654 o
grestore
gsave
/o {
gsave
newpath
translate
0.5 setlinewidth
1 setlinejoin
0 setlinecap
0 0 m
-4 0 l
gsave
0.000 setgray
fill
grestore
stroke
grestore
} bind def
1296 319.654 o
grestore
gsave
151.109375 316.341786 translate
0.000000 rotate
0.000000 0.000000 m /zero glyphshow
7.634766 0.000000 m /period glyphshow
11.449219 0.000000 m /one glyphshow
19.083984 0.000000 m /five glyphshow
grestore
gsave
/o {
gsave
newpath
translate
0.5 setlinewidth
1 setlinejoin
0 setlinecap
0 0 m
4 0 l
gsave
0.000 setgray
fill
grestore
stroke
grestore
} bind def
180 402.146 o
grestore
gsave
/o {
gsave
newpath
translate
0.5 setlinewidth
1 setlinejoin
0 setlinecap
0 0 m
-4 0 l
gsave
0.000 setgray
fill
grestore
stroke
grestore
} bind def
1296 402.146 o
grestore
gsave
150.859375 398.833214 translate
0.000000 rotate
0.000000 0.000000 m /zero glyphshow
7.634766 0.000000 m /period glyphshow
11.449219 0.000000 m /two glyphshow
19.083984 0.000000 m /zero glyphshow
grestore
gsave
/o {
gsave
newpath
translate
0.5 setlinewidth
1 setlinejoin
0 setlinecap
0 0 m
4 0 l
gsave
0.000 setgray
fill
grestore
stroke
grestore
} bind def
180 484.637 o
grestore
gsave
/o {
gsave
newpath
translate
0.5 setlinewidth
1 setlinejoin
0 setlinecap
0 0 m
-4 0 l
gsave
0.000 setgray
fill
grestore
stroke
grestore
} bind def
1296 484.637 o
grestore
gsave
151.109375 481.324643 translate
0.000000 rotate
0.000000 0.000000 m /zero glyphshow
7.634766 0.000000 m /period glyphshow
11.449219 0.000000 m /two glyphshow
19.083984 0.000000 m /five glyphshow
grestore
gsave
/o {
gsave
newpath
translate
0.5 setlinewidth
1 setlinejoin
0 setlinecap
0 0 m
4 0 l
gsave
0.000 setgray
fill
grestore
stroke
grestore
} bind def
180 567.129 o
grestore
gsave
/o {
gsave
newpath
translate
0.5 setlinewidth
1 setlinejoin
0 setlinecap
0 0 m
-4 0 l
gsave
0.000 setgray
fill
grestore
stroke
grestore
} bind def
1296 567.129 o
grestore
gsave
150.859375 563.816071 translate
0.000000 rotate
0.000000 0.000000 m /zero glyphshow
7.634766 0.000000 m /period glyphshow
11.449219 0.000000 m /three glyphshow
19.083984 0.000000 m /zero glyphshow
grestore
gsave
/o {
gsave
newpath
translate
0.5 setlinewidth
1 setlinejoin
0 setlinecap
0 0 m
4 0 l
gsave
0.000 setgray
fill
grestore
stroke
grestore
} bind def
180 649.62 o
grestore
gsave
/o {
gsave
newpath
translate
0.5 setlinewidth
1 setlinejoin
0 setlinecap
0 0 m
-4 0 l
gsave
0.000 setgray
fill
grestore
stroke
grestore
} bind def
1296 649.62 o
grestore
gsave
151.109375 646.307500 translate
0.000000 rotate
0.000000 0.000000 m /zero glyphshow
7.634766 0.000000 m /period glyphshow
11.449219 0.000000 m /three glyphshow
19.083984 0.000000 m /five glyphshow
grestore
gsave
141.859375 342.900000 translate
90.000000 rotate
/Cmr10 findfont
14.0 scalefont
setfont
0.000000 0.500000 moveto
/one glyphshow

/Cmmi10 findfont
14.0 scalefont
setfont
7.000000 0.500000 moveto
/slash glyphshow

/Cmr10 findfont
14.0 scalefont
setfont
14.000000 0.500000 moveto
/c glyphshow

20.213867 0.500000 moveto
/h glyphshow

/Cmmi10 findfont
14.0 scalefont
setfont
27.986328 0.500000 moveto
/x glyphshow


grestore

end
showpage
