%!PS-Adobe-3.0 EPSF-3.0
%%Title: /home/sunoru/Study/computational-physics/homework/c2/2-12_E_t.eps
%%Creator: matplotlib version 1.4.3, http://matplotlib.org/
%%CreationDate: Thu Dec 24 19:34:26 2015
%%Orientation: portrait
%%BoundingBox: -558 -112 1170 904
%%EndComments
%%BeginProlog
/mpldict 8 dict def
mpldict begin
/m { moveto } bind def
/l { lineto } bind def
/r { rlineto } bind def
/c { curveto } bind def
/cl { closepath } bind def
/box {
m
1 index 0 r
0 exch r
neg 0 r
cl
} bind def
/clipbox {
box
clip
newpath
} bind def
%!PS-Adobe-3.0 Resource-Font
%%Title: Bitstream Vera Sans
%%Copyright: Copyright (c) 2003 by Bitstream, Inc. All Rights Reserved.
%%Creator: Converted from TrueType to type 3 by PPR
25 dict begin
/_d{bind def}bind def
/_m{moveto}_d
/_l{lineto}_d
/_cl{closepath eofill}_d
/_c{curveto}_d
/_sc{7 -1 roll{setcachedevice}{pop pop pop pop pop pop}ifelse}_d
/_e{exec}_d
/FontName /BitstreamVeraSans-Roman def
/PaintType 0 def
/FontMatrix[.001 0 0 .001 0 0]def
/FontBBox[-183 -236 1287 928]def
/FontType 3 def
/Encoding [ /space /hyphen /period /zero /one /two /four /six /eight /equal /E /t ] def
/FontInfo 10 dict dup begin
/FamilyName (Bitstream Vera Sans) def
/FullName (Bitstream Vera Sans) def
/Notice (Copyright (c) 2003 by Bitstream, Inc. All Rights Reserved. Bitstream Vera is a trademark of Bitstream, Inc.) def
/Weight (Roman) def
/Version (Release 1.10) def
/ItalicAngle 0.0 def
/isFixedPitch false def
/UnderlinePosition -213 def
/UnderlineThickness 143 def
end readonly def
/CharStrings 12 dict dup begin
/space{318 0 0 0 0 0 _sc
}_d
/hyphen{361 0 49 234 312 314 _sc
49 314 _m
312 314 _l
312 234 _l
49 234 _l
49 314 _l
_cl}_d
/period{318 0 107 0 210 124 _sc
107 124 _m
210 124 _l
210 0 _l
107 0 _l
107 124 _l
_cl}_d
/zero{636 0 66 -13 570 742 _sc
318 664 _m
267 664 229 639 203 589 _c
177 539 165 464 165 364 _c
165 264 177 189 203 139 _c
229 89 267 64 318 64 _c
369 64 407 89 433 139 _c
458 189 471 264 471 364 _c
471 464 458 539 433 589 _c
407 639 369 664 318 664 _c
318 742 _m
399 742 461 709 505 645 _c
548 580 570 486 570 364 _c
570 241 548 147 505 83 _c
461 19 399 -13 318 -13 _c
236 -13 173 19 130 83 _c
87 147 66 241 66 364 _c
66 486 87 580 130 645 _c
173 709 236 742 318 742 _c
_cl}_d
/one{636 0 110 0 544 729 _sc
124 83 _m
285 83 _l
285 639 _l
110 604 _l
110 694 _l
284 729 _l
383 729 _l
383 83 _l
544 83 _l
544 0 _l
124 0 _l
124 83 _l
_cl}_d
/two{{636 0 73 0 536 742 _sc
192 83 _m
536 83 _l
536 0 _l
73 0 _l
73 83 _l
110 121 161 173 226 239 _c
290 304 331 346 348 365 _c
380 400 402 430 414 455 _c
426 479 433 504 433 528 _c
433 566 419 598 392 622 _c
365 646 330 659 286 659 _c
255 659 222 653 188 643 _c
154 632 117 616 78 594 _c
78 694 _l
118 710 155 722 189 730 _c
223 738 255 742 284 742 _c
}_e{359 742 419 723 464 685 _c
509 647 532 597 532 534 _c
532 504 526 475 515 449 _c
504 422 484 390 454 354 _c
446 344 420 317 376 272 _c
332 227 271 164 192 83 _c
_cl}_e}_d
/four{636 0 49 0 580 729 _sc
378 643 _m
129 254 _l
378 254 _l
378 643 _l
352 729 _m
476 729 _l
476 254 _l
580 254 _l
580 172 _l
476 172 _l
476 0 _l
378 0 _l
378 172 _l
49 172 _l
49 267 _l
352 729 _l
_cl}_d
/six{{636 0 70 -13 573 742 _sc
330 404 _m
286 404 251 388 225 358 _c
199 328 186 286 186 234 _c
186 181 199 139 225 109 _c
251 79 286 64 330 64 _c
374 64 409 79 435 109 _c
461 139 474 181 474 234 _c
474 286 461 328 435 358 _c
409 388 374 404 330 404 _c
526 713 _m
526 623 _l
501 635 476 644 451 650 _c
425 656 400 659 376 659 _c
310 659 260 637 226 593 _c
}_e{192 549 172 482 168 394 _c
187 422 211 444 240 459 _c
269 474 301 482 336 482 _c
409 482 467 459 509 415 _c
551 371 573 310 573 234 _c
573 159 550 99 506 54 _c
462 9 403 -13 330 -13 _c
246 -13 181 19 137 83 _c
92 147 70 241 70 364 _c
70 479 97 571 152 639 _c
206 707 280 742 372 742 _c
396 742 421 739 447 735 _c
472 730 498 723 526 713 _c
_cl}_e}_d
/eight{{636 0 68 -13 568 742 _sc
318 346 _m
271 346 234 333 207 308 _c
180 283 167 249 167 205 _c
167 161 180 126 207 101 _c
234 76 271 64 318 64 _c
364 64 401 76 428 102 _c
455 127 469 161 469 205 _c
469 249 455 283 429 308 _c
402 333 365 346 318 346 _c
219 388 _m
177 398 144 418 120 447 _c
96 476 85 511 85 553 _c
85 611 105 657 147 691 _c
188 725 245 742 318 742 _c
}_e{390 742 447 725 489 691 _c
530 657 551 611 551 553 _c
551 511 539 476 515 447 _c
491 418 459 398 417 388 _c
464 377 501 355 528 323 _c
554 291 568 251 568 205 _c
568 134 546 80 503 43 _c
459 5 398 -13 318 -13 _c
237 -13 175 5 132 43 _c
89 80 68 134 68 205 _c
68 251 81 291 108 323 _c
134 355 171 377 219 388 _c
183 544 _m
183 506 194 476 218 455 _c
}_e{242 434 275 424 318 424 _c
360 424 393 434 417 455 _c
441 476 453 506 453 544 _c
453 582 441 611 417 632 _c
393 653 360 664 318 664 _c
275 664 242 653 218 632 _c
194 611 183 582 183 544 _c
_cl}_e}_d
/equal{838 0 106 172 732 454 _sc
106 454 _m
732 454 _l
732 372 _l
106 372 _l
106 454 _l
106 255 _m
732 255 _l
732 172 _l
106 172 _l
106 255 _l
_cl}_d
/E{632 0 98 0 568 729 _sc
98 729 _m
559 729 _l
559 646 _l
197 646 _l
197 430 _l
544 430 _l
544 347 _l
197 347 _l
197 83 _l
568 83 _l
568 0 _l
98 0 _l
98 729 _l
_cl}_d
/t{392 0 27 0 368 702 _sc
183 702 _m
183 547 _l
368 547 _l
368 477 _l
183 477 _l
183 180 _l
183 135 189 106 201 94 _c
213 81 238 75 276 75 _c
368 75 _l
368 0 _l
276 0 _l
206 0 158 13 132 39 _c
106 65 93 112 93 180 _c
93 477 _l
27 477 _l
27 547 _l
93 547 _l
93 702 _l
183 702 _l
_cl}_d
end readonly def

/BuildGlyph
 {exch begin
 CharStrings exch
 2 copy known not{pop /.notdef}if
 true 3 1 roll get exec
 end}_d

/BuildChar {
 1 index /Encoding get exch get
 1 index /BuildGlyph get exec
}_d

FontName currentdict end definefont pop
end
%%EndProlog
mpldict begin
-558 -112.05 translate
1728 1016.1 0 0 clipbox
gsave
0 0 m
1728 0 l
1728 1016.1 l
0 1016.1 l
cl
1.000 setgray
fill
grestore
gsave
216 101.61 m
1555.2 101.61 l
1555.2 914.49 l
216 914.49 l
cl
1.000 setgray
fill
grestore
1.000 setlinewidth
1 setlinejoin
2 setlinecap
[] 0 setdash
0.000 0.000 1.000 setrgbcolor
gsave
1339 812.9 216 101.6 clipbox
216 151.621 m
228.053 151.742 l
240.106 152.083 l
252.158 152.651 l
264.211 153.458 l
274.925 154.389 l
285.638 155.538 l
296.352 156.926 l
305.726 158.357 l
315.101 160.012 l
324.475 161.918 l
332.51 163.774 l
340.546 165.862 l
348.581 168.209 l
355.277 170.388 l
361.973 172.795 l
368.669 175.455 l
375.365 178.402 l
380.722 180.99 l
386.078 183.807 l
391.435 186.88 l
396.792 190.236 l
402.149 193.911 l
406.166 196.899 l
410.184 200.108 l
414.202 203.559 l
418.219 207.277 l
422.237 211.288 l
426.254 215.625 l
430.272 220.323 l
434.29 225.424 l
438.307 230.973 l
442.325 237.027 l
446.342 243.647 l
449.021 248.411 l
451.699 253.484 l
454.378 258.893 l
457.056 264.669 l
459.734 270.845 l
462.413 277.46 l
465.091 284.557 l
467.77 292.182 l
470.448 300.39 l
473.126 309.242 l
475.805 318.806 l
478.483 329.159 l
481.162 340.389 l
483.84 352.597 l
486.518 365.895 l
489.197 380.412 l
491.875 396.295 l
494.554 413.708 l
497.232 432.84 l
499.91 453.901 l
502.589 477.125 l
505.267 502.768 l
507.946 531.101 l
510.624 562.402 l
513.302 596.926 l
515.981 634.859 l
518.659 676.24 l
521.338 720.812 l
529.373 860.287 l
530.712 879.992 l
532.051 896.514 l
533.39 908.493 l
534.73 914.25 l
536.069 911.778 l
537.408 898.777 l
538.747 872.783 l
540.086 831.432 l
541.426 772.899 l
542.765 696.58 l
544.104 603.942 l
548.122 289.697 l
549.461 208.734 l
550.8 160.118 l
552.139 151.804 l
553.478 185.204 l
554.818 254.737 l
556.157 349.57 l
558.835 563.919 l
560.174 661.948 l
561.514 745.001 l
562.853 810.546 l
564.192 858.483 l
565.531 890.248 l
566.87 908.059 l
568.21 914.382 l
569.549 911.602 l
570.888 901.849 l
572.227 886.933 l
573.566 868.336 l
576.245 824.57 l
584.28 684.762 l
586.958 642.721 l
589.637 604.106 l
592.315 568.925 l
594.994 537.009 l
597.672 508.114 l
600.35 481.965 l
603.029 458.286 l
605.707 436.82 l
608.386 417.326 l
611.064 399.59 l
613.742 383.421 l
616.421 368.647 l
619.099 355.12 l
621.778 342.708 l
624.456 331.293 l
627.134 320.775 l
629.813 311.063 l
632.491 302.077 l
635.17 293.747 l
637.848 286.012 l
640.526 278.815 l
643.205 272.109 l
645.883 265.85 l
648.562 259.998 l
651.24 254.519 l
655.258 246.934 l
659.275 240.026 l
663.293 233.718 l
667.31 227.941 l
671.328 222.639 l
675.346 217.759 l
679.363 213.259 l
683.381 209.101 l
687.398 205.251 l
691.416 201.679 l
695.434 198.361 l
699.451 195.272 l
704.808 191.478 l
710.165 188.014 l
715.522 184.847 l
720.878 181.944 l
726.235 179.279 l
731.592 176.828 l
738.288 174.034 l
744.984 171.51 l
751.68 169.225 l
758.376 167.155 l
766.411 164.925 l
774.446 162.941 l
782.482 161.177 l
791.856 159.368 l
801.23 157.799 l
810.605 156.446 l
821.318 155.138 l
832.032 154.062 l
842.746 153.198 l
854.798 152.463 l
866.851 151.961 l
878.904 151.685 l
890.957 151.627 l
903.01 151.787 l
915.062 152.168 l
927.115 152.777 l
939.168 153.628 l
949.882 154.602 l
960.595 155.797 l
971.309 157.236 l
980.683 158.716 l
990.058 160.426 l
998.093 162.096 l
1006.13 163.974 l
1014.16 166.087 l
1022.2 168.463 l
1028.89 170.668 l
1035.59 173.103 l
1042.29 175.797 l
1047.64 178.159 l
1053 180.726 l
1058.36 183.52 l
1063.71 186.566 l
1069.07 189.893 l
1074.43 193.534 l
1078.44 196.496 l
1082.46 199.675 l
1086.48 203.093 l
1090.5 206.774 l
1094.52 210.745 l
1098.53 215.037 l
1102.55 219.686 l
1106.57 224.731 l
1110.59 230.219 l
1114.6 236.203 l
1118.62 242.745 l
1122.64 249.917 l
1125.32 255.089 l
1128 260.606 l
1130.67 266.499 l
1133.35 272.805 l
1136.03 279.561 l
1138.71 286.813 l
1141.39 294.609 l
1144.07 303.006 l
1146.74 312.066 l
1149.42 321.861 l
1152.1 332.47 l
1154.78 343.986 l
1157.46 356.512 l
1160.14 370.166 l
1162.81 385.081 l
1165.49 401.41 l
1168.17 419.324 l
1170.85 439.018 l
1173.53 460.71 l
1176.21 484.64 l
1178.88 511.07 l
1181.56 540.275 l
1184.24 572.529 l
1186.92 608.072 l
1189.6 647.058 l
1192.28 689.453 l
1196.29 758.426 l
1201.65 851.915 l
1202.99 872.562 l
1204.33 890.48 l
1205.67 904.427 l
1207.01 912.851 l
1208.35 913.873 l
1209.69 905.298 l
1211.03 884.706 l
1212.36 849.65 l
1213.7 798.027 l
1215.04 728.658 l
1216.38 642.088 l
1219.06 433.376 l
1220.4 327.796 l
1221.74 237.305 l
1223.08 174.731 l
1224.42 150.013 l
1225.76 167.315 l
1227.1 223.708 l
1228.44 310.104 l
1232.45 624.968 l
1233.79 714.373 l
1235.13 786.925 l
1236.47 841.677 l
1237.81 879.561 l
1239.15 902.567 l
1240.49 913.11 l
1241.83 913.637 l
1243.17 906.391 l
1244.51 893.309 l
1245.84 876.002 l
1247.18 855.765 l
1249.86 810.349 l
1255.22 715.909 l
1257.9 671.652 l
1260.58 630.634 l
1263.25 593.071 l
1265.93 558.903 l
1268.61 527.933 l
1271.29 499.9 l
1273.97 474.529 l
1276.65 451.549 l
1279.32 430.705 l
1282 411.767 l
1284.68 394.525 l
1287.36 378.797 l
1290.04 364.417 l
1292.72 351.241 l
1295.4 339.143 l
1298.07 328.011 l
1300.75 317.746 l
1303.43 308.262 l
1306.11 299.482 l
1308.79 291.339 l
1311.47 283.773 l
1314.14 276.73 l
1316.82 270.164 l
1319.5 264.032 l
1322.18 258.297 l
1324.86 252.926 l
1328.88 245.484 l
1332.89 238.704 l
1336.91 232.508 l
1340.93 226.832 l
1344.95 221.619 l
1348.96 216.82 l
1352.98 212.392 l
1357 208.298 l
1361.02 204.507 l
1365.03 200.988 l
1369.05 197.718 l
1373.07 194.673 l
1378.43 190.932 l
1383.78 187.516 l
1389.14 184.39 l
1394.5 181.525 l
1399.85 178.893 l
1405.21 176.473 l
1411.91 173.714 l
1418.6 171.221 l
1425.3 168.963 l
1431.99 166.918 l
1440.03 164.713 l
1448.06 162.753 l
1456.1 161.01 l
1465.47 159.223 l
1474.85 157.674 l
1484.22 156.338 l
1494.94 155.049 l
1505.65 153.989 l
1516.36 153.141 l
1528.42 152.421 l
1540.47 151.936 l
1552.52 151.674 l
1555.2 151.645 l
1555.2 151.645 l
stroke
grestore
0.000 0.500 0.000 setrgbcolor
gsave
1339 812.9 216 101.6 clipbox
216 151.621 m
228.187 151.734 l
240.24 152.066 l
252.158 152.617 l
263.676 153.371 l
274.791 154.318 l
285.504 155.452 l
295.816 156.767 l
305.592 158.237 l
314.833 159.849 l
323.672 161.615 l
331.975 163.498 l
339.876 165.515 l
347.376 167.658 l
354.473 169.914 l
361.169 172.27 l
367.597 174.766 l
373.758 177.397 l
379.516 180.093 l
385.141 182.974 l
390.498 185.97 l
395.587 189.071 l
400.408 192.263 l
405.095 195.63 l
409.648 199.177 l
413.934 202.792 l
418.085 206.576 l
422.103 210.532 l
425.987 214.659 l
429.87 219.116 l
433.62 223.765 l
437.236 228.607 l
440.718 233.635 l
444.2 239.063 l
447.548 244.698 l
450.762 250.533 l
453.976 256.829 l
457.056 263.342 l
460.136 270.374 l
463.216 277.983 l
466.163 285.859 l
469.109 294.388 l
471.921 303.203 l
474.733 312.752 l
477.546 323.116 l
480.224 333.832 l
482.903 345.467 l
485.581 358.125 l
488.125 371.207 l
490.67 385.437 l
493.214 400.946 l
495.759 417.881 l
498.169 435.391 l
500.58 454.485 l
502.991 475.337 l
505.401 498.132 l
507.812 523.069 l
510.222 550.348 l
512.633 580.165 l
515.043 612.683 l
517.588 650.043 l
520.266 692.679 l
523.48 747.685 l
530.042 861.389 l
531.649 884.514 l
532.855 898.671 l
533.792 907.07 l
534.462 911.326 l
534.997 913.506 l
535.399 914.343 l
535.667 914.489 l
535.935 914.285 l
536.203 913.712 l
536.604 912.123 l
537.006 909.598 l
537.542 904.665 l
538.212 895.756 l
538.881 883.511 l
539.685 863.988 l
540.488 838.748 l
541.426 801.561 l
542.363 755.693 l
543.434 692.701 l
544.774 599.632 l
546.782 440.862 l
548.791 286.932 l
549.863 221.136 l
550.666 184.33 l
551.336 163.651 l
551.737 156.021 l
552.139 152.128 l
552.273 151.673 l
552.407 151.642 l
552.541 152.034 l
552.809 154.086 l
553.211 160.298 l
553.746 174.267 l
554.416 200.303 l
555.219 242.657 l
556.291 313.957 l
557.898 439.264 l
560.442 637.174 l
561.781 724.412 l
562.987 788.421 l
564.058 833.236 l
564.996 863.438 l
565.799 883.096 l
566.603 897.503 l
567.272 905.873 l
567.808 910.414 l
568.344 913.211 l
568.745 914.255 l
569.013 914.486 l
569.281 914.365 l
569.549 913.911 l
569.951 912.641 l
570.486 909.936 l
571.156 905.105 l
571.959 897.478 l
573.031 884.771 l
574.37 865.805 l
576.111 837.746 l
579.191 783.732 l
583.878 701.916 l
586.824 654.462 l
589.503 614.85 l
592.047 580.42 l
594.592 549 l
597.136 520.397 l
599.681 494.382 l
602.225 470.717 l
604.77 449.172 l
607.314 429.532 l
609.859 411.599 l
612.403 395.196 l
614.948 380.164 l
617.626 365.668 l
620.304 352.389 l
622.983 340.197 l
625.795 328.445 l
628.608 317.653 l
631.42 307.721 l
634.366 298.142 l
637.312 289.322 l
640.259 281.183 l
643.339 273.328 l
646.419 266.073 l
649.633 259.08 l
652.847 252.616 l
656.195 246.39 l
659.543 240.63 l
663.025 235.086 l
666.507 229.952 l
670.123 225.011 l
673.872 220.269 l
677.756 215.725 l
681.64 211.52 l
685.657 207.492 l
689.809 203.639 l
694.094 199.961 l
698.514 196.454 l
703.201 193.023 l
708.022 189.771 l
712.977 186.693 l
718.2 183.709 l
723.691 180.833 l
729.449 178.073 l
735.476 175.436 l
741.77 172.93 l
748.332 170.557 l
755.296 168.279 l
762.528 166.147 l
770.161 164.128 l
778.196 162.232 l
786.767 160.442 l
795.74 158.798 l
805.114 157.307 l
815.024 155.956 l
825.47 154.761 l
836.317 153.745 l
847.567 152.916 l
859.218 152.281 l
871.137 151.854 l
883.189 151.644 l
895.376 151.654 l
907.563 151.886 l
919.482 152.334 l
931.133 152.991 l
942.516 153.855 l
953.497 154.912 l
963.943 156.138 l
973.987 157.541 l
983.496 159.093 l
992.468 160.78 l
1001.04 162.615 l
1009.07 164.558 l
1016.71 166.628 l
1023.94 168.814 l
1030.9 171.15 l
1037.47 173.584 l
1043.76 176.156 l
1049.65 178.8 l
1055.28 181.56 l
1060.77 184.503 l
1065.99 187.557 l
1070.95 190.71 l
1075.77 194.043 l
1080.32 197.457 l
1084.74 201.046 l
1089.02 204.813 l
1093.18 208.761 l
1097.19 212.892 l
1101.08 217.206 l
1104.83 221.704 l
1108.44 226.383 l
1112.06 231.433 l
1115.54 236.684 l
1118.89 242.132 l
1122.24 248.012 l
1125.45 254.108 l
1128.66 260.692 l
1131.74 267.511 l
1134.83 274.884 l
1137.77 282.509 l
1140.72 290.758 l
1143.53 299.277 l
1146.34 308.497 l
1149.15 318.496 l
1151.83 328.823 l
1154.51 340.025 l
1157.19 352.201 l
1159.87 365.464 l
1162.41 379.186 l
1164.96 394.13 l
1167.5 410.434 l
1170.05 428.257 l
1172.46 446.703 l
1174.87 466.836 l
1177.28 488.836 l
1179.69 512.898 l
1182.1 539.222 l
1184.51 568.01 l
1186.92 599.439 l
1189.46 635.622 l
1192.14 677.068 l
1195.09 726.31 l
1199.91 811.584 l
1202.59 856.875 l
1204.2 880.684 l
1205.4 895.602 l
1206.34 904.774 l
1207.14 910.492 l
1207.68 913 l
1208.08 914.108 l
1208.35 914.447 l
1208.62 914.446 l
1208.88 914.087 l
1209.15 913.352 l
1209.55 911.503 l
1210.09 907.544 l
1210.62 901.734 l
1211.29 891.624 l
1211.96 878.065 l
1212.77 856.825 l
1213.57 829.736 l
1214.51 790.274 l
1215.58 734.501 l
1216.78 658.573 l
1218.26 549.911 l
1222.14 253.179 l
1223.08 202.117 l
1223.75 175.545 l
1224.28 161.108 l
1224.69 154.53 l
1224.95 152.231 l
1225.22 151.62 l
1225.36 151.95 l
1225.62 153.877 l
1226.02 159.906 l
1226.43 169.612 l
1226.96 188.009 l
1227.63 219.05 l
1228.57 275.206 l
1229.77 362.949 l
1234.06 690.173 l
1235.27 760.71 l
1236.34 811.411 l
1237.27 846.528 l
1238.21 873.471 l
1239.01 890.569 l
1239.68 900.971 l
1240.35 908.204 l
1240.89 911.917 l
1241.29 913.596 l
1241.69 914.398 l
1241.96 914.477 l
1242.23 914.211 l
1242.63 913.207 l
1243.03 911.525 l
1243.57 908.323 l
1244.24 902.948 l
1245.18 893.247 l
1246.25 879.664 l
1247.72 857.812 l
1249.73 824.327 l
1259.24 661.009 l
1261.92 620.854 l
1264.46 585.911 l
1267 554.004 l
1269.55 524.95 l
1272.09 498.523 l
1274.64 474.485 l
1277.18 452.604 l
1279.73 432.662 l
1282.27 414.459 l
1284.82 397.814 l
1287.36 382.566 l
1290.04 367.865 l
1292.72 354.403 l
1295.4 342.049 l
1298.21 330.142 l
1301.02 319.213 l
1303.83 309.158 l
1306.78 299.464 l
1309.72 290.541 l
1312.67 282.308 l
1315.75 274.366 l
1318.83 267.033 l
1322.05 259.966 l
1325.26 253.436 l
1328.61 247.147 l
1331.96 241.332 l
1335.44 235.734 l
1338.92 230.553 l
1342.54 225.568 l
1346.28 220.784 l
1350.03 216.354 l
1353.92 212.102 l
1357.94 208.03 l
1362.09 204.137 l
1366.37 200.421 l
1370.79 196.88 l
1375.35 193.51 l
1380.17 190.219 l
1385.12 187.106 l
1390.34 184.089 l
1395.84 181.18 l
1401.46 178.452 l
1407.35 175.839 l
1413.51 173.347 l
1420.07 170.935 l
1426.9 168.663 l
1434.14 166.492 l
1441.77 164.437 l
1449.8 162.507 l
1458.24 160.711 l
1467.08 159.057 l
1476.46 157.53 l
1486.23 156.163 l
1496.54 154.947 l
1507.26 153.907 l
1518.51 153.04 l
1530.02 152.375 l
1541.94 151.911 l
1553.99 151.664 l
1555.2 151.652 l
1555.2 151.652 l
stroke
grestore
1.000 0.000 0.000 setrgbcolor
gsave
1339 812.9 216 101.6 clipbox
216 151.621 m
228.173 151.732 l
240.253 152.064 l
252.118 152.612 l
263.662 153.366 l
274.831 154.316 l
285.558 155.451 l
295.803 156.757 l
305.566 158.223 l
314.846 159.84 l
323.645 161.597 l
331.988 163.487 l
339.903 165.506 l
347.402 167.647 l
354.513 169.907 l
361.276 172.287 l
367.705 174.785 l
373.811 177.394 l
379.637 180.123 l
385.195 182.97 l
390.511 185.943 l
395.6 189.041 l
400.488 192.277 l
405.175 195.645 l
409.688 199.161 l
414.041 202.833 l
418.246 206.672 l
422.317 210.69 l
426.254 214.888 l
430.071 219.284 l
433.781 223.895 l
437.397 228.746 l
440.919 233.847 l
444.347 239.204 l
447.695 244.85 l
450.963 250.799 l
454.163 257.088 l
457.297 263.74 l
460.364 270.772 l
463.377 278.241 l
466.337 286.176 l
469.243 294.61 l
472.095 303.575 l
474.908 313.155 l
477.666 323.348 l
480.385 334.252 l
483.063 345.923 l
485.701 358.423 l
488.3 371.818 l
490.871 386.26 l
493.402 401.758 l
495.906 418.488 l
498.384 436.562 l
500.834 456.098 l
503.272 477.343 l
505.696 500.46 l
508.106 525.615 l
510.517 553.133 l
512.954 583.555 l
515.432 617.325 l
517.99 655.295 l
520.735 699.461 l
524.003 755.845 l
529.855 857.506 l
531.489 881.585 l
532.694 896.332 l
533.645 905.44 l
534.381 910.566 l
534.957 913.187 l
535.386 914.244 l
535.68 914.488 l
535.895 914.404 l
536.136 914.031 l
536.457 913.057 l
536.859 911.023 l
537.341 907.302 l
537.904 901.049 l
538.533 891.394 l
539.243 876.831 l
540.019 856.03 l
540.877 826.704 l
541.814 786.505 l
542.845 732.212 l
544.024 657.685 l
545.47 550.994 l
549.461 247.476 l
550.371 199.096 l
551.081 172.186 l
551.63 158.771 l
552.045 153.192 l
552.327 151.704 l
552.434 151.627 l
552.461 151.651 l
552.581 151.965 l
552.782 153.25 l
553.077 156.844 l
553.465 164.638 l
553.961 179.451 l
554.59 205.617 l
555.367 247.885 l
556.384 316.392 l
557.978 440.88 l
560.576 642.357 l
561.915 728.719 l
563.067 789.353 l
564.098 832.488 l
565.036 862.867 l
565.879 883.512 l
566.643 897.198 l
567.326 905.802 l
567.915 910.725 l
568.41 913.234 l
568.799 914.245 l
569.08 914.487 l
569.294 914.411 l
569.549 914.042 l
569.897 913.071 l
570.352 911.045 l
570.928 907.369 l
571.651 901.204 l
572.562 891.371 l
573.714 876.318 l
575.214 853.554 l
577.37 817.105 l
585.767 672.019 l
588.512 629.989 l
591.11 593.557 l
593.641 561.14 l
596.132 532.04 l
598.609 505.651 l
601.1 481.466 l
603.591 459.413 l
606.109 439.077 l
608.64 420.413 l
611.198 403.175 l
613.796 387.164 l
616.421 372.359 l
619.086 358.588 l
621.791 345.77 l
624.523 333.888 l
627.308 322.757 l
630.134 312.374 l
633 302.68 l
635.92 293.583 l
638.879 285.08 l
641.892 277.092 l
644.959 269.583 l
648.093 262.493 l
651.28 255.826 l
654.534 249.53 l
657.869 243.559 l
661.271 237.922 l
664.753 232.579 l
668.328 227.498 l
671.984 222.688 l
675.747 218.102 l
679.618 213.735 l
683.608 209.568 l
687.72 205.596 l
691.965 201.804 l
696.358 198.178 l
700.911 194.708 l
705.638 191.386 l
710.553 188.204 l
715.669 185.158 l
721.012 182.236 l
726.583 179.444 l
732.422 176.768 l
738.529 174.215 l
744.944 171.775 l
751.68 169.452 l
758.764 167.246 l
766.224 165.157 l
774.085 163.188 l
782.361 161.346 l
791.079 159.635 l
800.266 158.061 l
809.922 156.632 l
820.06 155.359 l
830.666 154.252 l
841.714 153.324 l
853.165 152.586 l
864.95 152.05 l
876.976 151.726 l
889.135 151.621 l
901.309 151.738 l
913.388 152.075 l
925.24 152.628 l
936.784 153.387 l
947.94 154.343 l
958.653 155.482 l
968.885 156.791 l
978.634 158.261 l
987.901 159.882 l
996.687 161.641 l
1005.02 163.534 l
1012.92 165.555 l
1020.4 167.698 l
1027.52 169.963 l
1034.26 172.344 l
1040.68 174.842 l
1046.79 177.457 l
1052.61 180.192 l
1058.17 183.046 l
1063.49 186.025 l
1068.57 189.13 l
1073.45 192.365 l
1078.14 195.741 l
1082.65 199.264 l
1087 202.945 l
1091.21 206.793 l
1095.27 210.807 l
1099.2 215.015 l
1103.02 219.42 l
1106.73 224.042 l
1110.33 228.887 l
1113.84 233.978 l
1117.27 239.346 l
1120.62 245.003 l
1123.88 250.963 l
1127.08 257.267 l
1130.22 263.932 l
1133.29 270.98 l
1136.3 278.466 l
1139.26 286.42 l
1142.16 294.873 l
1145.02 303.86 l
1147.83 313.464 l
1150.59 323.684 l
1153.31 334.616 l
1155.98 346.319 l
1158.62 358.854 l
1161.22 372.288 l
1163.79 386.771 l
1166.32 402.315 l
1168.83 419.097 l
1171.3 437.227 l
1173.76 456.825 l
1176.19 478.138 l
1178.6 501.196 l
1181.01 526.42 l
1183.42 554.014 l
1185.86 584.518 l
1188.34 618.375 l
1190.9 656.436 l
1193.64 700.692 l
1196.94 757.625 l
1202.63 856.552 l
1204.28 880.953 l
1205.49 895.967 l
1206.45 905.164 l
1207.2 910.452 l
1207.77 913.118 l
1208.2 914.213 l
1208.49 914.485 l
1208.71 914.421 l
1208.95 914.074 l
1209.26 913.184 l
1209.65 911.309 l
1210.11 907.847 l
1210.66 901.99 l
1211.29 892.676 l
1211.99 878.837 l
1212.75 859.018 l
1213.6 830.998 l
1214.52 792.468 l
1215.54 740.231 l
1216.69 669.027 l
1218.08 568.144 l
1222.53 233.695 l
1223.39 191.27 l
1224.06 168.11 l
1224.58 156.843 l
1224.97 152.532 l
1225.21 151.637 l
1225.3 151.659 l
1225.31 151.68 l
1225.45 152.114 l
1225.66 153.687 l
1225.97 157.829 l
1226.39 166.853 l
1226.91 183.596 l
1227.56 212.505 l
1228.38 259.097 l
1229.47 334.755 l
1231.39 488.066 l
1233.46 645.646 l
1234.8 731.444 l
1235.93 790.921 l
1236.95 833.228 l
1237.89 863.432 l
1238.73 883.932 l
1239.5 897.499 l
1240.18 906.007 l
1240.77 910.855 l
1241.26 913.307 l
1241.65 914.275 l
1241.93 914.49 l
1242.15 914.393 l
1242.4 914 l
1242.75 912.999 l
1243.21 910.937 l
1243.8 907.12 l
1244.53 900.75 l
1245.46 890.649 l
1246.62 875.273 l
1248.15 851.934 l
1250.37 814.168 l
1258.29 677.062 l
1261.06 634.227 l
1263.67 597.253 l
1266.2 564.513 l
1268.7 534.966 l
1271.2 508.181 l
1273.69 483.772 l
1276.18 461.517 l
1278.7 440.997 l
1281.23 422.166 l
1283.78 404.778 l
1286.37 388.71 l
1288.99 373.774 l
1291.65 359.952 l
1294.34 347.082 l
1297.07 335.093 l
1299.84 323.916 l
1302.65 313.488 l
1305.52 303.706 l
1308.43 294.569 l
1311.39 285.99 l
1314.4 277.931 l
1317.47 270.358 l
1320.59 263.239 l
1323.77 256.516 l
1327.03 250.168 l
1330.35 244.173 l
1333.75 238.49 l
1337.23 233.105 l
1340.79 228.004 l
1344.45 223.156 l
1348.2 218.551 l
1352.06 214.166 l
1356.03 209.98 l
1360.13 205.99 l
1364.36 202.179 l
1368.74 198.536 l
1373.28 195.048 l
1378 191.708 l
1382.89 188.517 l
1387.97 185.461 l
1393.29 182.528 l
1398.84 179.725 l
1404.65 177.036 l
1410.73 174.47 l
1417.12 172.016 l
1423.82 169.679 l
1430.88 167.459 l
1438.3 165.359 l
1446.12 163.378 l
1454.36 161.523 l
1463.04 159.798 l
1472.18 158.208 l
1481.8 156.764 l
1491.9 155.475 l
1502.46 154.351 l
1513.47 153.405 l
1524.88 152.649 l
1536.64 152.093 l
1548.65 151.748 l
1555.2 151.652 l
1555.2 151.652 l
stroke
grestore
0.000 0.750 0.750 setrgbcolor
gsave
1339 812.9 216 101.6 clipbox
216 151.621 m
228.18 151.732 l
240.258 152.064 l
252.121 152.612 l
263.672 153.366 l
274.834 154.316 l
285.555 155.45 l
295.804 156.756 l
305.568 158.223 l
314.846 159.839 l
323.649 161.596 l
331.995 163.487 l
339.905 165.505 l
347.406 167.647 l
354.523 169.908 l
361.28 172.287 l
367.705 174.782 l
373.818 177.394 l
379.645 180.124 l
385.208 182.974 l
390.526 185.948 l
395.619 189.049 l
400.503 192.283 l
405.195 195.656 l
409.713 199.176 l
414.066 202.85 l
418.27 206.689 l
422.336 210.703 l
426.273 214.903 l
430.093 219.302 l
433.803 223.917 l
437.414 228.762 l
440.931 233.856 l
444.36 239.216 l
447.708 244.863 l
450.981 250.823 l
454.183 257.117 l
457.318 263.774 l
460.392 270.825 l
463.406 278.302 l
466.365 286.238 l
469.271 294.677 l
472.126 303.656 l
474.934 313.229 l
477.697 323.444 l
480.416 334.355 l
483.093 346.029 l
485.731 358.538 l
488.332 371.959 l
490.898 386.381 l
493.431 401.908 l
495.934 418.642 l
498.409 436.71 l
500.861 456.271 l
503.293 477.484 l
505.71 500.547 l
508.121 525.71 l
510.534 553.269 l
512.965 583.616 l
515.438 617.335 l
517.998 655.326 l
520.74 699.45 l
524.003 755.738 l
529.871 857.665 l
531.502 881.684 l
532.713 896.47 l
533.656 905.478 l
534.396 910.616 l
534.969 913.207 l
535.394 914.247 l
535.687 914.488 l
535.901 914.403 l
536.145 914.024 l
536.461 913.064 l
536.858 911.069 l
537.334 907.419 l
537.889 901.318 l
538.518 891.76 l
539.22 877.502 l
539.994 856.976 l
540.84 828.311 l
541.768 788.942 l
542.793 735.559 l
543.955 662.751 l
545.374 558.978 l
549.587 240.324 l
550.465 195.22 l
551.154 170.211 l
551.692 157.793 l
552.095 152.84 l
552.363 151.655 l
552.45 151.634 l
552.486 151.678 l
552.621 152.117 l
552.838 153.72 l
553.148 157.908 l
553.557 166.834 l
554.078 183.519 l
554.728 212.066 l
555.545 258.543 l
556.627 333.896 l
558.526 484.762 l
560.619 644.939 l
561.956 730.704 l
563.099 790.575 l
564.124 833.201 l
565.056 863.262 l
565.905 883.917 l
566.672 897.548 l
567.355 906.04 l
567.948 910.901 l
568.443 913.328 l
568.831 914.284 l
569.108 914.49 l
569.324 914.39 l
569.584 913.982 l
569.933 912.963 l
570.392 910.861 l
570.979 907.035 l
571.714 900.652 l
572.634 890.578 l
573.797 875.226 l
575.318 851.967 l
577.534 814.322 l
585.488 676.578 l
588.259 633.802 l
590.866 596.918 l
593.399 564.191 l
595.896 534.748 l
598.38 508.051 l
600.866 483.703 l
603.362 461.409 l
605.876 440.929 l
608.411 422.076 l
610.973 404.67 l
613.564 388.571 l
616.188 373.654 l
618.846 359.808 l
621.541 346.939 l
624.275 334.95 l
627.05 323.774 l
629.868 313.338 l
632.731 303.577 l
635.642 294.434 l
638.603 285.861 l
641.617 277.812 l
644.685 270.245 l
647.81 263.123 l
650.998 256.409 l
654.251 250.071 l
657.573 244.081 l
660.971 238.412 l
664.447 233.04 l
668.009 227.944 l
671.663 223.104 l
675.415 218.5 l
679.273 214.117 l
683.247 209.939 l
687.345 205.952 l
691.578 202.143 l
695.957 198.502 l
700.494 195.019 l
705.203 191.685 l
710.098 188.492 l
715.195 185.433 l
720.51 182.503 l
726.062 179.698 l
731.871 177.013 l
737.956 174.447 l
744.341 171.997 l
751.048 169.662 l
758.101 167.444 l
765.526 165.344 l
773.347 163.365 l
781.587 161.511 l
790.269 159.786 l
799.413 158.199 l
809.03 156.756 l
819.126 155.468 l
829.692 154.345 l
840.706 153.4 l
852.124 152.645 l
863.881 152.09 l
875.889 151.747 l
888.044 151.622 l
900.227 151.718 l
912.316 152.036 l
924.196 152.57 l
935.769 153.311 l
946.959 154.249 l
957.711 155.372 l
967.992 156.667 l
977.787 158.123 l
987.095 159.73 l
995.929 161.479 l
1004.3 163.361 l
1012.24 165.372 l
1019.77 167.505 l
1026.91 169.759 l
1033.69 172.13 l
1040.13 174.617 l
1046.27 177.222 l
1052.11 179.944 l
1057.69 182.787 l
1063.02 185.752 l
1068.13 188.845 l
1073.03 192.07 l
1077.73 195.434 l
1082.26 198.944 l
1086.62 202.609 l
1090.84 206.437 l
1094.91 210.438 l
1098.86 214.626 l
1102.68 219.013 l
1106.4 223.613 l
1110.02 228.442 l
1113.54 233.518 l
1116.97 238.86 l
1120.33 244.489 l
1123.61 250.426 l
1126.81 256.697 l
1129.95 263.332 l
1133.03 270.357 l
1136.05 277.806 l
1139.01 285.713 l
1141.92 294.116 l
1144.78 303.061 l
1147.59 312.594 l
1150.35 322.765 l
1153.08 333.629 l
1155.76 345.252 l
1158.4 357.706 l
1161 371.068 l
1163.57 385.426 l
1166.1 400.874 l
1168.61 417.523 l
1171.09 435.508 l
1173.54 454.969 l
1175.97 476.072 l
1178.39 499.015 l
1180.8 524.034 l
1183.21 551.436 l
1185.64 581.596 l
1188.11 615.074 l
1190.67 652.766 l
1193.39 696.418 l
1196.59 751.453 l
1202.85 859.94 l
1204.44 883.062 l
1205.63 897.333 l
1206.55 905.987 l
1207.28 910.89 l
1207.84 913.331 l
1208.25 914.286 l
1208.54 914.49 l
1208.75 914.387 l
1209 913.979 l
1209.32 912.963 l
1209.72 910.875 l
1210.2 907.083 l
1210.76 900.776 l
1211.4 890.929 l
1212.11 876.278 l
1212.88 855.277 l
1213.74 825.957 l
1214.67 785.769 l
1215.7 731.242 l
1216.88 656.81 l
1218.32 549.891 l
1222.3 247.676 l
1223.21 199.365 l
1223.91 172.41 l
1224.47 158.783 l
1224.89 153.163 l
1225.17 151.692 l
1225.27 151.627 l
1225.31 151.666 l
1225.44 152.054 l
1225.65 153.513 l
1225.95 157.414 l
1226.35 165.827 l
1226.86 181.686 l
1227.5 209.017 l
1228.3 253.683 l
1229.35 325.906 l
1231.09 462.864 l
1233.4 641.559 l
1234.75 728.448 l
1235.9 788.946 l
1236.93 832.07 l
1237.86 862.472 l
1238.71 883.386 l
1239.48 897.209 l
1240.17 905.837 l
1240.77 910.79 l
1241.26 913.28 l
1241.65 914.268 l
1241.94 914.489 l
1242.15 914.396 l
1242.41 913.999 l
1242.76 913.001 l
1243.21 910.94 l
1243.79 907.175 l
1244.53 900.874 l
1245.44 890.931 l
1246.59 875.777 l
1248.1 852.81 l
1250.28 815.802 l
1258.48 674.105 l
1261.23 631.709 l
1263.84 595.076 l
1266.37 562.542 l
1268.86 533.26 l
1271.35 506.694 l
1273.83 482.467 l
1276.33 460.281 l
1278.84 439.9 l
1281.38 421.126 l
1283.94 403.793 l
1286.54 387.761 l
1289.16 372.906 l
1291.82 359.115 l
1294.52 346.291 l
1297.25 334.349 l
1300.03 323.211 l
1302.85 312.811 l
1305.72 303.083 l
1308.63 293.975 l
1311.59 285.43 l
1314.61 277.407 l
1317.68 269.865 l
1320.81 262.763 l
1324 256.068 l
1327.26 249.748 l
1330.58 243.775 l
1333.99 238.122 l
1337.47 232.766 l
1341.03 227.685 l
1344.69 222.857 l
1348.45 218.265 l
1352.31 213.892 l
1356.29 209.724 l
1360.4 205.747 l
1364.64 201.948 l
1369.03 198.315 l
1373.57 194.84 l
1378.29 191.513 l
1383.2 188.327 l
1388.3 185.275 l
1393.63 182.352 l
1399.2 179.553 l
1405.02 176.875 l
1411.12 174.314 l
1417.52 171.87 l
1424.25 169.542 l
1431.32 167.33 l
1438.76 165.236 l
1446.61 163.264 l
1454.87 161.416 l
1463.58 159.699 l
1472.74 158.119 l
1482.39 156.684 l
1492.51 155.404 l
1503.1 154.291 l
1514.13 153.356 l
1525.57 152.61 l
1537.34 152.067 l
1549.36 151.735 l
1555.2 151.652 l
1555.2 151.652 l
stroke
grestore
0 setlinejoin
0.000 setgray
gsave
216 914.49 m
1555.2 914.49 l
stroke
grestore
gsave
1555.2 101.61 m
1555.2 914.49 l
stroke
grestore
gsave
216 101.61 m
1555.2 101.61 l
stroke
grestore
gsave
216 101.61 m
216 914.49 l
stroke
grestore
0.500 setlinewidth
1 setlinejoin
0 setlinecap
gsave
/o {
gsave
newpath
translate
0.5 setlinewidth
1 setlinejoin
0 setlinecap
0 0 m
0 4 l
gsave
0.000 setgray
fill
grestore
stroke
grestore
} bind def
216 101.61 o
grestore
gsave
/o {
gsave
newpath
translate
0.5 setlinewidth
1 setlinejoin
0 setlinecap
0 0 m
0 -4 l
gsave
0.000 setgray
fill
grestore
stroke
grestore
} bind def
216 914.49 o
grestore
/BitstreamVeraSans-Roman findfont
12.000 scalefont
setfont
gsave
212.976562 88.485000 translate
0.000000 rotate
0.000000 0.000000 m /zero glyphshow
grestore
gsave
/o {
gsave
newpath
translate
0.5 setlinewidth
1 setlinejoin
0 setlinecap
0 0 m
0 4 l
gsave
0.000 setgray
fill
grestore
stroke
grestore
} bind def
483.84 101.61 o
grestore
gsave
/o {
gsave
newpath
translate
0.5 setlinewidth
1 setlinejoin
0 setlinecap
0 0 m
0 -4 l
gsave
0.000 setgray
fill
grestore
stroke
grestore
} bind def
483.84 914.49 o
grestore
gsave
481.058750 88.485000 translate
0.000000 rotate
0.000000 0.000000 m /two glyphshow
grestore
gsave
/o {
gsave
newpath
translate
0.5 setlinewidth
1 setlinejoin
0 setlinecap
0 0 m
0 4 l
gsave
0.000 setgray
fill
grestore
stroke
grestore
} bind def
751.68 101.61 o
grestore
gsave
/o {
gsave
newpath
translate
0.5 setlinewidth
1 setlinejoin
0 setlinecap
0 0 m
0 -4 l
gsave
0.000 setgray
fill
grestore
stroke
grestore
} bind def
751.68 914.49 o
grestore
gsave
748.492500 88.485000 translate
0.000000 rotate
0.000000 0.000000 m /four glyphshow
grestore
gsave
/o {
gsave
newpath
translate
0.5 setlinewidth
1 setlinejoin
0 setlinecap
0 0 m
0 4 l
gsave
0.000 setgray
fill
grestore
stroke
grestore
} bind def
1019.52 101.61 o
grestore
gsave
/o {
gsave
newpath
translate
0.5 setlinewidth
1 setlinejoin
0 setlinecap
0 0 m
0 -4 l
gsave
0.000 setgray
fill
grestore
stroke
grestore
} bind def
1019.52 914.49 o
grestore
gsave
1016.504375 88.485000 translate
0.000000 rotate
0.000000 0.000000 m /six glyphshow
grestore
gsave
/o {
gsave
newpath
translate
0.5 setlinewidth
1 setlinejoin
0 setlinecap
0 0 m
0 4 l
gsave
0.000 setgray
fill
grestore
stroke
grestore
} bind def
1287.36 101.61 o
grestore
gsave
/o {
gsave
newpath
translate
0.5 setlinewidth
1 setlinejoin
0 setlinecap
0 0 m
0 -4 l
gsave
0.000 setgray
fill
grestore
stroke
grestore
} bind def
1287.36 914.49 o
grestore
gsave
1284.360000 88.485000 translate
0.000000 rotate
0.000000 0.000000 m /eight glyphshow
grestore
gsave
/o {
gsave
newpath
translate
0.5 setlinewidth
1 setlinejoin
0 setlinecap
0 0 m
0 4 l
gsave
0.000 setgray
fill
grestore
stroke
grestore
} bind def
1555.2 101.61 o
grestore
gsave
/o {
gsave
newpath
translate
0.5 setlinewidth
1 setlinejoin
0 setlinecap
0 0 m
0 -4 l
gsave
0.000 setgray
fill
grestore
stroke
grestore
} bind def
1555.2 914.49 o
grestore
gsave
1548.614063 88.485000 translate
0.000000 rotate
0.000000 0.000000 m /one glyphshow
7.634766 0.000000 m /zero glyphshow
grestore
/BitstreamVeraSans-Roman findfont
14.000 scalefont
setfont
gsave
883.209375 70.344375 translate
0.000000 rotate
0.000000 0.000000 m /t glyphshow
grestore
gsave
/o {
gsave
newpath
translate
0.5 setlinewidth
1 setlinejoin
0 setlinecap
0 0 m
4 0 l
gsave
0.000 setgray
fill
grestore
stroke
grestore
} bind def
216 101.61 o
grestore
gsave
/o {
gsave
newpath
translate
0.5 setlinewidth
1 setlinejoin
0 setlinecap
0 0 m
-4 0 l
gsave
0.000 setgray
fill
grestore
stroke
grestore
} bind def
1555.2 101.61 o
grestore
/BitstreamVeraSans-Roman findfont
12.000 scalefont
setfont
gsave
194.500000 98.297500 translate
0.000000 rotate
0.000000 0.000000 m /zero glyphshow
7.634766 0.000000 m /period glyphshow
11.449219 0.000000 m /zero glyphshow
grestore
gsave
/o {
gsave
newpath
translate
0.5 setlinewidth
1 setlinejoin
0 setlinecap
0 0 m
4 0 l
gsave
0.000 setgray
fill
grestore
stroke
grestore
} bind def
216 264.186 o
grestore
gsave
/o {
gsave
newpath
translate
0.5 setlinewidth
1 setlinejoin
0 setlinecap
0 0 m
-4 0 l
gsave
0.000 setgray
fill
grestore
stroke
grestore
} bind def
1555.2 264.186 o
grestore
gsave
194.906250 260.873500 translate
0.000000 rotate
0.000000 0.000000 m /zero glyphshow
7.634766 0.000000 m /period glyphshow
11.449219 0.000000 m /two glyphshow
grestore
gsave
/o {
gsave
newpath
translate
0.5 setlinewidth
1 setlinejoin
0 setlinecap
0 0 m
4 0 l
gsave
0.000 setgray
fill
grestore
stroke
grestore
} bind def
216 426.762 o
grestore
gsave
/o {
gsave
newpath
translate
0.5 setlinewidth
1 setlinejoin
0 setlinecap
0 0 m
-4 0 l
gsave
0.000 setgray
fill
grestore
stroke
grestore
} bind def
1555.2 426.762 o
grestore
gsave
194.375000 423.449500 translate
0.000000 rotate
0.000000 0.000000 m /zero glyphshow
7.634766 0.000000 m /period glyphshow
11.449219 0.000000 m /four glyphshow
grestore
gsave
/o {
gsave
newpath
translate
0.5 setlinewidth
1 setlinejoin
0 setlinecap
0 0 m
4 0 l
gsave
0.000 setgray
fill
grestore
stroke
grestore
} bind def
216 589.338 o
grestore
gsave
/o {
gsave
newpath
translate
0.5 setlinewidth
1 setlinejoin
0 setlinecap
0 0 m
-4 0 l
gsave
0.000 setgray
fill
grestore
stroke
grestore
} bind def
1555.2 589.338 o
grestore
gsave
194.468750 586.025500 translate
0.000000 rotate
0.000000 0.000000 m /zero glyphshow
7.634766 0.000000 m /period glyphshow
11.449219 0.000000 m /six glyphshow
grestore
gsave
/o {
gsave
newpath
translate
0.5 setlinewidth
1 setlinejoin
0 setlinecap
0 0 m
4 0 l
gsave
0.000 setgray
fill
grestore
stroke
grestore
} bind def
216 751.914 o
grestore
gsave
/o {
gsave
newpath
translate
0.5 setlinewidth
1 setlinejoin
0 setlinecap
0 0 m
-4 0 l
gsave
0.000 setgray
fill
grestore
stroke
grestore
} bind def
1555.2 751.914 o
grestore
gsave
194.531250 748.601500 translate
0.000000 rotate
0.000000 0.000000 m /zero glyphshow
7.634766 0.000000 m /period glyphshow
11.449219 0.000000 m /eight glyphshow
grestore
gsave
/o {
gsave
newpath
translate
0.5 setlinewidth
1 setlinejoin
0 setlinecap
0 0 m
4 0 l
gsave
0.000 setgray
fill
grestore
stroke
grestore
} bind def
216 914.49 o
grestore
gsave
/o {
gsave
newpath
translate
0.5 setlinewidth
1 setlinejoin
0 setlinecap
0 0 m
-4 0 l
gsave
0.000 setgray
fill
grestore
stroke
grestore
} bind def
1555.2 914.49 o
grestore
gsave
195.015625 911.177500 translate
0.000000 rotate
0.000000 0.000000 m /one glyphshow
7.634766 0.000000 m /period glyphshow
11.449219 0.000000 m /zero glyphshow
grestore
/BitstreamVeraSans-Roman findfont
14.000 scalefont
setfont
gsave
186.468750 504.760937 translate
90.000000 rotate
0.000000 0.000000 m /E glyphshow
grestore
gsave
876.764063 919.490000 translate
0.000000 rotate
0.000000 0.000000 m /E glyphshow
8.845703 0.000000 m /hyphen glyphshow
13.897461 0.000000 m /t glyphshow
grestore
1.000 setlinewidth
0 setlinejoin
gsave
1411.22 819.982 m
1548 819.982 l
1548 907.29 l
1411.22 907.29 l
cl
gsave
1.000 setgray
fill
grestore
stroke
grestore
1 setlinejoin
2 setlinecap
0.000 0.000 1.000 setrgbcolor
gsave
1421.3 895.929 m
1441.46 895.929 l
stroke
grestore
0.000 setgray
/BitstreamVeraSans-Roman findfont
14.400 scalefont
setfont
gsave
1457.302500 890.889375 translate
0.000000 rotate
0.000000 0.000000 m /t glyphshow
5.636292 0.000000 m /space glyphshow
10.205688 0.000000 m /equal glyphshow
22.250366 0.000000 m /space glyphshow
26.819763 0.000000 m /zero glyphshow
35.965576 0.000000 m /period glyphshow
40.534973 0.000000 m /zero glyphshow
49.680786 0.000000 m /one glyphshow
grestore
0.000 0.500 0.000 setrgbcolor
gsave
1421.3 875.182 m
1441.46 875.182 l
stroke
grestore
0.000 setgray
gsave
1457.302500 870.142500 translate
0.000000 rotate
0.000000 0.000000 m /t glyphshow
5.636292 0.000000 m /space glyphshow
10.205688 0.000000 m /equal glyphshow
22.250366 0.000000 m /space glyphshow
26.819763 0.000000 m /zero glyphshow
35.965576 0.000000 m /period glyphshow
40.534973 0.000000 m /zero glyphshow
49.680786 0.000000 m /zero glyphshow
58.826599 0.000000 m /one glyphshow
grestore
1.000 0.000 0.000 setrgbcolor
gsave
1421.3 854.436 m
1441.46 854.436 l
stroke
grestore
0.000 setgray
gsave
1457.302500 849.395625 translate
0.000000 rotate
0.000000 0.000000 m /t glyphshow
5.636292 0.000000 m /space glyphshow
10.205688 0.000000 m /equal glyphshow
22.250366 0.000000 m /space glyphshow
26.819763 0.000000 m /zero glyphshow
35.965576 0.000000 m /period glyphshow
40.534973 0.000000 m /zero glyphshow
49.680786 0.000000 m /zero glyphshow
58.826599 0.000000 m /zero glyphshow
67.972412 0.000000 m /one glyphshow
grestore
0.000 0.750 0.750 setrgbcolor
gsave
1421.3 833.689 m
1441.46 833.689 l
stroke
grestore
0.000 setgray
gsave
1457.302500 828.648750 translate
0.000000 rotate
0.000000 0.000000 m /t glyphshow
5.636292 0.000000 m /space glyphshow
10.205688 0.000000 m /equal glyphshow
22.250366 0.000000 m /space glyphshow
26.819763 0.000000 m /zero glyphshow
35.965576 0.000000 m /period glyphshow
40.534973 0.000000 m /zero glyphshow
49.680786 0.000000 m /zero glyphshow
58.826599 0.000000 m /zero glyphshow
67.972412 0.000000 m /zero glyphshow
77.118225 0.000000 m /one glyphshow
grestore

end
showpage
