%!PS-Adobe-3.0 EPSF-3.0
%%Title: /home/sunoru/Study/computational-physics/homework/c2/2-12_x_t.eps
%%Creator: matplotlib version 1.4.3, http://matplotlib.org/
%%CreationDate: Thu Dec 24 19:32:25 2015
%%Orientation: portrait
%%BoundingBox: -558 -112 1170 904
%%EndComments
%%BeginProlog
/mpldict 8 dict def
mpldict begin
/m { moveto } bind def
/l { lineto } bind def
/r { rlineto } bind def
/c { curveto } bind def
/cl { closepath } bind def
/box {
m
1 index 0 r
0 exch r
neg 0 r
cl
} bind def
/clipbox {
box
clip
newpath
} bind def
%!PS-Adobe-3.0 Resource-Font
%%Title: Bitstream Vera Sans
%%Copyright: Copyright (c) 2003 by Bitstream, Inc. All Rights Reserved.
%%Creator: Converted from TrueType to type 3 by PPR
25 dict begin
/_d{bind def}bind def
/_m{moveto}_d
/_l{lineto}_d
/_cl{closepath eofill}_d
/_c{curveto}_d
/_sc{7 -1 roll{setcachedevice}{pop pop pop pop pop pop}ifelse}_d
/_e{exec}_d
/FontName /BitstreamVeraSans-Roman def
/PaintType 0 def
/FontMatrix[.001 0 0 .001 0 0]def
/FontBBox[-183 -236 1287 928]def
/FontType 3 def
/Encoding [ /space /hyphen /period /zero /one /two /four /six /eight /equal /t /x ] def
/FontInfo 10 dict dup begin
/FamilyName (Bitstream Vera Sans) def
/FullName (Bitstream Vera Sans) def
/Notice (Copyright (c) 2003 by Bitstream, Inc. All Rights Reserved. Bitstream Vera is a trademark of Bitstream, Inc.) def
/Weight (Roman) def
/Version (Release 1.10) def
/ItalicAngle 0.0 def
/isFixedPitch false def
/UnderlinePosition -213 def
/UnderlineThickness 143 def
end readonly def
/CharStrings 12 dict dup begin
/space{318 0 0 0 0 0 _sc
}_d
/hyphen{361 0 49 234 312 314 _sc
49 314 _m
312 314 _l
312 234 _l
49 234 _l
49 314 _l
_cl}_d
/period{318 0 107 0 210 124 _sc
107 124 _m
210 124 _l
210 0 _l
107 0 _l
107 124 _l
_cl}_d
/zero{636 0 66 -13 570 742 _sc
318 664 _m
267 664 229 639 203 589 _c
177 539 165 464 165 364 _c
165 264 177 189 203 139 _c
229 89 267 64 318 64 _c
369 64 407 89 433 139 _c
458 189 471 264 471 364 _c
471 464 458 539 433 589 _c
407 639 369 664 318 664 _c
318 742 _m
399 742 461 709 505 645 _c
548 580 570 486 570 364 _c
570 241 548 147 505 83 _c
461 19 399 -13 318 -13 _c
236 -13 173 19 130 83 _c
87 147 66 241 66 364 _c
66 486 87 580 130 645 _c
173 709 236 742 318 742 _c
_cl}_d
/one{636 0 110 0 544 729 _sc
124 83 _m
285 83 _l
285 639 _l
110 604 _l
110 694 _l
284 729 _l
383 729 _l
383 83 _l
544 83 _l
544 0 _l
124 0 _l
124 83 _l
_cl}_d
/two{{636 0 73 0 536 742 _sc
192 83 _m
536 83 _l
536 0 _l
73 0 _l
73 83 _l
110 121 161 173 226 239 _c
290 304 331 346 348 365 _c
380 400 402 430 414 455 _c
426 479 433 504 433 528 _c
433 566 419 598 392 622 _c
365 646 330 659 286 659 _c
255 659 222 653 188 643 _c
154 632 117 616 78 594 _c
78 694 _l
118 710 155 722 189 730 _c
223 738 255 742 284 742 _c
}_e{359 742 419 723 464 685 _c
509 647 532 597 532 534 _c
532 504 526 475 515 449 _c
504 422 484 390 454 354 _c
446 344 420 317 376 272 _c
332 227 271 164 192 83 _c
_cl}_e}_d
/four{636 0 49 0 580 729 _sc
378 643 _m
129 254 _l
378 254 _l
378 643 _l
352 729 _m
476 729 _l
476 254 _l
580 254 _l
580 172 _l
476 172 _l
476 0 _l
378 0 _l
378 172 _l
49 172 _l
49 267 _l
352 729 _l
_cl}_d
/six{{636 0 70 -13 573 742 _sc
330 404 _m
286 404 251 388 225 358 _c
199 328 186 286 186 234 _c
186 181 199 139 225 109 _c
251 79 286 64 330 64 _c
374 64 409 79 435 109 _c
461 139 474 181 474 234 _c
474 286 461 328 435 358 _c
409 388 374 404 330 404 _c
526 713 _m
526 623 _l
501 635 476 644 451 650 _c
425 656 400 659 376 659 _c
310 659 260 637 226 593 _c
}_e{192 549 172 482 168 394 _c
187 422 211 444 240 459 _c
269 474 301 482 336 482 _c
409 482 467 459 509 415 _c
551 371 573 310 573 234 _c
573 159 550 99 506 54 _c
462 9 403 -13 330 -13 _c
246 -13 181 19 137 83 _c
92 147 70 241 70 364 _c
70 479 97 571 152 639 _c
206 707 280 742 372 742 _c
396 742 421 739 447 735 _c
472 730 498 723 526 713 _c
_cl}_e}_d
/eight{{636 0 68 -13 568 742 _sc
318 346 _m
271 346 234 333 207 308 _c
180 283 167 249 167 205 _c
167 161 180 126 207 101 _c
234 76 271 64 318 64 _c
364 64 401 76 428 102 _c
455 127 469 161 469 205 _c
469 249 455 283 429 308 _c
402 333 365 346 318 346 _c
219 388 _m
177 398 144 418 120 447 _c
96 476 85 511 85 553 _c
85 611 105 657 147 691 _c
188 725 245 742 318 742 _c
}_e{390 742 447 725 489 691 _c
530 657 551 611 551 553 _c
551 511 539 476 515 447 _c
491 418 459 398 417 388 _c
464 377 501 355 528 323 _c
554 291 568 251 568 205 _c
568 134 546 80 503 43 _c
459 5 398 -13 318 -13 _c
237 -13 175 5 132 43 _c
89 80 68 134 68 205 _c
68 251 81 291 108 323 _c
134 355 171 377 219 388 _c
183 544 _m
183 506 194 476 218 455 _c
}_e{242 434 275 424 318 424 _c
360 424 393 434 417 455 _c
441 476 453 506 453 544 _c
453 582 441 611 417 632 _c
393 653 360 664 318 664 _c
275 664 242 653 218 632 _c
194 611 183 582 183 544 _c
_cl}_e}_d
/equal{838 0 106 172 732 454 _sc
106 454 _m
732 454 _l
732 372 _l
106 372 _l
106 454 _l
106 255 _m
732 255 _l
732 172 _l
106 172 _l
106 255 _l
_cl}_d
/t{392 0 27 0 368 702 _sc
183 702 _m
183 547 _l
368 547 _l
368 477 _l
183 477 _l
183 180 _l
183 135 189 106 201 94 _c
213 81 238 75 276 75 _c
368 75 _l
368 0 _l
276 0 _l
206 0 158 13 132 39 _c
106 65 93 112 93 180 _c
93 477 _l
27 477 _l
27 547 _l
93 547 _l
93 702 _l
183 702 _l
_cl}_d
/x{592 0 29 0 559 547 _sc
549 547 _m
351 281 _l
559 0 _l
453 0 _l
294 215 _l
135 0 _l
29 0 _l
241 286 _l
47 547 _l
153 547 _l
298 352 _l
443 547 _l
549 547 _l
_cl}_d
end readonly def

/BuildGlyph
 {exch begin
 CharStrings exch
 2 copy known not{pop /.notdef}if
 true 3 1 roll get exec
 end}_d

/BuildChar {
 1 index /Encoding get exch get
 1 index /BuildGlyph get exec
}_d

FontName currentdict end definefont pop
end
%%EndProlog
mpldict begin
-558 -112.05 translate
1728 1016.1 0 0 clipbox
gsave
0 0 m
1728 0 l
1728 1016.1 l
0 1016.1 l
cl
1.000 setgray
fill
grestore
gsave
216 101.61 m
1555.2 101.61 l
1555.2 914.49 l
216 914.49 l
cl
1.000 setgray
fill
grestore
1.000 setlinewidth
1 setlinejoin
2 setlinecap
[] 0 setdash
0.000 0.000 1.000 setrgbcolor
gsave
1339 812.9 216 101.6 clipbox
216 779.01 m
221.357 778.887 l
226.714 778.567 l
232.07 778.049 l
237.427 777.334 l
242.784 776.421 l
248.141 775.307 l
253.498 773.993 l
258.854 772.478 l
264.211 770.758 l
269.568 768.834 l
274.925 766.702 l
280.282 764.361 l
285.638 761.808 l
290.995 759.04 l
296.352 756.054 l
301.709 752.847 l
307.066 749.416 l
312.422 745.755 l
317.779 741.862 l
323.136 737.73 l
328.493 733.356 l
333.85 728.733 l
339.206 723.856 l
344.563 718.718 l
349.92 713.312 l
355.277 707.63 l
360.634 701.664 l
365.99 695.405 l
371.347 688.843 l
376.704 681.967 l
382.061 674.767 l
387.418 667.228 l
392.774 659.337 l
398.131 651.078 l
403.488 642.436 l
408.845 633.392 l
414.202 623.924 l
419.558 614.012 l
424.915 603.629 l
430.272 592.748 l
435.629 581.338 l
440.986 569.363 l
446.342 556.786 l
451.699 543.562 l
457.056 529.639 l
462.413 514.961 l
467.77 499.462 l
473.126 483.065 l
477.144 470.127 l
481.162 456.591 l
485.179 442.411 l
489.197 427.533 l
493.214 411.896 l
497.232 395.432 l
501.25 378.062 l
505.267 359.701 l
509.285 340.252 l
513.302 319.612 l
517.32 297.675 l
521.338 274.347 l
525.355 249.568 l
529.373 223.378 l
534.73 186.763 l
540.086 150.216 l
542.765 133.488 l
544.104 125.961 l
545.443 119.219 l
546.782 113.448 l
548.122 108.832 l
549.461 105.539 l
550.8 103.702 l
552.139 103.397 l
553.478 104.638 l
554.818 107.372 l
556.157 111.486 l
557.496 116.825 l
558.835 123.208 l
560.174 130.448 l
562.853 146.795 l
566.87 173.844 l
574.906 228.783 l
578.923 254.699 l
582.941 279.183 l
586.958 302.223 l
590.976 323.889 l
594.994 344.28 l
599.011 363.5 l
603.029 381.654 l
607.046 398.834 l
611.064 415.125 l
615.082 430.603 l
619.099 445.335 l
623.117 459.38 l
627.134 472.791 l
632.491 489.766 l
637.848 505.792 l
643.205 520.953 l
648.562 535.32 l
653.918 548.955 l
659.275 561.914 l
664.632 574.244 l
669.989 585.987 l
675.346 597.181 l
680.702 607.858 l
686.059 618.049 l
691.416 627.78 l
696.773 637.075 l
702.13 645.955 l
707.486 654.441 l
712.843 662.55 l
718.2 670.298 l
723.557 677.699 l
728.914 684.768 l
734.27 691.516 l
739.627 697.955 l
744.984 704.096 l
750.341 709.946 l
755.698 715.517 l
761.054 720.814 l
766.411 725.847 l
771.768 730.621 l
777.125 735.143 l
782.482 739.419 l
787.838 743.454 l
793.195 747.254 l
798.552 750.822 l
803.909 754.163 l
809.266 757.28 l
814.622 760.178 l
819.979 762.859 l
825.336 765.327 l
830.693 767.584 l
836.05 769.632 l
841.406 771.474 l
846.763 773.111 l
852.12 774.545 l
857.477 775.779 l
862.834 776.812 l
868.19 777.645 l
873.547 778.281 l
878.904 778.719 l
884.261 778.96 l
889.618 779.004 l
894.974 778.851 l
900.331 778.501 l
905.688 777.954 l
911.045 777.208 l
916.402 776.264 l
921.758 775.121 l
927.115 773.776 l
932.472 772.23 l
937.829 770.48 l
943.186 768.524 l
948.542 766.361 l
953.899 763.987 l
959.256 761.402 l
964.613 758.601 l
969.97 755.582 l
975.326 752.341 l
980.683 748.875 l
986.04 745.18 l
991.397 741.25 l
996.754 737.082 l
1002.11 732.671 l
1007.47 728.01 l
1012.82 723.094 l
1018.18 717.915 l
1023.54 712.468 l
1028.89 706.743 l
1034.25 700.733 l
1039.61 694.429 l
1044.96 687.82 l
1050.32 680.896 l
1055.68 673.645 l
1061.04 666.053 l
1066.39 658.107 l
1071.75 649.792 l
1077.11 641.09 l
1082.46 631.983 l
1087.82 622.449 l
1093.18 612.467 l
1098.53 602.01 l
1103.89 591.051 l
1109.25 579.558 l
1114.6 567.495 l
1119.96 554.822 l
1125.32 541.495 l
1130.67 527.462 l
1136.03 512.664 l
1141.39 497.034 l
1145.4 484.719 l
1149.42 471.855 l
1153.44 458.4 l
1157.46 444.308 l
1161.48 429.524 l
1165.49 413.991 l
1169.51 397.638 l
1173.53 380.392 l
1177.55 362.166 l
1181.56 342.865 l
1185.58 322.387 l
1189.6 300.626 l
1193.62 277.485 l
1197.63 252.897 l
1201.65 226.884 l
1207.01 190.41 l
1212.36 153.687 l
1215.04 136.622 l
1216.38 128.836 l
1217.72 121.763 l
1219.06 115.588 l
1220.4 110.497 l
1221.74 106.666 l
1223.08 104.244 l
1224.42 103.332 l
1225.76 103.968 l
1227.1 106.125 l
1228.44 109.714 l
1229.77 114.591 l
1231.11 120.586 l
1232.45 127.512 l
1235.13 143.43 l
1237.81 161.064 l
1249.86 242.838 l
1253.88 267.996 l
1257.9 291.701 l
1261.92 313.994 l
1265.93 334.963 l
1269.95 354.714 l
1273.97 373.351 l
1277.99 390.972 l
1282 407.666 l
1286.02 423.513 l
1290.04 438.583 l
1294.06 452.94 l
1298.07 466.64 l
1302.09 479.731 l
1307.45 496.313 l
1312.8 511.983 l
1318.16 526.816 l
1323.52 540.883 l
1328.88 554.24 l
1334.23 566.941 l
1339.59 579.03 l
1344.95 590.548 l
1350.3 601.531 l
1355.66 612.009 l
1361.02 622.012 l
1366.37 631.565 l
1371.73 640.691 l
1377.09 649.411 l
1382.44 657.743 l
1387.8 665.705 l
1393.16 673.312 l
1398.51 680.579 l
1403.87 687.517 l
1409.23 694.14 l
1414.58 700.458 l
1419.94 706.48 l
1425.3 712.218 l
1430.65 717.677 l
1436.01 722.868 l
1441.37 727.795 l
1446.72 732.468 l
1452.08 736.89 l
1457.44 741.069 l
1462.8 745.009 l
1468.15 748.715 l
1473.51 752.191 l
1478.87 755.442 l
1484.22 758.471 l
1489.58 761.281 l
1494.94 763.876 l
1500.29 766.259 l
1505.65 768.432 l
1511.01 770.397 l
1516.36 772.156 l
1521.72 773.712 l
1527.08 775.065 l
1532.43 776.218 l
1537.79 777.17 l
1543.15 777.925 l
1548.5 778.481 l
1553.86 778.84 l
1555.2 778.899 l
1555.2 778.899 l
stroke
grestore
0.000 0.500 0.000 setrgbcolor
gsave
1339 812.9 216 101.6 clipbox
216 779.01 m
221.625 778.899 l
227.249 778.571 l
232.874 778.025 l
238.632 777.24 l
244.391 776.225 l
250.15 774.98 l
255.908 773.503 l
261.667 771.792 l
267.425 769.844 l
273.184 767.659 l
278.942 765.232 l
284.701 762.562 l
290.46 759.645 l
296.218 756.476 l
301.977 753.052 l
307.735 749.369 l
313.494 745.422 l
319.252 741.205 l
325.011 736.712 l
330.769 731.936 l
336.528 726.872 l
342.287 721.51 l
348.045 715.844 l
353.804 709.863 l
359.562 703.557 l
365.321 696.916 l
371.079 689.928 l
376.704 682.754 l
382.329 675.223 l
387.953 667.321 l
393.578 659.03 l
399.203 650.334 l
404.693 641.435 l
410.184 632.111 l
415.675 622.34 l
421.032 612.352 l
426.388 601.89 l
431.611 591.206 l
436.834 580.014 l
441.923 568.589 l
447.012 556.619 l
451.967 544.401 l
456.922 531.589 l
461.743 518.511 l
466.564 504.781 l
471.252 490.756 l
475.805 476.442 l
480.358 461.388 l
484.777 446.008 l
489.063 430.303 l
493.348 413.748 l
497.5 396.822 l
501.517 379.529 l
505.535 361.253 l
509.419 342.56 l
513.302 322.766 l
517.186 301.775 l
520.936 280.288 l
524.82 256.71 l
528.837 230.907 l
533.524 199.244 l
541.56 144.606 l
543.836 130.815 l
545.577 121.535 l
547.05 114.859 l
548.256 110.382 l
549.327 107.258 l
550.13 105.493 l
550.934 104.251 l
551.604 103.63 l
552.139 103.409 l
552.675 103.435 l
553.211 103.709 l
553.746 104.227 l
554.416 105.214 l
555.219 106.881 l
556.157 109.461 l
557.228 113.185 l
558.433 118.259 l
559.907 125.548 l
561.648 135.385 l
563.924 149.661 l
567.272 172.248 l
576.379 234.297 l
580.53 260.75 l
584.414 284.101 l
588.298 306.112 l
592.181 326.854 l
596.065 346.418 l
600.083 365.519 l
604.1 383.563 l
608.252 401.197 l
612.537 418.418 l
616.823 434.73 l
621.242 450.683 l
625.795 466.278 l
630.348 481.089 l
635.036 495.584 l
639.857 509.761 l
644.678 523.252 l
649.633 536.458 l
654.588 549.043 l
659.677 561.365 l
664.766 573.118 l
669.989 584.626 l
675.212 595.608 l
680.568 606.358 l
685.925 616.617 l
691.416 626.651 l
696.907 636.225 l
702.397 645.361 l
708.022 654.289 l
713.647 662.801 l
719.271 670.915 l
724.896 678.649 l
730.655 686.188 l
736.413 693.361 l
742.172 700.179 l
747.93 706.656 l
753.689 712.803 l
759.447 718.63 l
765.206 724.148 l
770.964 729.364 l
776.723 734.288 l
782.482 738.925 l
788.24 743.284 l
793.999 747.37 l
799.757 751.188 l
805.516 754.745 l
811.274 758.044 l
817.033 761.09 l
822.792 763.888 l
828.55 766.439 l
834.309 768.749 l
840.067 770.818 l
845.826 772.651 l
851.584 774.248 l
857.343 775.613 l
863.101 776.746 l
868.86 777.649 l
874.619 778.323 l
880.377 778.769 l
886.136 778.986 l
891.894 778.976 l
897.519 778.747 l
903.144 778.301 l
908.902 777.618 l
914.661 776.706 l
920.419 775.563 l
926.178 774.19 l
931.936 772.583 l
937.695 770.741 l
943.453 768.662 l
949.212 766.343 l
954.971 763.782 l
960.729 760.974 l
966.488 757.918 l
972.246 754.609 l
978.005 751.042 l
983.763 747.213 l
989.522 743.116 l
995.28 738.747 l
1001.04 734.098 l
1006.8 729.163 l
1012.56 723.935 l
1018.31 718.405 l
1024.07 712.565 l
1029.83 706.405 l
1035.59 699.915 l
1041.35 693.083 l
1046.97 686.068 l
1052.6 678.702 l
1058.22 670.97 l
1063.85 662.859 l
1069.47 654.35 l
1074.96 645.643 l
1080.45 636.52 l
1085.94 626.96 l
1091.3 617.191 l
1096.66 606.959 l
1102.01 596.239 l
1107.24 585.287 l
1112.46 573.81 l
1117.55 562.09 l
1122.64 549.804 l
1127.59 537.256 l
1132.55 524.09 l
1137.37 510.641 l
1142.06 496.911 l
1146.74 482.485 l
1151.3 467.746 l
1155.72 452.699 l
1160.14 436.854 l
1164.42 420.658 l
1168.57 404.113 l
1172.72 386.645 l
1176.74 368.778 l
1180.76 349.871 l
1184.64 330.511 l
1188.53 309.991 l
1192.28 288.991 l
1196.03 266.752 l
1199.91 242.386 l
1204.2 214.025 l
1215.98 134.824 l
1217.86 124.349 l
1219.33 117.232 l
1220.67 111.838 l
1221.74 108.386 l
1222.68 106.066 l
1223.48 104.634 l
1224.15 103.85 l
1224.69 103.497 l
1225.22 103.39 l
1225.76 103.531 l
1226.29 103.918 l
1226.96 104.744 l
1227.63 105.942 l
1228.44 107.852 l
1229.37 110.698 l
1230.44 114.697 l
1231.78 120.687 l
1233.26 128.341 l
1235.13 139.325 l
1237.68 155.721 l
1241.96 185.082 l
1248.39 228.877 l
1252.54 255.626 l
1256.42 279.265 l
1260.31 301.555 l
1264.19 322.559 l
1268.08 342.365 l
1272.09 361.694 l
1276.11 379.947 l
1280.26 397.777 l
1284.55 415.182 l
1288.83 431.663 l
1293.25 447.775 l
1297.81 463.518 l
1302.36 478.466 l
1307.05 493.09 l
1311.73 507.002 l
1316.55 520.626 l
1321.51 533.957 l
1326.46 546.658 l
1331.55 559.092 l
1336.64 570.949 l
1341.87 582.557 l
1347.09 593.633 l
1352.45 604.474 l
1357.8 614.818 l
1363.29 624.936 l
1368.78 634.588 l
1374.27 643.799 l
1379.9 652.799 l
1385.52 661.381 l
1391.15 669.561 l
1396.77 677.359 l
1402.53 684.961 l
1408.29 692.193 l
1414.05 699.07 l
1419.81 705.603 l
1425.57 711.804 l
1431.32 717.684 l
1437.08 723.252 l
1442.84 728.518 l
1448.6 733.489 l
1454.36 738.174 l
1460.12 742.578 l
1465.88 746.709 l
1471.63 750.572 l
1477.39 754.172 l
1483.15 757.513 l
1488.91 760.601 l
1494.67 763.44 l
1500.43 766.032 l
1506.19 768.382 l
1511.94 770.491 l
1517.7 772.363 l
1523.46 773.999 l
1529.22 775.402 l
1534.98 776.574 l
1540.74 777.515 l
1546.5 778.227 l
1552.25 778.71 l
1555.2 778.869 l
1555.2 778.869 l
stroke
grestore
1.000 0.000 0.000 setrgbcolor
gsave
1339 812.9 216 101.6 clipbox
216 779.01 m
221.692 778.899 l
227.383 778.565 l
233.075 778.008 l
238.766 777.228 l
244.458 776.224 l
250.163 774.991 l
255.868 773.531 l
261.573 771.84 l
267.291 769.914 l
273.01 767.753 l
278.742 765.348 l
284.473 762.701 l
290.218 759.803 l
295.964 756.656 l
301.722 753.246 l
307.481 749.577 l
313.239 745.645 l
319.011 741.432 l
324.783 736.943 l
330.555 732.171 l
336.314 727.12 l
342.072 721.773 l
347.831 716.121 l
353.576 710.169 l
359.308 703.91 l
365.026 697.335 l
370.731 690.435 l
376.409 683.217 l
382.061 675.672 l
387.685 667.792 l
393.283 659.565 l
398.841 651.001 l
404.372 642.067 l
409.849 632.797 l
415.286 623.156 l
420.67 613.156 l
426 602.785 l
431.276 592.031 l
436.499 580.879 l
441.655 569.342 l
446.744 557.408 l
451.753 545.093 l
456.694 532.351 l
461.556 519.198 l
466.337 505.62 l
471.037 491.597 l
475.657 477.11 l
480.184 462.182 l
484.617 446.796 l
488.969 430.882 l
493.228 414.465 l
497.406 397.466 l
501.491 379.914 l
505.495 361.722 l
509.432 342.792 l
513.302 323.082 l
517.119 302.482 l
520.922 280.722 l
524.766 257.42 l
528.757 231.833 l
533.323 201.041 l
541.908 142.783 l
544.117 129.567 l
545.832 120.587 l
547.238 114.342 l
548.416 110.055 l
549.434 107.142 l
550.304 105.285 l
551.041 104.196 l
551.67 103.626 l
552.22 103.406 l
552.728 103.434 l
553.251 103.694 l
553.813 104.235 l
554.456 105.179 l
555.193 106.676 l
556.05 108.952 l
557.041 112.254 l
558.192 116.909 l
559.545 123.351 l
561.179 132.276 l
563.241 144.863 l
566.12 163.939 l
578.789 249.457 l
582.78 274.081 l
586.664 296.67 l
590.534 317.884 l
594.445 338.088 l
598.409 357.408 l
602.44 375.956 l
606.551 393.835 l
610.756 411.133 l
615.041 427.825 l
619.421 443.992 l
623.88 459.612 l
628.433 474.754 l
633.08 489.439 l
637.808 503.645 l
642.616 517.392 l
647.504 530.701 l
652.472 543.589 l
657.521 556.07 l
662.637 568.128 l
667.833 579.808 l
673.096 591.093 l
678.412 601.971 l
683.796 612.48 l
689.233 622.608 l
694.71 632.344 l
700.241 641.724 l
705.812 650.737 l
711.424 659.394 l
717.075 667.706 l
722.753 675.663 l
728.458 683.278 l
734.19 690.559 l
739.935 697.501 l
745.707 704.128 l
751.493 710.432 l
757.291 716.424 l
763.09 722.098 l
768.902 727.476 l
774.714 732.552 l
780.526 737.334 l
786.338 741.83 l
792.151 746.045 l
797.949 749.978 l
803.748 753.644 l
809.547 757.047 l
815.332 760.185 l
821.104 763.065 l
826.876 765.696 l
832.635 768.078 l
838.38 770.215 l
844.125 772.115 l
849.857 773.777 l
855.575 775.205 l
861.294 776.404 l
866.999 777.373 l
872.704 778.118 l
878.408 778.638 l
884.1 778.933 l
889.792 779.007 l
895.483 778.858 l
901.175 778.487 l
906.866 777.893 l
912.558 777.075 l
918.25 776.033 l
923.955 774.762 l
929.66 773.263 l
935.365 771.534 l
941.083 769.568 l
946.801 767.367 l
952.533 764.923 l
958.265 762.236 l
964.01 759.296 l
969.755 756.107 l
975.514 752.654 l
981.272 748.942 l
987.031 744.965 l
992.803 740.707 l
998.575 736.171 l
1004.35 731.351 l
1010.11 726.252 l
1015.86 720.854 l
1021.62 715.151 l
1027.37 709.146 l
1033.1 702.832 l
1038.82 696.201 l
1044.51 689.259 l
1050.19 681.982 l
1055.84 674.376 l
1061.46 666.432 l
1067.06 658.138 l
1072.62 649.505 l
1078.14 640.522 l
1083.61 631.178 l
1089.04 621.484 l
1094.42 611.405 l
1099.75 600.951 l
1105.01 590.138 l
1110.22 578.924 l
1115.37 567.325 l
1120.44 555.325 l
1125.44 542.943 l
1130.37 530.131 l
1135.21 516.906 l
1139.98 503.252 l
1144.67 489.15 l
1149.26 474.624 l
1153.77 459.611 l
1158.19 444.136 l
1162.53 428.129 l
1166.78 411.615 l
1170.94 394.513 l
1175.01 376.853 l
1179.01 358.546 l
1182.93 339.496 l
1186.79 319.66 l
1190.6 298.855 l
1194.41 276.878 l
1198.26 253.266 l
1202.31 227.097 l
1207.12 194.44 l
1214.25 145.889 l
1216.6 131.581 l
1218.38 121.999 l
1219.82 115.358 l
1221.04 110.741 l
1222.09 107.603 l
1222.98 105.569 l
1223.75 104.351 l
1224.4 103.694 l
1224.97 103.424 l
1225.48 103.413 l
1225.98 103.626 l
1226.55 104.119 l
1227.18 104.987 l
1227.9 106.387 l
1228.73 108.502 l
1229.69 111.601 l
1230.82 116.01 l
1232.13 122.1 l
1233.71 130.55 l
1235.68 142.362 l
1238.36 159.898 l
1243.88 197.907 l
1249.15 233.505 l
1253.3 260.002 l
1257.23 283.63 l
1261.1 305.595 l
1264.98 326.366 l
1268.91 346.155 l
1272.9 365.146 l
1276.97 383.445 l
1281.12 401.085 l
1285.35 418.102 l
1289.68 434.58 l
1294.1 450.541 l
1298.6 465.964 l
1303.19 480.918 l
1307.86 495.381 l
1312.63 509.414 l
1317.48 522.996 l
1322.41 536.144 l
1327.42 548.876 l
1332.49 561.174 l
1337.65 573.087 l
1342.87 584.597 l
1348.16 595.718 l
1353.5 606.436 l
1358.9 616.766 l
1364.35 626.722 l
1369.85 636.316 l
1375.4 645.535 l
1380.98 654.392 l
1386.61 662.899 l
1392.27 671.065 l
1397.96 678.882 l
1403.68 686.359 l
1409.43 693.507 l
1415.19 700.318 l
1420.96 706.802 l
1426.74 712.97 l
1432.54 718.828 l
1438.35 724.385 l
1444.17 729.635 l
1449.98 734.587 l
1455.79 739.249 l
1461.6 743.626 l
1467.42 747.727 l
1473.21 751.547 l
1479.01 755.102 l
1484.8 758.389 l
1490.58 761.422 l
1496.36 764.197 l
1502.11 766.72 l
1507.87 769.002 l
1513.62 771.039 l
1519.35 772.837 l
1525.08 774.402 l
1530.8 775.734 l
1536.52 776.837 l
1542.22 777.712 l
1547.93 778.363 l
1553.62 778.788 l
1555.2 778.867 l
1555.2 778.867 l
stroke
grestore
0.000 0.750 0.750 setrgbcolor
gsave
1339 812.9 216 101.6 clipbox
216 779.01 m
221.692 778.899 l
227.382 778.565 l
233.073 778.009 l
238.766 777.229 l
244.462 776.225 l
250.162 774.993 l
255.865 773.533 l
261.574 771.842 l
267.29 769.917 l
273.012 767.754 l
278.742 765.35 l
284.477 762.702 l
290.218 759.807 l
295.966 756.658 l
301.72 753.252 l
307.478 749.583 l
313.241 745.648 l
319.006 741.441 l
324.773 736.956 l
330.539 732.189 l
336.303 727.135 l
342.063 721.788 l
347.816 716.142 l
353.56 710.193 l
359.293 703.933 l
365.011 697.36 l
370.712 690.466 l
376.392 683.247 l
382.047 675.699 l
387.676 667.814 l
393.274 659.588 l
398.837 651.017 l
404.362 642.093 l
409.845 632.814 l
415.282 623.174 l
420.67 613.167 l
426.004 602.789 l
431.282 592.032 l
436.499 580.892 l
441.653 569.362 l
446.737 557.438 l
451.751 545.112 l
456.69 532.377 l
461.553 519.223 l
466.335 505.641 l
471.035 491.624 l
475.649 477.155 l
480.177 462.225 l
484.617 446.817 l
488.968 430.909 l
493.229 414.483 l
497.402 397.508 l
501.489 379.947 l
505.495 361.75 l
509.425 342.855 l
513.292 323.17 l
517.11 302.568 l
520.91 280.829 l
524.747 257.575 l
528.742 231.969 l
533.303 201.22 l
541.939 142.627 l
544.148 129.428 l
545.857 120.494 l
547.259 114.28 l
548.442 109.992 l
549.451 107.114 l
550.317 105.274 l
551.057 104.184 l
551.691 103.617 l
552.242 103.403 l
552.753 103.439 l
553.271 103.705 l
553.84 104.26 l
554.488 105.225 l
555.234 106.759 l
556.095 109.07 l
557.09 112.414 l
558.249 117.13 l
559.613 123.67 l
561.259 132.707 l
563.338 145.44 l
566.264 164.874 l
578.492 247.527 l
582.496 272.34 l
586.387 295.067 l
590.261 316.395 l
594.166 336.658 l
598.126 356.038 l
602.156 374.657 l
606.264 392.595 l
610.457 409.911 l
614.737 426.648 l
619.107 442.842 l
623.565 458.515 l
628.113 473.695 l
632.75 488.4 l
637.472 502.64 l
642.278 516.432 l
647.167 529.791 l
652.136 542.721 l
657.181 555.233 l
662.298 567.333 l
667.484 579.029 l
672.737 590.328 l
678.052 601.237 l
683.426 611.763 l
688.855 621.909 l
694.335 631.681 l
699.862 641.085 l
705.432 650.125 l
711.042 658.809 l
716.687 667.138 l
722.364 675.121 l
728.069 682.762 l
733.798 690.065 l
739.548 697.037 l
745.316 703.683 l
751.099 710.007 l
756.892 716.016 l
762.695 721.716 l
768.503 727.111 l
774.315 732.208 l
780.129 737.011 l
785.941 741.526 l
791.75 745.759 l
797.556 749.716 l
803.356 753.4 l
809.149 756.818 l
814.934 759.975 l
820.712 762.874 l
826.48 765.521 l
832.238 767.92 l
837.989 770.075 l
843.73 771.99 l
849.462 773.669 l
855.185 775.114 l
860.902 776.328 l
866.611 777.314 l
872.315 778.073 l
878.013 778.608 l
883.709 778.92 l
889.402 779.009 l
895.092 778.876 l
900.783 778.52 l
906.474 777.942 l
912.167 777.139 l
917.863 776.112 l
923.562 774.858 l
929.267 773.375 l
934.978 771.661 l
940.693 769.712 l
946.416 767.526 l
952.145 765.098 l
957.881 762.426 l
963.623 759.505 l
969.372 756.33 l
975.127 752.898 l
980.885 749.204 l
986.648 745.242 l
992.413 741.007 l
998.18 736.495 l
1003.95 731.7 l
1009.71 726.616 l
1015.47 721.239 l
1021.22 715.562 l
1026.97 709.581 l
1032.7 703.291 l
1038.42 696.685 l
1044.11 689.76 l
1049.79 682.508 l
1055.45 674.926 l
1061.07 667.007 l
1066.67 658.748 l
1072.22 650.142 l
1077.75 641.183 l
1083.22 631.868 l
1088.66 622.19 l
1094.04 612.146 l
1099.37 601.731 l
1104.64 590.935 l
1109.85 579.756 l
1115 568.187 l
1120.08 556.223 l
1125.08 543.858 l
1130.01 531.08 l
1134.87 517.883 l
1139.64 504.258 l
1144.33 490.195 l
1148.94 475.683 l
1153.46 460.708 l
1157.89 445.253 l
1162.23 429.296 l
1166.48 412.814 l
1170.65 395.779 l
1174.73 378.155 l
1178.73 359.886 l
1182.65 340.915 l
1186.51 321.142 l
1190.33 300.434 l
1194.13 278.567 l
1197.97 255.13 l
1202 229.204 l
1206.68 197.476 l
1214.47 144.559 l
1216.76 130.69 l
1218.51 121.367 l
1219.94 114.89 l
1221.15 110.407 l
1222.18 107.386 l
1223.06 105.442 l
1223.81 104.278 l
1224.46 103.661 l
1225.02 103.414 l
1225.53 103.424 l
1226.05 103.663 l
1226.61 104.182 l
1227.25 105.095 l
1227.98 106.557 l
1228.83 108.772 l
1229.81 111.987 l
1230.95 116.532 l
1232.29 122.844 l
1233.9 131.562 l
1235.91 143.803 l
1238.7 162.195 l
1252.29 253.634 l
1256.25 277.853 l
1260.13 300.21 l
1264.01 321.263 l
1267.93 341.302 l
1271.9 360.491 l
1275.95 378.94 l
1280.08 396.724 l
1284.29 413.9 l
1288.59 430.507 l
1292.98 446.574 l
1297.46 462.13 l
1302.03 477.199 l
1306.69 491.792 l
1311.43 505.926 l
1316.26 519.616 l
1321.16 532.872 l
1326.15 545.701 l
1331.21 558.116 l
1336.35 570.122 l
1341.55 581.725 l
1346.82 592.933 l
1352.15 603.753 l
1357.54 614.188 l
1362.98 624.245 l
1368.47 633.929 l
1374 643.247 l
1379.58 652.202 l
1385.2 660.801 l
1390.85 669.049 l
1396.54 676.95 l
1402.25 684.51 l
1407.98 691.735 l
1413.74 698.629 l
1419.51 705.199 l
1425.29 711.449 l
1431.09 717.385 l
1436.9 723.012 l
1442.7 728.337 l
1448.52 733.364 l
1454.33 738.099 l
1460.14 742.548 l
1465.95 746.716 l
1471.76 750.607 l
1477.55 754.229 l
1483.35 757.585 l
1489.13 760.681 l
1494.91 763.52 l
1500.67 766.108 l
1506.43 768.45 l
1512.18 770.548 l
1517.92 772.407 l
1523.65 774.03 l
1529.37 775.421 l
1535.08 776.581 l
1540.79 777.513 l
1546.49 778.22 l
1552.19 778.702 l
1555.2 778.867 l
1555.2 778.867 l
stroke
grestore
0 setlinejoin
0.000 setgray
gsave
216 914.49 m
1555.2 914.49 l
stroke
grestore
gsave
1555.2 101.61 m
1555.2 914.49 l
stroke
grestore
gsave
216 101.61 m
1555.2 101.61 l
stroke
grestore
gsave
216 101.61 m
216 914.49 l
stroke
grestore
0.500 setlinewidth
1 setlinejoin
0 setlinecap
gsave
/o {
gsave
newpath
translate
0.5 setlinewidth
1 setlinejoin
0 setlinecap
0 0 m
0 4 l
gsave
0.000 setgray
fill
grestore
stroke
grestore
} bind def
216 101.61 o
grestore
gsave
/o {
gsave
newpath
translate
0.5 setlinewidth
1 setlinejoin
0 setlinecap
0 0 m
0 -4 l
gsave
0.000 setgray
fill
grestore
stroke
grestore
} bind def
216 914.49 o
grestore
/BitstreamVeraSans-Roman findfont
12.000 scalefont
setfont
gsave
212.976562 88.485000 translate
0.000000 rotate
0.000000 0.000000 m /zero glyphshow
grestore
gsave
/o {
gsave
newpath
translate
0.5 setlinewidth
1 setlinejoin
0 setlinecap
0 0 m
0 4 l
gsave
0.000 setgray
fill
grestore
stroke
grestore
} bind def
483.84 101.61 o
grestore
gsave
/o {
gsave
newpath
translate
0.5 setlinewidth
1 setlinejoin
0 setlinecap
0 0 m
0 -4 l
gsave
0.000 setgray
fill
grestore
stroke
grestore
} bind def
483.84 914.49 o
grestore
gsave
481.058750 88.485000 translate
0.000000 rotate
0.000000 0.000000 m /two glyphshow
grestore
gsave
/o {
gsave
newpath
translate
0.5 setlinewidth
1 setlinejoin
0 setlinecap
0 0 m
0 4 l
gsave
0.000 setgray
fill
grestore
stroke
grestore
} bind def
751.68 101.61 o
grestore
gsave
/o {
gsave
newpath
translate
0.5 setlinewidth
1 setlinejoin
0 setlinecap
0 0 m
0 -4 l
gsave
0.000 setgray
fill
grestore
stroke
grestore
} bind def
751.68 914.49 o
grestore
gsave
748.492500 88.485000 translate
0.000000 rotate
0.000000 0.000000 m /four glyphshow
grestore
gsave
/o {
gsave
newpath
translate
0.5 setlinewidth
1 setlinejoin
0 setlinecap
0 0 m
0 4 l
gsave
0.000 setgray
fill
grestore
stroke
grestore
} bind def
1019.52 101.61 o
grestore
gsave
/o {
gsave
newpath
translate
0.5 setlinewidth
1 setlinejoin
0 setlinecap
0 0 m
0 -4 l
gsave
0.000 setgray
fill
grestore
stroke
grestore
} bind def
1019.52 914.49 o
grestore
gsave
1016.504375 88.485000 translate
0.000000 rotate
0.000000 0.000000 m /six glyphshow
grestore
gsave
/o {
gsave
newpath
translate
0.5 setlinewidth
1 setlinejoin
0 setlinecap
0 0 m
0 4 l
gsave
0.000 setgray
fill
grestore
stroke
grestore
} bind def
1287.36 101.61 o
grestore
gsave
/o {
gsave
newpath
translate
0.5 setlinewidth
1 setlinejoin
0 setlinecap
0 0 m
0 -4 l
gsave
0.000 setgray
fill
grestore
stroke
grestore
} bind def
1287.36 914.49 o
grestore
gsave
1284.360000 88.485000 translate
0.000000 rotate
0.000000 0.000000 m /eight glyphshow
grestore
gsave
/o {
gsave
newpath
translate
0.5 setlinewidth
1 setlinejoin
0 setlinecap
0 0 m
0 4 l
gsave
0.000 setgray
fill
grestore
stroke
grestore
} bind def
1555.2 101.61 o
grestore
gsave
/o {
gsave
newpath
translate
0.5 setlinewidth
1 setlinejoin
0 setlinecap
0 0 m
0 -4 l
gsave
0.000 setgray
fill
grestore
stroke
grestore
} bind def
1555.2 914.49 o
grestore
gsave
1548.614063 88.485000 translate
0.000000 rotate
0.000000 0.000000 m /one glyphshow
7.634766 0.000000 m /zero glyphshow
grestore
/BitstreamVeraSans-Roman findfont
14.000 scalefont
setfont
gsave
883.209375 70.344375 translate
0.000000 rotate
0.000000 0.000000 m /t glyphshow
grestore
gsave
/o {
gsave
newpath
translate
0.5 setlinewidth
1 setlinejoin
0 setlinecap
0 0 m
4 0 l
gsave
0.000 setgray
fill
grestore
stroke
grestore
} bind def
216 101.61 o
grestore
gsave
/o {
gsave
newpath
translate
0.5 setlinewidth
1 setlinejoin
0 setlinecap
0 0 m
-4 0 l
gsave
0.000 setgray
fill
grestore
stroke
grestore
} bind def
1555.2 101.61 o
grestore
/BitstreamVeraSans-Roman findfont
12.000 scalefont
setfont
gsave
195.015625 98.297500 translate
0.000000 rotate
0.000000 0.000000 m /one glyphshow
7.634766 0.000000 m /period glyphshow
11.449219 0.000000 m /zero glyphshow
grestore
gsave
/o {
gsave
newpath
translate
0.5 setlinewidth
1 setlinejoin
0 setlinecap
0 0 m
4 0 l
gsave
0.000 setgray
fill
grestore
stroke
grestore
} bind def
216 237.09 o
grestore
gsave
/o {
gsave
newpath
translate
0.5 setlinewidth
1 setlinejoin
0 setlinecap
0 0 m
-4 0 l
gsave
0.000 setgray
fill
grestore
stroke
grestore
} bind def
1555.2 237.09 o
grestore
gsave
195.421875 233.777500 translate
0.000000 rotate
0.000000 0.000000 m /one glyphshow
7.634766 0.000000 m /period glyphshow
11.449219 0.000000 m /two glyphshow
grestore
gsave
/o {
gsave
newpath
translate
0.5 setlinewidth
1 setlinejoin
0 setlinecap
0 0 m
4 0 l
gsave
0.000 setgray
fill
grestore
stroke
grestore
} bind def
216 372.57 o
grestore
gsave
/o {
gsave
newpath
translate
0.5 setlinewidth
1 setlinejoin
0 setlinecap
0 0 m
-4 0 l
gsave
0.000 setgray
fill
grestore
stroke
grestore
} bind def
1555.2 372.57 o
grestore
gsave
194.890625 369.257500 translate
0.000000 rotate
0.000000 0.000000 m /one glyphshow
7.634766 0.000000 m /period glyphshow
11.449219 0.000000 m /four glyphshow
grestore
gsave
/o {
gsave
newpath
translate
0.5 setlinewidth
1 setlinejoin
0 setlinecap
0 0 m
4 0 l
gsave
0.000 setgray
fill
grestore
stroke
grestore
} bind def
216 508.05 o
grestore
gsave
/o {
gsave
newpath
translate
0.5 setlinewidth
1 setlinejoin
0 setlinecap
0 0 m
-4 0 l
gsave
0.000 setgray
fill
grestore
stroke
grestore
} bind def
1555.2 508.05 o
grestore
gsave
194.984375 504.737500 translate
0.000000 rotate
0.000000 0.000000 m /one glyphshow
7.634766 0.000000 m /period glyphshow
11.449219 0.000000 m /six glyphshow
grestore
gsave
/o {
gsave
newpath
translate
0.5 setlinewidth
1 setlinejoin
0 setlinecap
0 0 m
4 0 l
gsave
0.000 setgray
fill
grestore
stroke
grestore
} bind def
216 643.53 o
grestore
gsave
/o {
gsave
newpath
translate
0.5 setlinewidth
1 setlinejoin
0 setlinecap
0 0 m
-4 0 l
gsave
0.000 setgray
fill
grestore
stroke
grestore
} bind def
1555.2 643.53 o
grestore
gsave
195.046875 640.217500 translate
0.000000 rotate
0.000000 0.000000 m /one glyphshow
7.634766 0.000000 m /period glyphshow
11.449219 0.000000 m /eight glyphshow
grestore
gsave
/o {
gsave
newpath
translate
0.5 setlinewidth
1 setlinejoin
0 setlinecap
0 0 m
4 0 l
gsave
0.000 setgray
fill
grestore
stroke
grestore
} bind def
216 779.01 o
grestore
gsave
/o {
gsave
newpath
translate
0.5 setlinewidth
1 setlinejoin
0 setlinecap
0 0 m
-4 0 l
gsave
0.000 setgray
fill
grestore
stroke
grestore
} bind def
1555.2 779.01 o
grestore
gsave
194.578125 775.697500 translate
0.000000 rotate
0.000000 0.000000 m /two glyphshow
7.634766 0.000000 m /period glyphshow
11.449219 0.000000 m /zero glyphshow
grestore
gsave
/o {
gsave
newpath
translate
0.5 setlinewidth
1 setlinejoin
0 setlinecap
0 0 m
4 0 l
gsave
0.000 setgray
fill
grestore
stroke
grestore
} bind def
216 914.49 o
grestore
gsave
/o {
gsave
newpath
translate
0.5 setlinewidth
1 setlinejoin
0 setlinecap
0 0 m
-4 0 l
gsave
0.000 setgray
fill
grestore
stroke
grestore
} bind def
1555.2 914.49 o
grestore
gsave
194.984375 911.177500 translate
0.000000 rotate
0.000000 0.000000 m /two glyphshow
7.634766 0.000000 m /period glyphshow
11.449219 0.000000 m /two glyphshow
grestore
/BitstreamVeraSans-Roman findfont
14.000 scalefont
setfont
gsave
186.671875 504.339062 translate
90.000000 rotate
0.000000 0.000000 m /x glyphshow
grestore
gsave
876.560938 919.490000 translate
0.000000 rotate
0.000000 0.000000 m /x glyphshow
8.285156 0.000000 m /hyphen glyphshow
13.336914 0.000000 m /t glyphshow
grestore
1.000 setlinewidth
0 setlinejoin
gsave
1411.22 819.982 m
1548 819.982 l
1548 907.29 l
1411.22 907.29 l
cl
gsave
1.000 setgray
fill
grestore
stroke
grestore
1 setlinejoin
2 setlinecap
0.000 0.000 1.000 setrgbcolor
gsave
1421.3 895.929 m
1441.46 895.929 l
stroke
grestore
0.000 setgray
/BitstreamVeraSans-Roman findfont
14.400 scalefont
setfont
gsave
1457.302500 890.889375 translate
0.000000 rotate
0.000000 0.000000 m /t glyphshow
5.636292 0.000000 m /space glyphshow
10.205688 0.000000 m /equal glyphshow
22.250366 0.000000 m /space glyphshow
26.819763 0.000000 m /zero glyphshow
35.965576 0.000000 m /period glyphshow
40.534973 0.000000 m /zero glyphshow
49.680786 0.000000 m /one glyphshow
grestore
0.000 0.500 0.000 setrgbcolor
gsave
1421.3 875.182 m
1441.46 875.182 l
stroke
grestore
0.000 setgray
gsave
1457.302500 870.142500 translate
0.000000 rotate
0.000000 0.000000 m /t glyphshow
5.636292 0.000000 m /space glyphshow
10.205688 0.000000 m /equal glyphshow
22.250366 0.000000 m /space glyphshow
26.819763 0.000000 m /zero glyphshow
35.965576 0.000000 m /period glyphshow
40.534973 0.000000 m /zero glyphshow
49.680786 0.000000 m /zero glyphshow
58.826599 0.000000 m /one glyphshow
grestore
1.000 0.000 0.000 setrgbcolor
gsave
1421.3 854.436 m
1441.46 854.436 l
stroke
grestore
0.000 setgray
gsave
1457.302500 849.395625 translate
0.000000 rotate
0.000000 0.000000 m /t glyphshow
5.636292 0.000000 m /space glyphshow
10.205688 0.000000 m /equal glyphshow
22.250366 0.000000 m /space glyphshow
26.819763 0.000000 m /zero glyphshow
35.965576 0.000000 m /period glyphshow
40.534973 0.000000 m /zero glyphshow
49.680786 0.000000 m /zero glyphshow
58.826599 0.000000 m /zero glyphshow
67.972412 0.000000 m /one glyphshow
grestore
0.000 0.750 0.750 setrgbcolor
gsave
1421.3 833.689 m
1441.46 833.689 l
stroke
grestore
0.000 setgray
gsave
1457.302500 828.648750 translate
0.000000 rotate
0.000000 0.000000 m /t glyphshow
5.636292 0.000000 m /space glyphshow
10.205688 0.000000 m /equal glyphshow
22.250366 0.000000 m /space glyphshow
26.819763 0.000000 m /zero glyphshow
35.965576 0.000000 m /period glyphshow
40.534973 0.000000 m /zero glyphshow
49.680786 0.000000 m /zero glyphshow
58.826599 0.000000 m /zero glyphshow
67.972412 0.000000 m /zero glyphshow
77.118225 0.000000 m /one glyphshow
grestore

end
showpage
