%!PS-Adobe-3.0 EPSF-3.0
%%Title: /home/sunoru/Study/computational-physics/homework/c2/2-9_E_h.eps
%%Creator: matplotlib version 1.4.3, http://matplotlib.org/
%%CreationDate: Mon Dec 21 01:03:30 2015
%%Orientation: portrait
%%BoundingBox: -414 35 1026 756
%%EndComments
%%BeginProlog
/mpldict 8 dict def
mpldict begin
/m { moveto } bind def
/l { lineto } bind def
/r { rlineto } bind def
/c { curveto } bind def
/cl { closepath } bind def
/box {
m
1 index 0 r
0 exch r
neg 0 r
cl
} bind def
/clipbox {
box
clip
newpath
} bind def
%!PS-Adobe-3.0 Resource-Font
%%Title: Bitstream Vera Sans
%%Copyright: Copyright (c) 2003 by Bitstream, Inc. All Rights Reserved.
%%Creator: Converted from TrueType to type 3 by PPR
25 dict begin
/_d{bind def}bind def
/_m{moveto}_d
/_l{lineto}_d
/_cl{closepath eofill}_d
/_c{curveto}_d
/_sc{7 -1 roll{setcachedevice}{pop pop pop pop pop pop}ifelse}_d
/_e{exec}_d
/FontName /BitstreamVeraSans-Roman def
/PaintType 0 def
/FontMatrix[.001 0 0 .001 0 0]def
/FontBBox[-183 -236 1287 928]def
/FontType 3 def
/Encoding [ /parenleft /parenright /hyphen /zero /one /two /three /four /five /six /E /T /h ] def
/FontInfo 10 dict dup begin
/FamilyName (Bitstream Vera Sans) def
/FullName (Bitstream Vera Sans) def
/Notice (Copyright (c) 2003 by Bitstream, Inc. All Rights Reserved. Bitstream Vera is a trademark of Bitstream, Inc.) def
/Weight (Roman) def
/Version (Release 1.10) def
/ItalicAngle 0.0 def
/isFixedPitch false def
/UnderlinePosition -213 def
/UnderlineThickness 143 def
end readonly def
/CharStrings 13 dict dup begin
/parenleft{390 0 86 -131 310 759 _sc
310 759 _m
266 683 234 609 213 536 _c
191 463 181 389 181 314 _c
181 238 191 164 213 91 _c
234 17 266 -56 310 -131 _c
232 -131 _l
183 -54 146 20 122 94 _c
98 168 86 241 86 314 _c
86 386 98 459 122 533 _c
146 607 182 682 232 759 _c
310 759 _l
_cl}_d
/parenright{390 0 80 -131 304 759 _sc
80 759 _m
158 759 _l
206 682 243 607 267 533 _c
291 459 304 386 304 314 _c
304 241 291 168 267 94 _c
243 20 206 -54 158 -131 _c
80 -131 _l
123 -56 155 17 177 91 _c
198 164 209 238 209 314 _c
209 389 198 463 177 536 _c
155 609 123 683 80 759 _c
_cl}_d
/hyphen{361 0 49 234 312 314 _sc
49 314 _m
312 314 _l
312 234 _l
49 234 _l
49 314 _l
_cl}_d
/zero{636 0 66 -13 570 742 _sc
318 664 _m
267 664 229 639 203 589 _c
177 539 165 464 165 364 _c
165 264 177 189 203 139 _c
229 89 267 64 318 64 _c
369 64 407 89 433 139 _c
458 189 471 264 471 364 _c
471 464 458 539 433 589 _c
407 639 369 664 318 664 _c
318 742 _m
399 742 461 709 505 645 _c
548 580 570 486 570 364 _c
570 241 548 147 505 83 _c
461 19 399 -13 318 -13 _c
236 -13 173 19 130 83 _c
87 147 66 241 66 364 _c
66 486 87 580 130 645 _c
173 709 236 742 318 742 _c
_cl}_d
/one{636 0 110 0 544 729 _sc
124 83 _m
285 83 _l
285 639 _l
110 604 _l
110 694 _l
284 729 _l
383 729 _l
383 83 _l
544 83 _l
544 0 _l
124 0 _l
124 83 _l
_cl}_d
/two{{636 0 73 0 536 742 _sc
192 83 _m
536 83 _l
536 0 _l
73 0 _l
73 83 _l
110 121 161 173 226 239 _c
290 304 331 346 348 365 _c
380 400 402 430 414 455 _c
426 479 433 504 433 528 _c
433 566 419 598 392 622 _c
365 646 330 659 286 659 _c
255 659 222 653 188 643 _c
154 632 117 616 78 594 _c
78 694 _l
118 710 155 722 189 730 _c
223 738 255 742 284 742 _c
}_e{359 742 419 723 464 685 _c
509 647 532 597 532 534 _c
532 504 526 475 515 449 _c
504 422 484 390 454 354 _c
446 344 420 317 376 272 _c
332 227 271 164 192 83 _c
_cl}_e}_d
/three{{636 0 76 -13 556 742 _sc
406 393 _m
453 383 490 362 516 330 _c
542 298 556 258 556 212 _c
556 140 531 84 482 45 _c
432 6 362 -13 271 -13 _c
240 -13 208 -10 176 -4 _c
144 1 110 10 76 22 _c
76 117 _l
103 101 133 89 166 81 _c
198 73 232 69 268 69 _c
330 69 377 81 409 105 _c
441 129 458 165 458 212 _c
458 254 443 288 413 312 _c
383 336 341 349 287 349 _c
}_e{202 349 _l
202 430 _l
291 430 _l
339 430 376 439 402 459 _c
428 478 441 506 441 543 _c
441 580 427 609 401 629 _c
374 649 336 659 287 659 _c
260 659 231 656 200 650 _c
169 644 135 635 98 623 _c
98 711 _l
135 721 170 729 203 734 _c
235 739 266 742 296 742 _c
370 742 429 725 473 691 _c
517 657 539 611 539 553 _c
539 513 527 479 504 451 _c
481 423 448 403 406 393 _c
_cl}_e}_d
/four{636 0 49 0 580 729 _sc
378 643 _m
129 254 _l
378 254 _l
378 643 _l
352 729 _m
476 729 _l
476 254 _l
580 254 _l
580 172 _l
476 172 _l
476 0 _l
378 0 _l
378 172 _l
49 172 _l
49 267 _l
352 729 _l
_cl}_d
/five{{636 0 77 -13 549 729 _sc
108 729 _m
495 729 _l
495 646 _l
198 646 _l
198 467 _l
212 472 227 476 241 478 _c
255 480 270 482 284 482 _c
365 482 429 459 477 415 _c
525 370 549 310 549 234 _c
549 155 524 94 475 51 _c
426 8 357 -13 269 -13 _c
238 -13 207 -10 175 -6 _c
143 -1 111 6 77 17 _c
77 116 _l
106 100 136 88 168 80 _c
199 72 232 69 267 69 _c
}_e{323 69 368 83 401 113 _c
433 143 450 183 450 234 _c
450 284 433 324 401 354 _c
368 384 323 399 267 399 _c
241 399 214 396 188 390 _c
162 384 135 375 108 363 _c
108 729 _l
_cl}_e}_d
/six{{636 0 70 -13 573 742 _sc
330 404 _m
286 404 251 388 225 358 _c
199 328 186 286 186 234 _c
186 181 199 139 225 109 _c
251 79 286 64 330 64 _c
374 64 409 79 435 109 _c
461 139 474 181 474 234 _c
474 286 461 328 435 358 _c
409 388 374 404 330 404 _c
526 713 _m
526 623 _l
501 635 476 644 451 650 _c
425 656 400 659 376 659 _c
310 659 260 637 226 593 _c
}_e{192 549 172 482 168 394 _c
187 422 211 444 240 459 _c
269 474 301 482 336 482 _c
409 482 467 459 509 415 _c
551 371 573 310 573 234 _c
573 159 550 99 506 54 _c
462 9 403 -13 330 -13 _c
246 -13 181 19 137 83 _c
92 147 70 241 70 364 _c
70 479 97 571 152 639 _c
206 707 280 742 372 742 _c
396 742 421 739 447 735 _c
472 730 498 723 526 713 _c
_cl}_e}_d
/E{632 0 98 0 568 729 _sc
98 729 _m
559 729 _l
559 646 _l
197 646 _l
197 430 _l
544 430 _l
544 347 _l
197 347 _l
197 83 _l
568 83 _l
568 0 _l
98 0 _l
98 729 _l
_cl}_d
/T{611 0 -2 0 614 729 _sc
-2 729 _m
614 729 _l
614 646 _l
355 646 _l
355 0 _l
256 0 _l
256 646 _l
-2 646 _l
-2 729 _l
_cl}_d
/h{634 0 91 0 549 760 _sc
549 330 _m
549 0 _l
459 0 _l
459 327 _l
459 379 448 417 428 443 _c
408 469 378 482 338 482 _c
289 482 251 466 223 435 _c
195 404 181 362 181 309 _c
181 0 _l
91 0 _l
91 760 _l
181 760 _l
181 462 _l
202 494 227 519 257 535 _c
286 551 320 560 358 560 _c
420 560 468 540 500 501 _c
532 462 549 405 549 330 _c
_cl}_d
end readonly def

/BuildGlyph
 {exch begin
 CharStrings exch
 2 copy known not{pop /.notdef}if
 true 3 1 roll get exec
 end}_d

/BuildChar {
 1 index /Encoding get exch get
 1 index /BuildGlyph get exec
}_d

FontName currentdict end definefont pop
end
%%EndProlog
mpldict begin
-414 35.1 translate
1440 721.8 0 0 clipbox
gsave
0 0 m
1440 0 l
1440 721.8 l
0 721.8 l
cl
1.000 setgray
fill
grestore
gsave
180 72.18 m
1296 72.18 l
1296 649.62 l
180 649.62 l
cl
1.000 setgray
fill
grestore
1.000 setlinewidth
1 setlinejoin
2 setlinecap
[] 0 setdash
0.000 0.000 1.000 setrgbcolor
gsave
1116 577.4 180 72.18 clipbox
1296 160.48 m
924 543.42 l
552 620.951 l
180 624.598 l
stroke
grestore
0.500 setlinewidth
0 setlinecap
0.000 setgray
gsave
1116 577.4 180 72.18 clipbox
/o {
gsave
newpath
translate
0.5 setlinewidth
1 setlinejoin
0 setlinecap
0 -3 m
0.795609 -3 1.55874 -2.6839 2.12132 -2.12132 c
2.6839 -1.55874 3 -0.795609 3 0 c
3 0.795609 2.6839 1.55874 2.12132 2.12132 c
1.55874 2.6839 0.795609 3 0 3 c
-0.795609 3 -1.55874 2.6839 -2.12132 2.12132 c
-2.6839 1.55874 -3 0.795609 -3 0 c
-3 -0.795609 -2.6839 -1.55874 -2.12132 -2.12132 c
-1.55874 -2.6839 -0.795609 -3 0 -3 c
cl
gsave
0.000 0.000 1.000 setrgbcolor
fill
grestore
stroke
grestore
} bind def
1296 160.48 o
924 543.42 o
552 620.951 o
180 624.598 o
grestore
1.000 setlinewidth
0 setlinejoin
2 setlinecap
gsave
180 649.62 m
1296 649.62 l
stroke
grestore
gsave
1296 72.18 m
1296 649.62 l
stroke
grestore
gsave
180 72.18 m
1296 72.18 l
stroke
grestore
gsave
180 72.18 m
180 649.62 l
stroke
grestore
gsave
166.500000 56.680000 translate
0.000000 rotate
/BitstreamVeraSans-Roman findfont
12.0 scalefont
setfont
0.000000 0.575000 moveto
/one glyphshow

7.634766 0.575000 moveto
/zero glyphshow

/BitstreamVeraSans-Roman findfont
8.4 scalefont
setfont
15.269531 6.875000 moveto
/hyphen glyphshow

18.300586 6.875000 moveto
/five glyphshow


grestore
0.500 setlinewidth
1 setlinejoin
0 setlinecap
gsave
/o {
gsave
newpath
translate
0.5 setlinewidth
1 setlinejoin
0 setlinecap
0 0 m
0 4 l
gsave
0.000 setgray
fill
grestore
stroke
grestore
} bind def
552 72.18 o
grestore
gsave
/o {
gsave
newpath
translate
0.5 setlinewidth
1 setlinejoin
0 setlinecap
0 0 m
0 -4 l
gsave
0.000 setgray
fill
grestore
stroke
grestore
} bind def
552 649.62 o
grestore
gsave
538.500000 56.680000 translate
0.000000 rotate
/BitstreamVeraSans-Roman findfont
12.0 scalefont
setfont
0.000000 0.575000 moveto
/one glyphshow

7.634766 0.575000 moveto
/zero glyphshow

/BitstreamVeraSans-Roman findfont
8.4 scalefont
setfont
15.269531 6.875000 moveto
/hyphen glyphshow

18.300586 6.875000 moveto
/four glyphshow


grestore
gsave
/o {
gsave
newpath
translate
0.5 setlinewidth
1 setlinejoin
0 setlinecap
0 0 m
0 4 l
gsave
0.000 setgray
fill
grestore
stroke
grestore
} bind def
924 72.18 o
grestore
gsave
/o {
gsave
newpath
translate
0.5 setlinewidth
1 setlinejoin
0 setlinecap
0 0 m
0 -4 l
gsave
0.000 setgray
fill
grestore
stroke
grestore
} bind def
924 649.62 o
grestore
gsave
910.500000 56.680000 translate
0.000000 rotate
/BitstreamVeraSans-Roman findfont
12.0 scalefont
setfont
0.000000 0.465625 moveto
/one glyphshow

7.634766 0.465625 moveto
/zero glyphshow

/BitstreamVeraSans-Roman findfont
8.4 scalefont
setfont
15.269531 6.765625 moveto
/hyphen glyphshow

18.300586 6.765625 moveto
/three glyphshow


grestore
gsave
/o {
gsave
newpath
translate
0.5 setlinewidth
1 setlinejoin
0 setlinecap
0 0 m
0 4 l
gsave
0.000 setgray
fill
grestore
stroke
grestore
} bind def
1296 72.18 o
grestore
gsave
/o {
gsave
newpath
translate
0.5 setlinewidth
1 setlinejoin
0 setlinecap
0 0 m
0 -4 l
gsave
0.000 setgray
fill
grestore
stroke
grestore
} bind def
1296 649.62 o
grestore
gsave
1282.500000 56.680000 translate
0.000000 rotate
/BitstreamVeraSans-Roman findfont
12.0 scalefont
setfont
0.000000 0.465625 moveto
/one glyphshow

7.634766 0.465625 moveto
/zero glyphshow

/BitstreamVeraSans-Roman findfont
8.4 scalefont
setfont
15.269531 6.765625 moveto
/hyphen glyphshow

18.300586 6.765625 moveto
/two glyphshow


grestore
gsave
/o {
gsave
newpath
translate
0.5 setlinewidth
1 setlinejoin
0 setlinecap
0 0 m
0 2 l
gsave
0.000 setgray
fill
grestore
stroke
grestore
} bind def
291.983 72.18 o
grestore
gsave
/o {
gsave
newpath
translate
0.5 setlinewidth
1 setlinejoin
0 setlinecap
0 0 m
0 -2 l
gsave
0.000 setgray
fill
grestore
stroke
grestore
} bind def
291.983 649.62 o
grestore
gsave
/o {
gsave
newpath
translate
0.5 setlinewidth
1 setlinejoin
0 setlinecap
0 0 m
0 2 l
gsave
0.000 setgray
fill
grestore
stroke
grestore
} bind def
357.489 72.18 o
grestore
gsave
/o {
gsave
newpath
translate
0.5 setlinewidth
1 setlinejoin
0 setlinecap
0 0 m
0 -2 l
gsave
0.000 setgray
fill
grestore
stroke
grestore
} bind def
357.489 649.62 o
grestore
gsave
/o {
gsave
newpath
translate
0.5 setlinewidth
1 setlinejoin
0 setlinecap
0 0 m
0 2 l
gsave
0.000 setgray
fill
grestore
stroke
grestore
} bind def
403.966 72.18 o
grestore
gsave
/o {
gsave
newpath
translate
0.5 setlinewidth
1 setlinejoin
0 setlinecap
0 0 m
0 -2 l
gsave
0.000 setgray
fill
grestore
stroke
grestore
} bind def
403.966 649.62 o
grestore
gsave
/o {
gsave
newpath
translate
0.5 setlinewidth
1 setlinejoin
0 setlinecap
0 0 m
0 2 l
gsave
0.000 setgray
fill
grestore
stroke
grestore
} bind def
440.017 72.18 o
grestore
gsave
/o {
gsave
newpath
translate
0.5 setlinewidth
1 setlinejoin
0 setlinecap
0 0 m
0 -2 l
gsave
0.000 setgray
fill
grestore
stroke
grestore
} bind def
440.017 649.62 o
grestore
gsave
/o {
gsave
newpath
translate
0.5 setlinewidth
1 setlinejoin
0 setlinecap
0 0 m
0 2 l
gsave
0.000 setgray
fill
grestore
stroke
grestore
} bind def
469.472 72.18 o
grestore
gsave
/o {
gsave
newpath
translate
0.5 setlinewidth
1 setlinejoin
0 setlinecap
0 0 m
0 -2 l
gsave
0.000 setgray
fill
grestore
stroke
grestore
} bind def
469.472 649.62 o
grestore
gsave
/o {
gsave
newpath
translate
0.5 setlinewidth
1 setlinejoin
0 setlinecap
0 0 m
0 2 l
gsave
0.000 setgray
fill
grestore
stroke
grestore
} bind def
494.376 72.18 o
grestore
gsave
/o {
gsave
newpath
translate
0.5 setlinewidth
1 setlinejoin
0 setlinecap
0 0 m
0 -2 l
gsave
0.000 setgray
fill
grestore
stroke
grestore
} bind def
494.376 649.62 o
grestore
gsave
/o {
gsave
newpath
translate
0.5 setlinewidth
1 setlinejoin
0 setlinecap
0 0 m
0 2 l
gsave
0.000 setgray
fill
grestore
stroke
grestore
} bind def
515.949 72.18 o
grestore
gsave
/o {
gsave
newpath
translate
0.5 setlinewidth
1 setlinejoin
0 setlinecap
0 0 m
0 -2 l
gsave
0.000 setgray
fill
grestore
stroke
grestore
} bind def
515.949 649.62 o
grestore
gsave
/o {
gsave
newpath
translate
0.5 setlinewidth
1 setlinejoin
0 setlinecap
0 0 m
0 2 l
gsave
0.000 setgray
fill
grestore
stroke
grestore
} bind def
534.978 72.18 o
grestore
gsave
/o {
gsave
newpath
translate
0.5 setlinewidth
1 setlinejoin
0 setlinecap
0 0 m
0 -2 l
gsave
0.000 setgray
fill
grestore
stroke
grestore
} bind def
534.978 649.62 o
grestore
gsave
/o {
gsave
newpath
translate
0.5 setlinewidth
1 setlinejoin
0 setlinecap
0 0 m
0 2 l
gsave
0.000 setgray
fill
grestore
stroke
grestore
} bind def
663.983 72.18 o
grestore
gsave
/o {
gsave
newpath
translate
0.5 setlinewidth
1 setlinejoin
0 setlinecap
0 0 m
0 -2 l
gsave
0.000 setgray
fill
grestore
stroke
grestore
} bind def
663.983 649.62 o
grestore
gsave
/o {
gsave
newpath
translate
0.5 setlinewidth
1 setlinejoin
0 setlinecap
0 0 m
0 2 l
gsave
0.000 setgray
fill
grestore
stroke
grestore
} bind def
729.489 72.18 o
grestore
gsave
/o {
gsave
newpath
translate
0.5 setlinewidth
1 setlinejoin
0 setlinecap
0 0 m
0 -2 l
gsave
0.000 setgray
fill
grestore
stroke
grestore
} bind def
729.489 649.62 o
grestore
gsave
/o {
gsave
newpath
translate
0.5 setlinewidth
1 setlinejoin
0 setlinecap
0 0 m
0 2 l
gsave
0.000 setgray
fill
grestore
stroke
grestore
} bind def
775.966 72.18 o
grestore
gsave
/o {
gsave
newpath
translate
0.5 setlinewidth
1 setlinejoin
0 setlinecap
0 0 m
0 -2 l
gsave
0.000 setgray
fill
grestore
stroke
grestore
} bind def
775.966 649.62 o
grestore
gsave
/o {
gsave
newpath
translate
0.5 setlinewidth
1 setlinejoin
0 setlinecap
0 0 m
0 2 l
gsave
0.000 setgray
fill
grestore
stroke
grestore
} bind def
812.017 72.18 o
grestore
gsave
/o {
gsave
newpath
translate
0.5 setlinewidth
1 setlinejoin
0 setlinecap
0 0 m
0 -2 l
gsave
0.000 setgray
fill
grestore
stroke
grestore
} bind def
812.017 649.62 o
grestore
gsave
/o {
gsave
newpath
translate
0.5 setlinewidth
1 setlinejoin
0 setlinecap
0 0 m
0 2 l
gsave
0.000 setgray
fill
grestore
stroke
grestore
} bind def
841.472 72.18 o
grestore
gsave
/o {
gsave
newpath
translate
0.5 setlinewidth
1 setlinejoin
0 setlinecap
0 0 m
0 -2 l
gsave
0.000 setgray
fill
grestore
stroke
grestore
} bind def
841.472 649.62 o
grestore
gsave
/o {
gsave
newpath
translate
0.5 setlinewidth
1 setlinejoin
0 setlinecap
0 0 m
0 2 l
gsave
0.000 setgray
fill
grestore
stroke
grestore
} bind def
866.376 72.18 o
grestore
gsave
/o {
gsave
newpath
translate
0.5 setlinewidth
1 setlinejoin
0 setlinecap
0 0 m
0 -2 l
gsave
0.000 setgray
fill
grestore
stroke
grestore
} bind def
866.376 649.62 o
grestore
gsave
/o {
gsave
newpath
translate
0.5 setlinewidth
1 setlinejoin
0 setlinecap
0 0 m
0 2 l
gsave
0.000 setgray
fill
grestore
stroke
grestore
} bind def
887.949 72.18 o
grestore
gsave
/o {
gsave
newpath
translate
0.5 setlinewidth
1 setlinejoin
0 setlinecap
0 0 m
0 -2 l
gsave
0.000 setgray
fill
grestore
stroke
grestore
} bind def
887.949 649.62 o
grestore
gsave
/o {
gsave
newpath
translate
0.5 setlinewidth
1 setlinejoin
0 setlinecap
0 0 m
0 2 l
gsave
0.000 setgray
fill
grestore
stroke
grestore
} bind def
906.978 72.18 o
grestore
gsave
/o {
gsave
newpath
translate
0.5 setlinewidth
1 setlinejoin
0 setlinecap
0 0 m
0 -2 l
gsave
0.000 setgray
fill
grestore
stroke
grestore
} bind def
906.978 649.62 o
grestore
gsave
/o {
gsave
newpath
translate
0.5 setlinewidth
1 setlinejoin
0 setlinecap
0 0 m
0 2 l
gsave
0.000 setgray
fill
grestore
stroke
grestore
} bind def
1035.98 72.18 o
grestore
gsave
/o {
gsave
newpath
translate
0.5 setlinewidth
1 setlinejoin
0 setlinecap
0 0 m
0 -2 l
gsave
0.000 setgray
fill
grestore
stroke
grestore
} bind def
1035.98 649.62 o
grestore
gsave
/o {
gsave
newpath
translate
0.5 setlinewidth
1 setlinejoin
0 setlinecap
0 0 m
0 2 l
gsave
0.000 setgray
fill
grestore
stroke
grestore
} bind def
1101.49 72.18 o
grestore
gsave
/o {
gsave
newpath
translate
0.5 setlinewidth
1 setlinejoin
0 setlinecap
0 0 m
0 -2 l
gsave
0.000 setgray
fill
grestore
stroke
grestore
} bind def
1101.49 649.62 o
grestore
gsave
/o {
gsave
newpath
translate
0.5 setlinewidth
1 setlinejoin
0 setlinecap
0 0 m
0 2 l
gsave
0.000 setgray
fill
grestore
stroke
grestore
} bind def
1147.97 72.18 o
grestore
gsave
/o {
gsave
newpath
translate
0.5 setlinewidth
1 setlinejoin
0 setlinecap
0 0 m
0 -2 l
gsave
0.000 setgray
fill
grestore
stroke
grestore
} bind def
1147.97 649.62 o
grestore
gsave
/o {
gsave
newpath
translate
0.5 setlinewidth
1 setlinejoin
0 setlinecap
0 0 m
0 2 l
gsave
0.000 setgray
fill
grestore
stroke
grestore
} bind def
1184.02 72.18 o
grestore
gsave
/o {
gsave
newpath
translate
0.5 setlinewidth
1 setlinejoin
0 setlinecap
0 0 m
0 -2 l
gsave
0.000 setgray
fill
grestore
stroke
grestore
} bind def
1184.02 649.62 o
grestore
gsave
/o {
gsave
newpath
translate
0.5 setlinewidth
1 setlinejoin
0 setlinecap
0 0 m
0 2 l
gsave
0.000 setgray
fill
grestore
stroke
grestore
} bind def
1213.47 72.18 o
grestore
gsave
/o {
gsave
newpath
translate
0.5 setlinewidth
1 setlinejoin
0 setlinecap
0 0 m
0 -2 l
gsave
0.000 setgray
fill
grestore
stroke
grestore
} bind def
1213.47 649.62 o
grestore
gsave
/o {
gsave
newpath
translate
0.5 setlinewidth
1 setlinejoin
0 setlinecap
0 0 m
0 2 l
gsave
0.000 setgray
fill
grestore
stroke
grestore
} bind def
1238.38 72.18 o
grestore
gsave
/o {
gsave
newpath
translate
0.5 setlinewidth
1 setlinejoin
0 setlinecap
0 0 m
0 -2 l
gsave
0.000 setgray
fill
grestore
stroke
grestore
} bind def
1238.38 649.62 o
grestore
gsave
/o {
gsave
newpath
translate
0.5 setlinewidth
1 setlinejoin
0 setlinecap
0 0 m
0 2 l
gsave
0.000 setgray
fill
grestore
stroke
grestore
} bind def
1259.95 72.18 o
grestore
gsave
/o {
gsave
newpath
translate
0.5 setlinewidth
1 setlinejoin
0 setlinecap
0 0 m
0 -2 l
gsave
0.000 setgray
fill
grestore
stroke
grestore
} bind def
1259.95 649.62 o
grestore
gsave
/o {
gsave
newpath
translate
0.5 setlinewidth
1 setlinejoin
0 setlinecap
0 0 m
0 2 l
gsave
0.000 setgray
fill
grestore
stroke
grestore
} bind def
1278.98 72.18 o
grestore
gsave
/o {
gsave
newpath
translate
0.5 setlinewidth
1 setlinejoin
0 setlinecap
0 0 m
0 -2 l
gsave
0.000 setgray
fill
grestore
stroke
grestore
} bind def
1278.98 649.62 o
grestore
/BitstreamVeraSans-Roman findfont
14.000 scalefont
setfont
gsave
734.789062 38.539375 translate
0.000000 rotate
0.000000 0.000000 m /h glyphshow
grestore
gsave
/o {
gsave
newpath
translate
0.5 setlinewidth
1 setlinejoin
0 setlinecap
0 0 m
4 0 l
gsave
0.000 setgray
fill
grestore
stroke
grestore
} bind def
180 72.18 o
grestore
gsave
/o {
gsave
newpath
translate
0.5 setlinewidth
1 setlinejoin
0 setlinecap
0 0 m
-4 0 l
gsave
0.000 setgray
fill
grestore
stroke
grestore
} bind def
1296 72.18 o
grestore
gsave
149.000000 67.680000 translate
0.000000 rotate
/BitstreamVeraSans-Roman findfont
12.0 scalefont
setfont
0.000000 0.465625 moveto
/one glyphshow

7.634766 0.465625 moveto
/zero glyphshow

/BitstreamVeraSans-Roman findfont
8.4 scalefont
setfont
15.269531 6.765625 moveto
/hyphen glyphshow

18.300586 6.765625 moveto
/six glyphshow


grestore
gsave
/o {
gsave
newpath
translate
0.5 setlinewidth
1 setlinejoin
0 setlinecap
0 0 m
4 0 l
gsave
0.000 setgray
fill
grestore
stroke
grestore
} bind def
180 187.668 o
grestore
gsave
/o {
gsave
newpath
translate
0.5 setlinewidth
1 setlinejoin
0 setlinecap
0 0 m
-4 0 l
gsave
0.000 setgray
fill
grestore
stroke
grestore
} bind def
1296 187.668 o
grestore
gsave
149.000000 183.168000 translate
0.000000 rotate
/BitstreamVeraSans-Roman findfont
12.0 scalefont
setfont
0.000000 0.575000 moveto
/one glyphshow

7.634766 0.575000 moveto
/zero glyphshow

/BitstreamVeraSans-Roman findfont
8.4 scalefont
setfont
15.269531 6.875000 moveto
/hyphen glyphshow

18.300586 6.875000 moveto
/five glyphshow


grestore
gsave
/o {
gsave
newpath
translate
0.5 setlinewidth
1 setlinejoin
0 setlinecap
0 0 m
4 0 l
gsave
0.000 setgray
fill
grestore
stroke
grestore
} bind def
180 303.156 o
grestore
gsave
/o {
gsave
newpath
translate
0.5 setlinewidth
1 setlinejoin
0 setlinecap
0 0 m
-4 0 l
gsave
0.000 setgray
fill
grestore
stroke
grestore
} bind def
1296 303.156 o
grestore
gsave
149.000000 298.656000 translate
0.000000 rotate
/BitstreamVeraSans-Roman findfont
12.0 scalefont
setfont
0.000000 0.575000 moveto
/one glyphshow

7.634766 0.575000 moveto
/zero glyphshow

/BitstreamVeraSans-Roman findfont
8.4 scalefont
setfont
15.269531 6.875000 moveto
/hyphen glyphshow

18.300586 6.875000 moveto
/four glyphshow


grestore
gsave
/o {
gsave
newpath
translate
0.5 setlinewidth
1 setlinejoin
0 setlinecap
0 0 m
4 0 l
gsave
0.000 setgray
fill
grestore
stroke
grestore
} bind def
180 418.644 o
grestore
gsave
/o {
gsave
newpath
translate
0.5 setlinewidth
1 setlinejoin
0 setlinecap
0 0 m
-4 0 l
gsave
0.000 setgray
fill
grestore
stroke
grestore
} bind def
1296 418.644 o
grestore
gsave
149.000000 414.144000 translate
0.000000 rotate
/BitstreamVeraSans-Roman findfont
12.0 scalefont
setfont
0.000000 0.465625 moveto
/one glyphshow

7.634766 0.465625 moveto
/zero glyphshow

/BitstreamVeraSans-Roman findfont
8.4 scalefont
setfont
15.269531 6.765625 moveto
/hyphen glyphshow

18.300586 6.765625 moveto
/three glyphshow


grestore
gsave
/o {
gsave
newpath
translate
0.5 setlinewidth
1 setlinejoin
0 setlinecap
0 0 m
4 0 l
gsave
0.000 setgray
fill
grestore
stroke
grestore
} bind def
180 534.132 o
grestore
gsave
/o {
gsave
newpath
translate
0.5 setlinewidth
1 setlinejoin
0 setlinecap
0 0 m
-4 0 l
gsave
0.000 setgray
fill
grestore
stroke
grestore
} bind def
1296 534.132 o
grestore
gsave
149.000000 529.632000 translate
0.000000 rotate
/BitstreamVeraSans-Roman findfont
12.0 scalefont
setfont
0.000000 0.465625 moveto
/one glyphshow

7.634766 0.465625 moveto
/zero glyphshow

/BitstreamVeraSans-Roman findfont
8.4 scalefont
setfont
15.269531 6.765625 moveto
/hyphen glyphshow

18.300586 6.765625 moveto
/two glyphshow


grestore
gsave
/o {
gsave
newpath
translate
0.5 setlinewidth
1 setlinejoin
0 setlinecap
0 0 m
4 0 l
gsave
0.000 setgray
fill
grestore
stroke
grestore
} bind def
180 649.62 o
grestore
gsave
/o {
gsave
newpath
translate
0.5 setlinewidth
1 setlinejoin
0 setlinecap
0 0 m
-4 0 l
gsave
0.000 setgray
fill
grestore
stroke
grestore
} bind def
1296 649.62 o
grestore
gsave
149.000000 645.120000 translate
0.000000 rotate
/BitstreamVeraSans-Roman findfont
12.0 scalefont
setfont
0.000000 0.575000 moveto
/one glyphshow

7.634766 0.575000 moveto
/zero glyphshow

/BitstreamVeraSans-Roman findfont
8.4 scalefont
setfont
15.269531 6.875000 moveto
/hyphen glyphshow

18.300586 6.875000 moveto
/one glyphshow


grestore
gsave
/o {
gsave
newpath
translate
0.5 setlinewidth
1 setlinejoin
0 setlinecap
0 0 m
2 0 l
gsave
0.000 setgray
fill
grestore
stroke
grestore
} bind def
180 106.945 o
grestore
gsave
/o {
gsave
newpath
translate
0.5 setlinewidth
1 setlinejoin
0 setlinecap
0 0 m
-2 0 l
gsave
0.000 setgray
fill
grestore
stroke
grestore
} bind def
1296 106.945 o
grestore
gsave
/o {
gsave
newpath
translate
0.5 setlinewidth
1 setlinejoin
0 setlinecap
0 0 m
2 0 l
gsave
0.000 setgray
fill
grestore
stroke
grestore
} bind def
180 127.282 o
grestore
gsave
/o {
gsave
newpath
translate
0.5 setlinewidth
1 setlinejoin
0 setlinecap
0 0 m
-2 0 l
gsave
0.000 setgray
fill
grestore
stroke
grestore
} bind def
1296 127.282 o
grestore
gsave
/o {
gsave
newpath
translate
0.5 setlinewidth
1 setlinejoin
0 setlinecap
0 0 m
2 0 l
gsave
0.000 setgray
fill
grestore
stroke
grestore
} bind def
180 141.711 o
grestore
gsave
/o {
gsave
newpath
translate
0.5 setlinewidth
1 setlinejoin
0 setlinecap
0 0 m
-2 0 l
gsave
0.000 setgray
fill
grestore
stroke
grestore
} bind def
1296 141.711 o
grestore
gsave
/o {
gsave
newpath
translate
0.5 setlinewidth
1 setlinejoin
0 setlinecap
0 0 m
2 0 l
gsave
0.000 setgray
fill
grestore
stroke
grestore
} bind def
180 152.903 o
grestore
gsave
/o {
gsave
newpath
translate
0.5 setlinewidth
1 setlinejoin
0 setlinecap
0 0 m
-2 0 l
gsave
0.000 setgray
fill
grestore
stroke
grestore
} bind def
1296 152.903 o
grestore
gsave
/o {
gsave
newpath
translate
0.5 setlinewidth
1 setlinejoin
0 setlinecap
0 0 m
2 0 l
gsave
0.000 setgray
fill
grestore
stroke
grestore
} bind def
180 162.047 o
grestore
gsave
/o {
gsave
newpath
translate
0.5 setlinewidth
1 setlinejoin
0 setlinecap
0 0 m
-2 0 l
gsave
0.000 setgray
fill
grestore
stroke
grestore
} bind def
1296 162.047 o
grestore
gsave
/o {
gsave
newpath
translate
0.5 setlinewidth
1 setlinejoin
0 setlinecap
0 0 m
2 0 l
gsave
0.000 setgray
fill
grestore
stroke
grestore
} bind def
180 169.779 o
grestore
gsave
/o {
gsave
newpath
translate
0.5 setlinewidth
1 setlinejoin
0 setlinecap
0 0 m
-2 0 l
gsave
0.000 setgray
fill
grestore
stroke
grestore
} bind def
1296 169.779 o
grestore
gsave
/o {
gsave
newpath
translate
0.5 setlinewidth
1 setlinejoin
0 setlinecap
0 0 m
2 0 l
gsave
0.000 setgray
fill
grestore
stroke
grestore
} bind def
180 176.476 o
grestore
gsave
/o {
gsave
newpath
translate
0.5 setlinewidth
1 setlinejoin
0 setlinecap
0 0 m
-2 0 l
gsave
0.000 setgray
fill
grestore
stroke
grestore
} bind def
1296 176.476 o
grestore
gsave
/o {
gsave
newpath
translate
0.5 setlinewidth
1 setlinejoin
0 setlinecap
0 0 m
2 0 l
gsave
0.000 setgray
fill
grestore
stroke
grestore
} bind def
180 182.384 o
grestore
gsave
/o {
gsave
newpath
translate
0.5 setlinewidth
1 setlinejoin
0 setlinecap
0 0 m
-2 0 l
gsave
0.000 setgray
fill
grestore
stroke
grestore
} bind def
1296 182.384 o
grestore
gsave
/o {
gsave
newpath
translate
0.5 setlinewidth
1 setlinejoin
0 setlinecap
0 0 m
2 0 l
gsave
0.000 setgray
fill
grestore
stroke
grestore
} bind def
180 222.433 o
grestore
gsave
/o {
gsave
newpath
translate
0.5 setlinewidth
1 setlinejoin
0 setlinecap
0 0 m
-2 0 l
gsave
0.000 setgray
fill
grestore
stroke
grestore
} bind def
1296 222.433 o
grestore
gsave
/o {
gsave
newpath
translate
0.5 setlinewidth
1 setlinejoin
0 setlinecap
0 0 m
2 0 l
gsave
0.000 setgray
fill
grestore
stroke
grestore
} bind def
180 242.77 o
grestore
gsave
/o {
gsave
newpath
translate
0.5 setlinewidth
1 setlinejoin
0 setlinecap
0 0 m
-2 0 l
gsave
0.000 setgray
fill
grestore
stroke
grestore
} bind def
1296 242.77 o
grestore
gsave
/o {
gsave
newpath
translate
0.5 setlinewidth
1 setlinejoin
0 setlinecap
0 0 m
2 0 l
gsave
0.000 setgray
fill
grestore
stroke
grestore
} bind def
180 257.199 o
grestore
gsave
/o {
gsave
newpath
translate
0.5 setlinewidth
1 setlinejoin
0 setlinecap
0 0 m
-2 0 l
gsave
0.000 setgray
fill
grestore
stroke
grestore
} bind def
1296 257.199 o
grestore
gsave
/o {
gsave
newpath
translate
0.5 setlinewidth
1 setlinejoin
0 setlinecap
0 0 m
2 0 l
gsave
0.000 setgray
fill
grestore
stroke
grestore
} bind def
180 268.391 o
grestore
gsave
/o {
gsave
newpath
translate
0.5 setlinewidth
1 setlinejoin
0 setlinecap
0 0 m
-2 0 l
gsave
0.000 setgray
fill
grestore
stroke
grestore
} bind def
1296 268.391 o
grestore
gsave
/o {
gsave
newpath
translate
0.5 setlinewidth
1 setlinejoin
0 setlinecap
0 0 m
2 0 l
gsave
0.000 setgray
fill
grestore
stroke
grestore
} bind def
180 277.535 o
grestore
gsave
/o {
gsave
newpath
translate
0.5 setlinewidth
1 setlinejoin
0 setlinecap
0 0 m
-2 0 l
gsave
0.000 setgray
fill
grestore
stroke
grestore
} bind def
1296 277.535 o
grestore
gsave
/o {
gsave
newpath
translate
0.5 setlinewidth
1 setlinejoin
0 setlinecap
0 0 m
2 0 l
gsave
0.000 setgray
fill
grestore
stroke
grestore
} bind def
180 285.267 o
grestore
gsave
/o {
gsave
newpath
translate
0.5 setlinewidth
1 setlinejoin
0 setlinecap
0 0 m
-2 0 l
gsave
0.000 setgray
fill
grestore
stroke
grestore
} bind def
1296 285.267 o
grestore
gsave
/o {
gsave
newpath
translate
0.5 setlinewidth
1 setlinejoin
0 setlinecap
0 0 m
2 0 l
gsave
0.000 setgray
fill
grestore
stroke
grestore
} bind def
180 291.964 o
grestore
gsave
/o {
gsave
newpath
translate
0.5 setlinewidth
1 setlinejoin
0 setlinecap
0 0 m
-2 0 l
gsave
0.000 setgray
fill
grestore
stroke
grestore
} bind def
1296 291.964 o
grestore
gsave
/o {
gsave
newpath
translate
0.5 setlinewidth
1 setlinejoin
0 setlinecap
0 0 m
2 0 l
gsave
0.000 setgray
fill
grestore
stroke
grestore
} bind def
180 297.872 o
grestore
gsave
/o {
gsave
newpath
translate
0.5 setlinewidth
1 setlinejoin
0 setlinecap
0 0 m
-2 0 l
gsave
0.000 setgray
fill
grestore
stroke
grestore
} bind def
1296 297.872 o
grestore
gsave
/o {
gsave
newpath
translate
0.5 setlinewidth
1 setlinejoin
0 setlinecap
0 0 m
2 0 l
gsave
0.000 setgray
fill
grestore
stroke
grestore
} bind def
180 337.921 o
grestore
gsave
/o {
gsave
newpath
translate
0.5 setlinewidth
1 setlinejoin
0 setlinecap
0 0 m
-2 0 l
gsave
0.000 setgray
fill
grestore
stroke
grestore
} bind def
1296 337.921 o
grestore
gsave
/o {
gsave
newpath
translate
0.5 setlinewidth
1 setlinejoin
0 setlinecap
0 0 m
2 0 l
gsave
0.000 setgray
fill
grestore
stroke
grestore
} bind def
180 358.258 o
grestore
gsave
/o {
gsave
newpath
translate
0.5 setlinewidth
1 setlinejoin
0 setlinecap
0 0 m
-2 0 l
gsave
0.000 setgray
fill
grestore
stroke
grestore
} bind def
1296 358.258 o
grestore
gsave
/o {
gsave
newpath
translate
0.5 setlinewidth
1 setlinejoin
0 setlinecap
0 0 m
2 0 l
gsave
0.000 setgray
fill
grestore
stroke
grestore
} bind def
180 372.687 o
grestore
gsave
/o {
gsave
newpath
translate
0.5 setlinewidth
1 setlinejoin
0 setlinecap
0 0 m
-2 0 l
gsave
0.000 setgray
fill
grestore
stroke
grestore
} bind def
1296 372.687 o
grestore
gsave
/o {
gsave
newpath
translate
0.5 setlinewidth
1 setlinejoin
0 setlinecap
0 0 m
2 0 l
gsave
0.000 setgray
fill
grestore
stroke
grestore
} bind def
180 383.879 o
grestore
gsave
/o {
gsave
newpath
translate
0.5 setlinewidth
1 setlinejoin
0 setlinecap
0 0 m
-2 0 l
gsave
0.000 setgray
fill
grestore
stroke
grestore
} bind def
1296 383.879 o
grestore
gsave
/o {
gsave
newpath
translate
0.5 setlinewidth
1 setlinejoin
0 setlinecap
0 0 m
2 0 l
gsave
0.000 setgray
fill
grestore
stroke
grestore
} bind def
180 393.023 o
grestore
gsave
/o {
gsave
newpath
translate
0.5 setlinewidth
1 setlinejoin
0 setlinecap
0 0 m
-2 0 l
gsave
0.000 setgray
fill
grestore
stroke
grestore
} bind def
1296 393.023 o
grestore
gsave
/o {
gsave
newpath
translate
0.5 setlinewidth
1 setlinejoin
0 setlinecap
0 0 m
2 0 l
gsave
0.000 setgray
fill
grestore
stroke
grestore
} bind def
180 400.755 o
grestore
gsave
/o {
gsave
newpath
translate
0.5 setlinewidth
1 setlinejoin
0 setlinecap
0 0 m
-2 0 l
gsave
0.000 setgray
fill
grestore
stroke
grestore
} bind def
1296 400.755 o
grestore
gsave
/o {
gsave
newpath
translate
0.5 setlinewidth
1 setlinejoin
0 setlinecap
0 0 m
2 0 l
gsave
0.000 setgray
fill
grestore
stroke
grestore
} bind def
180 407.452 o
grestore
gsave
/o {
gsave
newpath
translate
0.5 setlinewidth
1 setlinejoin
0 setlinecap
0 0 m
-2 0 l
gsave
0.000 setgray
fill
grestore
stroke
grestore
} bind def
1296 407.452 o
grestore
gsave
/o {
gsave
newpath
translate
0.5 setlinewidth
1 setlinejoin
0 setlinecap
0 0 m
2 0 l
gsave
0.000 setgray
fill
grestore
stroke
grestore
} bind def
180 413.36 o
grestore
gsave
/o {
gsave
newpath
translate
0.5 setlinewidth
1 setlinejoin
0 setlinecap
0 0 m
-2 0 l
gsave
0.000 setgray
fill
grestore
stroke
grestore
} bind def
1296 413.36 o
grestore
gsave
/o {
gsave
newpath
translate
0.5 setlinewidth
1 setlinejoin
0 setlinecap
0 0 m
2 0 l
gsave
0.000 setgray
fill
grestore
stroke
grestore
} bind def
180 453.409 o
grestore
gsave
/o {
gsave
newpath
translate
0.5 setlinewidth
1 setlinejoin
0 setlinecap
0 0 m
-2 0 l
gsave
0.000 setgray
fill
grestore
stroke
grestore
} bind def
1296 453.409 o
grestore
gsave
/o {
gsave
newpath
translate
0.5 setlinewidth
1 setlinejoin
0 setlinecap
0 0 m
2 0 l
gsave
0.000 setgray
fill
grestore
stroke
grestore
} bind def
180 473.746 o
grestore
gsave
/o {
gsave
newpath
translate
0.5 setlinewidth
1 setlinejoin
0 setlinecap
0 0 m
-2 0 l
gsave
0.000 setgray
fill
grestore
stroke
grestore
} bind def
1296 473.746 o
grestore
gsave
/o {
gsave
newpath
translate
0.5 setlinewidth
1 setlinejoin
0 setlinecap
0 0 m
2 0 l
gsave
0.000 setgray
fill
grestore
stroke
grestore
} bind def
180 488.175 o
grestore
gsave
/o {
gsave
newpath
translate
0.5 setlinewidth
1 setlinejoin
0 setlinecap
0 0 m
-2 0 l
gsave
0.000 setgray
fill
grestore
stroke
grestore
} bind def
1296 488.175 o
grestore
gsave
/o {
gsave
newpath
translate
0.5 setlinewidth
1 setlinejoin
0 setlinecap
0 0 m
2 0 l
gsave
0.000 setgray
fill
grestore
stroke
grestore
} bind def
180 499.367 o
grestore
gsave
/o {
gsave
newpath
translate
0.5 setlinewidth
1 setlinejoin
0 setlinecap
0 0 m
-2 0 l
gsave
0.000 setgray
fill
grestore
stroke
grestore
} bind def
1296 499.367 o
grestore
gsave
/o {
gsave
newpath
translate
0.5 setlinewidth
1 setlinejoin
0 setlinecap
0 0 m
2 0 l
gsave
0.000 setgray
fill
grestore
stroke
grestore
} bind def
180 508.511 o
grestore
gsave
/o {
gsave
newpath
translate
0.5 setlinewidth
1 setlinejoin
0 setlinecap
0 0 m
-2 0 l
gsave
0.000 setgray
fill
grestore
stroke
grestore
} bind def
1296 508.511 o
grestore
gsave
/o {
gsave
newpath
translate
0.5 setlinewidth
1 setlinejoin
0 setlinecap
0 0 m
2 0 l
gsave
0.000 setgray
fill
grestore
stroke
grestore
} bind def
180 516.243 o
grestore
gsave
/o {
gsave
newpath
translate
0.5 setlinewidth
1 setlinejoin
0 setlinecap
0 0 m
-2 0 l
gsave
0.000 setgray
fill
grestore
stroke
grestore
} bind def
1296 516.243 o
grestore
gsave
/o {
gsave
newpath
translate
0.5 setlinewidth
1 setlinejoin
0 setlinecap
0 0 m
2 0 l
gsave
0.000 setgray
fill
grestore
stroke
grestore
} bind def
180 522.94 o
grestore
gsave
/o {
gsave
newpath
translate
0.5 setlinewidth
1 setlinejoin
0 setlinecap
0 0 m
-2 0 l
gsave
0.000 setgray
fill
grestore
stroke
grestore
} bind def
1296 522.94 o
grestore
gsave
/o {
gsave
newpath
translate
0.5 setlinewidth
1 setlinejoin
0 setlinecap
0 0 m
2 0 l
gsave
0.000 setgray
fill
grestore
stroke
grestore
} bind def
180 528.848 o
grestore
gsave
/o {
gsave
newpath
translate
0.5 setlinewidth
1 setlinejoin
0 setlinecap
0 0 m
-2 0 l
gsave
0.000 setgray
fill
grestore
stroke
grestore
} bind def
1296 528.848 o
grestore
gsave
/o {
gsave
newpath
translate
0.5 setlinewidth
1 setlinejoin
0 setlinecap
0 0 m
2 0 l
gsave
0.000 setgray
fill
grestore
stroke
grestore
} bind def
180 568.897 o
grestore
gsave
/o {
gsave
newpath
translate
0.5 setlinewidth
1 setlinejoin
0 setlinecap
0 0 m
-2 0 l
gsave
0.000 setgray
fill
grestore
stroke
grestore
} bind def
1296 568.897 o
grestore
gsave
/o {
gsave
newpath
translate
0.5 setlinewidth
1 setlinejoin
0 setlinecap
0 0 m
2 0 l
gsave
0.000 setgray
fill
grestore
stroke
grestore
} bind def
180 589.234 o
grestore
gsave
/o {
gsave
newpath
translate
0.5 setlinewidth
1 setlinejoin
0 setlinecap
0 0 m
-2 0 l
gsave
0.000 setgray
fill
grestore
stroke
grestore
} bind def
1296 589.234 o
grestore
gsave
/o {
gsave
newpath
translate
0.5 setlinewidth
1 setlinejoin
0 setlinecap
0 0 m
2 0 l
gsave
0.000 setgray
fill
grestore
stroke
grestore
} bind def
180 603.663 o
grestore
gsave
/o {
gsave
newpath
translate
0.5 setlinewidth
1 setlinejoin
0 setlinecap
0 0 m
-2 0 l
gsave
0.000 setgray
fill
grestore
stroke
grestore
} bind def
1296 603.663 o
grestore
gsave
/o {
gsave
newpath
translate
0.5 setlinewidth
1 setlinejoin
0 setlinecap
0 0 m
2 0 l
gsave
0.000 setgray
fill
grestore
stroke
grestore
} bind def
180 614.855 o
grestore
gsave
/o {
gsave
newpath
translate
0.5 setlinewidth
1 setlinejoin
0 setlinecap
0 0 m
-2 0 l
gsave
0.000 setgray
fill
grestore
stroke
grestore
} bind def
1296 614.855 o
grestore
gsave
/o {
gsave
newpath
translate
0.5 setlinewidth
1 setlinejoin
0 setlinecap
0 0 m
2 0 l
gsave
0.000 setgray
fill
grestore
stroke
grestore
} bind def
180 623.999 o
grestore
gsave
/o {
gsave
newpath
translate
0.5 setlinewidth
1 setlinejoin
0 setlinecap
0 0 m
-2 0 l
gsave
0.000 setgray
fill
grestore
stroke
grestore
} bind def
1296 623.999 o
grestore
gsave
/o {
gsave
newpath
translate
0.5 setlinewidth
1 setlinejoin
0 setlinecap
0 0 m
2 0 l
gsave
0.000 setgray
fill
grestore
stroke
grestore
} bind def
180 631.731 o
grestore
gsave
/o {
gsave
newpath
translate
0.5 setlinewidth
1 setlinejoin
0 setlinecap
0 0 m
-2 0 l
gsave
0.000 setgray
fill
grestore
stroke
grestore
} bind def
1296 631.731 o
grestore
gsave
/o {
gsave
newpath
translate
0.5 setlinewidth
1 setlinejoin
0 setlinecap
0 0 m
2 0 l
gsave
0.000 setgray
fill
grestore
stroke
grestore
} bind def
180 638.428 o
grestore
gsave
/o {
gsave
newpath
translate
0.5 setlinewidth
1 setlinejoin
0 setlinecap
0 0 m
-2 0 l
gsave
0.000 setgray
fill
grestore
stroke
grestore
} bind def
1296 638.428 o
grestore
gsave
/o {
gsave
newpath
translate
0.5 setlinewidth
1 setlinejoin
0 setlinecap
0 0 m
2 0 l
gsave
0.000 setgray
fill
grestore
stroke
grestore
} bind def
180 644.336 o
grestore
gsave
/o {
gsave
newpath
translate
0.5 setlinewidth
1 setlinejoin
0 setlinecap
0 0 m
-2 0 l
gsave
0.000 setgray
fill
grestore
stroke
grestore
} bind def
1296 644.336 o
grestore
gsave
141.093750 348.025000 translate
90.000000 rotate
0.000000 0.000000 m /E glyphshow
8.845703 0.000000 m /parenleft glyphshow
14.307617 0.000000 m /T glyphshow
22.859375 0.000000 m /parenright glyphshow
grestore
gsave
718.156250 654.620000 translate
0.000000 rotate
0.000000 0.000000 m /E glyphshow
8.845703 0.000000 m /parenleft glyphshow
14.307617 0.000000 m /T glyphshow
22.859375 0.000000 m /parenright glyphshow
28.321289 0.000000 m /hyphen glyphshow
33.373047 0.000000 m /h glyphshow
grestore

end
showpage
