%!PS-Adobe-3.0 EPSF-3.0
%%Title: /home/sunoru/Study/computational-physics/homework/c2/2-9_E_t.eps
%%Creator: matplotlib version 1.4.3, http://matplotlib.org/
%%CreationDate: Mon Dec 21 01:02:44 2015
%%Orientation: portrait
%%BoundingBox: -414 35 1026 756
%%EndComments
%%BeginProlog
/mpldict 8 dict def
mpldict begin
/m { moveto } bind def
/l { lineto } bind def
/r { rlineto } bind def
/c { curveto } bind def
/cl { closepath } bind def
/box {
m
1 index 0 r
0 exch r
neg 0 r
cl
} bind def
/clipbox {
box
clip
newpath
} bind def
%!PS-Adobe-3.0 Resource-Font
%%Title: Bitstream Vera Sans
%%Copyright: Copyright (c) 2003 by Bitstream, Inc. All Rights Reserved.
%%Creator: Converted from TrueType to type 3 by PPR
25 dict begin
/_d{bind def}bind def
/_m{moveto}_d
/_l{lineto}_d
/_cl{closepath eofill}_d
/_c{curveto}_d
/_sc{7 -1 roll{setcachedevice}{pop pop pop pop pop pop}ifelse}_d
/_e{exec}_d
/FontName /BitstreamVeraSans-Roman def
/PaintType 0 def
/FontMatrix[.001 0 0 .001 0 0]def
/FontBBox[-183 -236 1287 928]def
/FontType 3 def
/Encoding [ /space /hyphen /period /zero /one /two /four /six /eight /equal /E /t /minus ] def
/FontInfo 10 dict dup begin
/FamilyName (Bitstream Vera Sans) def
/FullName (Bitstream Vera Sans) def
/Notice (Copyright (c) 2003 by Bitstream, Inc. All Rights Reserved. Bitstream Vera is a trademark of Bitstream, Inc.) def
/Weight (Roman) def
/Version (Release 1.10) def
/ItalicAngle 0.0 def
/isFixedPitch false def
/UnderlinePosition -213 def
/UnderlineThickness 143 def
end readonly def
/CharStrings 13 dict dup begin
/space{318 0 0 0 0 0 _sc
}_d
/hyphen{361 0 49 234 312 314 _sc
49 314 _m
312 314 _l
312 234 _l
49 234 _l
49 314 _l
_cl}_d
/period{318 0 107 0 210 124 _sc
107 124 _m
210 124 _l
210 0 _l
107 0 _l
107 124 _l
_cl}_d
/zero{636 0 66 -13 570 742 _sc
318 664 _m
267 664 229 639 203 589 _c
177 539 165 464 165 364 _c
165 264 177 189 203 139 _c
229 89 267 64 318 64 _c
369 64 407 89 433 139 _c
458 189 471 264 471 364 _c
471 464 458 539 433 589 _c
407 639 369 664 318 664 _c
318 742 _m
399 742 461 709 505 645 _c
548 580 570 486 570 364 _c
570 241 548 147 505 83 _c
461 19 399 -13 318 -13 _c
236 -13 173 19 130 83 _c
87 147 66 241 66 364 _c
66 486 87 580 130 645 _c
173 709 236 742 318 742 _c
_cl}_d
/one{636 0 110 0 544 729 _sc
124 83 _m
285 83 _l
285 639 _l
110 604 _l
110 694 _l
284 729 _l
383 729 _l
383 83 _l
544 83 _l
544 0 _l
124 0 _l
124 83 _l
_cl}_d
/two{{636 0 73 0 536 742 _sc
192 83 _m
536 83 _l
536 0 _l
73 0 _l
73 83 _l
110 121 161 173 226 239 _c
290 304 331 346 348 365 _c
380 400 402 430 414 455 _c
426 479 433 504 433 528 _c
433 566 419 598 392 622 _c
365 646 330 659 286 659 _c
255 659 222 653 188 643 _c
154 632 117 616 78 594 _c
78 694 _l
118 710 155 722 189 730 _c
223 738 255 742 284 742 _c
}_e{359 742 419 723 464 685 _c
509 647 532 597 532 534 _c
532 504 526 475 515 449 _c
504 422 484 390 454 354 _c
446 344 420 317 376 272 _c
332 227 271 164 192 83 _c
_cl}_e}_d
/four{636 0 49 0 580 729 _sc
378 643 _m
129 254 _l
378 254 _l
378 643 _l
352 729 _m
476 729 _l
476 254 _l
580 254 _l
580 172 _l
476 172 _l
476 0 _l
378 0 _l
378 172 _l
49 172 _l
49 267 _l
352 729 _l
_cl}_d
/six{{636 0 70 -13 573 742 _sc
330 404 _m
286 404 251 388 225 358 _c
199 328 186 286 186 234 _c
186 181 199 139 225 109 _c
251 79 286 64 330 64 _c
374 64 409 79 435 109 _c
461 139 474 181 474 234 _c
474 286 461 328 435 358 _c
409 388 374 404 330 404 _c
526 713 _m
526 623 _l
501 635 476 644 451 650 _c
425 656 400 659 376 659 _c
310 659 260 637 226 593 _c
}_e{192 549 172 482 168 394 _c
187 422 211 444 240 459 _c
269 474 301 482 336 482 _c
409 482 467 459 509 415 _c
551 371 573 310 573 234 _c
573 159 550 99 506 54 _c
462 9 403 -13 330 -13 _c
246 -13 181 19 137 83 _c
92 147 70 241 70 364 _c
70 479 97 571 152 639 _c
206 707 280 742 372 742 _c
396 742 421 739 447 735 _c
472 730 498 723 526 713 _c
_cl}_e}_d
/eight{{636 0 68 -13 568 742 _sc
318 346 _m
271 346 234 333 207 308 _c
180 283 167 249 167 205 _c
167 161 180 126 207 101 _c
234 76 271 64 318 64 _c
364 64 401 76 428 102 _c
455 127 469 161 469 205 _c
469 249 455 283 429 308 _c
402 333 365 346 318 346 _c
219 388 _m
177 398 144 418 120 447 _c
96 476 85 511 85 553 _c
85 611 105 657 147 691 _c
188 725 245 742 318 742 _c
}_e{390 742 447 725 489 691 _c
530 657 551 611 551 553 _c
551 511 539 476 515 447 _c
491 418 459 398 417 388 _c
464 377 501 355 528 323 _c
554 291 568 251 568 205 _c
568 134 546 80 503 43 _c
459 5 398 -13 318 -13 _c
237 -13 175 5 132 43 _c
89 80 68 134 68 205 _c
68 251 81 291 108 323 _c
134 355 171 377 219 388 _c
183 544 _m
183 506 194 476 218 455 _c
}_e{242 434 275 424 318 424 _c
360 424 393 434 417 455 _c
441 476 453 506 453 544 _c
453 582 441 611 417 632 _c
393 653 360 664 318 664 _c
275 664 242 653 218 632 _c
194 611 183 582 183 544 _c
_cl}_e}_d
/equal{838 0 106 172 732 454 _sc
106 454 _m
732 454 _l
732 372 _l
106 372 _l
106 454 _l
106 255 _m
732 255 _l
732 172 _l
106 172 _l
106 255 _l
_cl}_d
/E{632 0 98 0 568 729 _sc
98 729 _m
559 729 _l
559 646 _l
197 646 _l
197 430 _l
544 430 _l
544 347 _l
197 347 _l
197 83 _l
568 83 _l
568 0 _l
98 0 _l
98 729 _l
_cl}_d
/t{392 0 27 0 368 702 _sc
183 702 _m
183 547 _l
368 547 _l
368 477 _l
183 477 _l
183 180 _l
183 135 189 106 201 94 _c
213 81 238 75 276 75 _c
368 75 _l
368 0 _l
276 0 _l
206 0 158 13 132 39 _c
106 65 93 112 93 180 _c
93 477 _l
27 477 _l
27 547 _l
93 547 _l
93 702 _l
183 702 _l
_cl}_d
/minus{838 0 106 272 732 355 _sc
106 355 _m
732 355 _l
732 272 _l
106 272 _l
106 355 _l
_cl}_d
end readonly def

/BuildGlyph
 {exch begin
 CharStrings exch
 2 copy known not{pop /.notdef}if
 true 3 1 roll get exec
 end}_d

/BuildChar {
 1 index /Encoding get exch get
 1 index /BuildGlyph get exec
}_d

FontName currentdict end definefont pop
end
%%EndProlog
mpldict begin
-414 35.1 translate
1440 721.8 0 0 clipbox
gsave
0 0 m
1440 0 l
1440 721.8 l
0 721.8 l
cl
1.000 setgray
fill
grestore
gsave
180 72.18 m
1296 72.18 l
1296 649.62 l
180 649.62 l
cl
1.000 setgray
fill
grestore
1.000 setlinewidth
1 setlinejoin
2 setlinecap
[] 0 setdash
0.000 0.000 1.000 setrgbcolor
gsave
1116 577.4 180 72.18 clipbox
180 262.539 m
194.508 262.645 l
209.016 262.987 l
222.408 263.523 l
235.8 264.292 l
248.076 265.227 l
259.236 266.296 l
269.28 267.464 l
279.324 268.859 l
288.252 270.323 l
296.064 271.805 l
303.876 273.506 l
310.572 275.167 l
317.268 277.045 l
323.964 279.175 l
329.544 281.174 l
335.124 283.408 l
340.704 285.913 l
345.168 288.141 l
349.632 290.599 l
354.096 293.316 l
358.56 296.331 l
363.024 299.688 l
366.372 302.462 l
369.72 305.485 l
373.068 308.787 l
376.416 312.405 l
379.764 316.38 l
383.112 320.759 l
386.46 325.601 l
389.808 330.972 l
393.156 336.953 l
395.388 341.325 l
397.62 346.042 l
399.852 351.142 l
402.084 356.666 l
404.316 362.661 l
406.548 369.181 l
408.78 376.286 l
411.012 384.046 l
413.244 392.538 l
415.476 401.85 l
417.708 412.081 l
419.94 423.342 l
422.172 435.753 l
424.404 449.445 l
426.636 464.553 l
428.868 481.207 l
431.1 499.516 l
433.332 519.537 l
435.564 541.22 l
438.912 576.226 l
442.26 611.71 l
444.492 632.527 l
445.608 640.796 l
446.724 646.76 l
447.84 649.538 l
448.956 648.052 l
450.072 641.017 l
451.188 626.972 l
452.304 604.368 l
453.42 571.747 l
454.536 528.063 l
455.652 473.157 l
457.884 337.336 l
459 266.176 l
460.116 203.562 l
461.232 159.351 l
462.348 142.233 l
463.464 156.885 l
464.58 201.927 l
465.696 269.961 l
469.044 501.984 l
470.16 559.957 l
471.276 602.378 l
472.392 629.987 l
473.508 644.874 l
474.624 649.603 l
475.74 646.671 l
476.856 638.241 l
477.972 626.068 l
480.204 595.551 l
485.784 514.143 l
488.016 485.337 l
490.248 459.529 l
492.48 436.633 l
494.712 416.414 l
496.944 398.587 l
499.176 382.865 l
501.408 368.979 l
503.64 356.692 l
505.872 345.794 l
508.104 336.102 l
510.336 327.462 l
512.568 319.74 l
514.8 312.819 l
517.032 306.603 l
519.264 301.005 l
521.496 295.953 l
523.728 291.384 l
525.96 287.243 l
528.192 283.482 l
530.424 280.06 l
532.656 276.942 l
534.888 274.094 l
538.236 270.272 l
541.584 266.917 l
544.932 263.964 l
548.28 261.357 l
551.628 259.047 l
554.976 256.997 l
558.324 255.172 l
562.788 253.04 l
567.252 251.202 l
571.716 249.611 l
576.18 248.229 l
581.76 246.748 l
587.34 245.496 l
594.036 244.24 l
600.732 243.2 l
608.544 242.206 l
617.472 241.296 l
627.516 240.494 l
639.792 239.748 l
654.3 239.105 l
672.156 238.553 l
694.476 238.102 l
723.492 237.747 l
764.784 237.478 l
830.628 237.295 l
961.2 237.195 l
1296 237.165 l
1296 237.165 l
stroke
grestore
0.000 0.500 0.000 setrgbcolor
gsave
1116 577.4 180 72.18 clipbox
180 262.539 m
194.285 262.65 l
208.235 262.978 l
221.738 263.516 l
234.572 264.246 l
246.625 265.149 l
257.897 266.213 l
268.387 267.423 l
278.096 268.762 l
287.136 270.232 l
295.506 271.818 l
303.206 273.499 l
310.349 275.282 l
317.045 277.18 l
323.294 279.183 l
329.098 281.274 l
334.566 283.48 l
339.7 285.791 l
344.498 288.191 l
349.074 290.729 l
353.426 293.4 l
357.556 296.198 l
361.462 299.116 l
365.144 302.139 l
368.716 305.359 l
372.175 308.783 l
375.412 312.293 l
378.536 316.002 l
381.55 319.912 l
384.563 324.192 l
387.464 328.709 l
390.254 333.466 l
392.933 338.461 l
395.611 343.93 l
398.178 349.674 l
400.745 355.972 l
403.2 362.581 l
405.655 369.837 l
407.999 377.443 l
410.342 385.797 l
412.686 394.996 l
414.918 404.641 l
417.15 415.256 l
419.382 426.959 l
421.614 439.878 l
423.846 454.15 l
426.078 469.915 l
428.31 487.304 l
430.542 506.414 l
432.997 529.451 l
435.676 556.778 l
442.595 628.837 l
443.822 638.639 l
444.715 644.214 l
445.385 647.264 l
445.943 648.91 l
446.389 649.549 l
446.612 649.619 l
446.836 649.511 l
447.17 648.995 l
447.505 648.025 l
447.952 645.967 l
448.51 642.053 l
449.068 636.497 l
449.737 627.44 l
450.518 613.249 l
451.3 594.821 l
452.192 568.283 l
453.197 531.426 l
454.424 477.376 l
458.442 289.974 l
459.223 267.724 l
459.781 257.598 l
460.228 253.321 l
460.451 252.507 l
460.562 252.435 l
460.674 252.587 l
460.897 253.56 l
461.232 256.682 l
461.678 263.864 l
462.236 277.406 l
462.906 299.584 l
463.799 337.08 l
465.361 414.564 l
467.37 512.174 l
468.598 560.919 l
469.602 592.477 l
470.495 614.103 l
471.276 628.325 l
472.057 638.539 l
472.727 644.436 l
473.285 647.555 l
473.731 648.997 l
474.066 649.519 l
474.289 649.62 l
474.512 649.534 l
474.847 649.077 l
475.294 647.903 l
475.852 645.626 l
476.521 641.87 l
477.414 635.445 l
478.53 625.693 l
480.092 609.932 l
482.994 577.857 l
486.788 536.487 l
489.355 510.872 l
491.699 489.577 l
494.042 470.295 l
496.274 453.707 l
498.506 438.712 l
500.738 425.162 l
502.97 412.908 l
505.314 401.286 l
507.658 390.793 l
510.001 381.299 l
512.345 372.687 l
514.8 364.501 l
517.255 357.071 l
519.822 350.016 l
522.389 343.603 l
525.067 337.516 l
527.746 331.972 l
530.536 326.709 l
533.326 321.908 l
536.227 317.346 l
539.24 313.022 l
542.365 308.93 l
545.602 305.063 l
548.95 301.415 l
552.409 297.977 l
555.98 294.739 l
559.775 291.603 l
563.681 288.665 l
567.81 285.839 l
572.162 283.133 l
576.738 280.554 l
581.537 278.104 l
586.67 275.733 l
592.139 273.457 l
597.942 271.284 l
604.192 269.184 l
610.888 267.172 l
618.142 265.23 l
625.954 263.373 l
634.435 261.59 l
643.586 259.895 l
653.63 258.264 l
664.679 256.7 l
676.843 255.207 l
690.235 253.79 l
705.19 252.437 l
721.818 251.16 l
740.567 249.947 l
761.771 248.804 l
785.876 247.734 l
813.442 246.737 l
845.248 245.815 l
882.299 244.97 l
925.711 244.207 l
977.047 243.534 l
1037.98 242.964 l
1110.19 242.516 l
1194.11 242.223 l
1286.74 242.125 l
1296 242.127 l
1296 242.127 l
stroke
grestore
1.000 0.000 0.000 setrgbcolor
gsave
1116 577.4 180 72.18 clipbox
180 262.539 m
194.24 262.65 l
208.246 262.98 l
221.772 263.52 l
234.639 264.254 l
246.737 265.163 l
258.031 266.233 l
268.521 267.447 l
278.23 268.791 l
287.225 270.259 l
295.551 271.839 l
303.262 273.527 l
310.427 275.32 l
317.089 277.214 l
323.306 279.211 l
329.109 281.306 l
334.544 283.502 l
339.655 285.805 l
344.465 288.214 l
349.018 290.742 l
353.326 293.387 l
357.422 296.161 l
361.317 299.068 l
365.033 302.117 l
368.593 305.325 l
372.008 308.701 l
375.3 312.27 l
378.469 316.033 l
381.538 320.025 l
384.507 324.252 l
387.386 328.742 l
390.187 333.524 l
392.91 338.616 l
395.567 344.056 l
398.167 349.895 l
400.711 356.162 l
403.2 362.89 l
405.633 370.113 l
408.021 377.904 l
410.376 386.355 l
412.686 395.481 l
414.974 405.438 l
417.228 416.257 l
419.46 428.075 l
421.67 440.988 l
423.879 455.241 l
426.089 470.971 l
428.321 488.486 l
430.609 508.235 l
433.02 531.028 l
435.754 559.099 l
442.349 627.961 l
443.599 638.094 l
444.537 644.044 l
445.262 647.353 l
445.809 648.937 l
446.211 649.525 l
446.501 649.614 l
446.746 649.454 l
447.036 648.969 l
447.405 647.859 l
447.851 645.713 l
448.365 642.064 l
448.956 636.138 l
449.614 627.157 l
450.351 613.85 l
451.155 595.09 l
452.047 568.788 l
453.063 531.912 l
454.29 478.611 l
458.308 296.502 l
459.033 276.63 l
459.591 266.717 l
460.004 262.681 l
460.283 261.605 l
460.406 261.558 l
460.428 261.577 l
460.574 261.914 l
460.797 263.142 l
461.109 266.288 l
461.522 272.928 l
462.058 285.509 l
462.739 307.231 l
463.643 343.894 l
465.105 413.763 l
467.281 516.14 l
468.475 561.962 l
469.502 593.283 l
470.417 614.768 l
471.243 629.229 l
471.979 638.523 l
472.638 644.246 l
473.207 647.434 l
473.675 648.961 l
474.044 649.527 l
474.323 649.615 l
474.579 649.453 l
474.903 648.938 l
475.327 647.781 l
475.874 645.564 l
476.566 641.749 l
477.447 635.549 l
478.597 625.765 l
480.182 610.204 l
483.027 579.643 l
487 537.556 l
489.623 512.175 l
492.034 490.962 l
494.355 472.461 l
496.643 455.978 l
498.919 441.166 l
501.196 427.788 l
503.495 415.587 l
505.816 404.453 l
508.16 394.287 l
510.537 384.951 l
512.947 376.371 l
515.403 368.444 l
517.902 361.117 l
520.447 354.338 l
523.047 348.037 l
525.703 342.178 l
528.426 336.707 l
531.216 331.597 l
534.073 326.826 l
537.008 322.354 l
540.033 318.149 l
543.158 314.184 l
546.383 310.45 l
549.72 306.925 l
553.19 303.581 l
556.806 300.407 l
560.578 297.393 l
564.518 294.53 l
568.647 291.804 l
572.988 289.206 l
577.564 286.727 l
582.407 284.357 l
587.541 282.094 l
592.998 279.934 l
598.812 277.874 l
605.017 275.913 l
611.669 274.047 l
618.811 272.277 l
626.489 270.605 l
634.77 269.032 l
643.72 267.561 l
653.396 266.199 l
663.864 264.952 l
675.192 263.83 l
687.412 262.846 l
700.536 262.014 l
714.531 261.352 l
729.295 260.878 l
744.629 260.609 l
760.264 260.556 l
775.866 260.726 l
791.11 261.112 l
805.719 261.703 l
819.513 262.481 l
832.402 263.428 l
844.355 264.526 l
855.403 265.761 l
865.592 267.121 l
874.989 268.597 l
883.66 270.181 l
891.673 271.868 l
899.095 273.655 l
905.98 275.539 l
912.397 277.523 l
918.379 279.603 l
923.97 281.78 l
929.215 284.058 l
934.159 286.446 l
938.813 288.939 l
943.221 291.552 l
947.406 294.29 l
951.379 297.154 l
955.174 300.163 l
958.801 303.323 l
962.271 306.641 l
965.608 310.138 l
968.822 313.828 l
971.925 317.729 l
974.927 321.862 l
977.84 326.251 l
980.674 330.928 l
983.431 335.908 l
986.12 341.231 l
988.743 346.921 l
991.299 352.999 l
993.81 359.552 l
996.265 366.587 l
998.675 374.176 l
1001.04 382.367 l
1003.37 391.254 l
1005.67 400.904 l
1007.94 411.388 l
1010.18 422.84 l
1012.4 435.355 l
1014.61 449.102 l
1016.82 464.278 l
1019.04 481.105 l
1021.3 499.914 l
1023.65 521.479 l
1026.22 547.12 l
1029.62 583.604 l
1033 619.254 l
1034.53 633.101 l
1035.63 641.147 l
1036.46 645.798 l
1037.1 648.219 l
1037.58 649.289 l
1037.92 649.605 l
1038.18 649.571 l
1038.45 649.275 l
1038.77 648.539 l
1039.17 647.007 l
1039.65 644.204 l
1040.2 639.595 l
1040.83 632.299 l
1041.52 621.446 l
1042.29 605.63 l
1043.14 583.336 l
1044.09 552.169 l
1045.18 508.445 l
1046.61 441.589 l
1049.21 318.813 l
1050.1 287.539 l
1050.77 271.034 l
1051.28 263.137 l
1051.66 260.153 l
1051.91 259.552 l
1052.02 259.626 l
1052.18 260.096 l
1052.42 261.69 l
1052.76 265.526 l
1053.2 273.523 l
1053.77 288.164 l
1054.5 313.086 l
1055.48 355.217 l
1057.52 455.354 l
1059.1 526.506 l
1060.24 568.966 l
1061.24 597.949 l
1062.13 617.903 l
1062.93 631.23 l
1063.66 639.834 l
1064.3 644.977 l
1064.84 647.794 l
1065.3 649.125 l
1065.66 649.575 l
1065.93 649.598 l
1066.19 649.371 l
1066.53 648.757 l
1066.97 647.417 l
1067.54 644.935 l
1068.27 640.7 l
1069.2 633.88 l
1070.41 623.146 l
1072.14 605.706 l
1076.32 560.477 l
1079.37 528.902 l
1081.91 505.009 l
1084.28 484.658 l
1086.59 466.764 l
1088.87 450.831 l
1091.15 436.443 l
1093.43 423.39 l
1095.73 411.54 l
1098.06 400.724 l
1100.41 390.797 l
1102.8 381.68 l
1105.22 373.3 l
1107.69 365.556 l
1110.2 358.395 l
1112.76 351.741 l
1115.38 345.582 l
1118.05 339.83 l
1120.79 334.48 l
1123.59 329.482 l
1126.47 324.795 l
1129.44 320.387 l
1132.49 316.243 l
1135.64 312.35 l
1138.9 308.671 l
1142.28 305.188 l
1145.8 301.887 l
1149.46 298.755 l
1153.27 295.782 l
1157.27 292.951 l
1161.47 290.251 l
1165.89 287.673 l
1170.55 285.21 l
1175.48 282.859 l
1180.72 280.612 l
1186.29 278.465 l
1192.23 276.413 l
1198.6 274.455 l
1205.41 272.592 l
1212.75 270.821 l
1220.65 269.144 l
1229.2 267.56 l
1238.45 266.074 l
1248.48 264.691 l
1259.38 263.416 l
1271.22 262.257 l
1284.07 261.227 l
1296 260.451 l
1296 260.451 l
stroke
grestore
0.000 0.750 0.750 setrgbcolor
gsave
1116 577.4 180 72.18 clipbox
180 262.539 m
194.237 262.65 l
208.241 262.98 l
221.767 263.52 l
234.635 264.254 l
246.737 265.164 l
258.03 266.233 l
268.517 267.447 l
278.23 268.792 l
287.22 270.259 l
295.543 271.839 l
303.257 273.527 l
310.418 275.32 l
317.081 277.214 l
323.292 279.209 l
329.098 281.304 l
334.538 283.503 l
339.649 285.806 l
344.465 288.218 l
349.014 290.744 l
353.323 293.39 l
357.415 296.162 l
361.312 299.071 l
365.033 302.124 l
368.594 305.334 l
372.012 308.715 l
375.3 312.28 l
378.471 316.046 l
381.535 320.033 l
384.503 324.26 l
387.382 328.75 l
390.181 333.53 l
392.906 338.627 l
395.564 344.074 l
398.16 349.904 l
400.699 356.158 l
403.185 362.88 l
405.623 370.116 l
408.016 377.924 l
410.368 386.369 l
412.684 395.52 l
414.966 405.457 l
417.22 416.279 l
419.451 428.095 l
421.665 441.038 l
423.872 455.275 l
426.081 471.01 l
428.314 488.541 l
430.603 508.307 l
433.015 531.121 l
435.749 559.201 l
442.337 627.982 l
443.591 638.144 l
444.531 644.093 l
445.252 647.37 l
445.8 648.948 l
446.203 649.53 l
446.489 649.614 l
446.737 649.448 l
447.031 648.949 l
447.396 647.837 l
447.838 645.707 l
448.354 642.027 l
448.945 636.101 l
449.606 627.076 l
450.338 613.841 l
451.146 594.971 l
452.042 568.547 l
453.057 531.651 l
454.285 478.373 l
458.279 297.653 l
459.009 277.63 l
459.57 267.643 l
459.99 263.554 l
460.274 262.488 l
460.395 262.457 l
460.42 262.482 l
460.562 262.83 l
460.784 264.069 l
461.099 267.259 l
461.518 274.033 l
462.053 286.67 l
462.737 308.542 l
463.644 345.3 l
465.116 415.509 l
467.275 516.664 l
468.475 562.481 l
469.497 593.509 l
470.409 614.831 l
471.231 629.199 l
471.972 638.532 l
472.631 644.242 l
473.201 647.431 l
473.675 648.969 l
474.047 649.533 l
474.326 649.614 l
474.583 649.447 l
474.902 648.938 l
475.32 647.803 l
475.862 645.627 l
476.552 641.849 l
477.433 635.699 l
478.577 626.018 l
480.155 610.601 l
482.943 580.778 l
487.007 537.812 l
489.632 512.473 l
492.045 491.291 l
494.372 472.79 l
496.662 456.331 l
498.941 441.539 l
501.224 428.156 l
503.521 415.995 l
505.84 404.898 l
508.185 394.744 l
510.564 385.423 l
512.979 376.846 l
515.434 368.937 l
517.934 361.625 l
520.482 354.852 l
523.082 348.565 l
525.739 342.717 l
528.458 337.266 l
531.242 332.178 l
534.1 327.414 l
537.037 322.948 l
540.062 318.752 l
543.181 314.803 l
546.405 311.078 l
549.745 307.558 l
553.213 304.227 l
556.822 301.067 l
560.586 298.067 l
564.523 295.215 l
568.651 292.499 l
572.992 289.911 l
577.566 287.443 l
582.401 285.09 l
587.523 282.845 l
592.965 280.704 l
598.76 278.665 l
604.947 276.727 l
611.568 274.887 l
618.671 273.147 l
626.304 271.508 l
634.521 269.974 l
643.379 268.549 l
652.933 267.24 l
663.234 266.056 l
674.321 265.008 l
686.212 264.109 l
698.886 263.376 l
712.268 262.826 l
726.215 262.477 l
740.511 262.342 l
754.886 262.427 l
769.056 262.733 l
782.766 263.25 l
795.823 263.962 l
808.113 264.853 l
819.584 265.904 l
830.236 267.101 l
840.102 268.43 l
849.228 269.881 l
857.674 271.447 l
865.499 273.12 l
872.759 274.898 l
879.51 276.777 l
885.801 278.757 l
891.678 280.837 l
897.182 283.019 l
902.351 285.305 l
907.218 287.699 l
911.813 290.206 l
916.163 292.831 l
920.292 295.581 l
924.222 298.466 l
927.973 301.494 l
931.562 304.676 l
935.005 308.027 l
938.316 311.559 l
941.507 315.289 l
944.589 319.236 l
947.574 323.419 l
950.469 327.863 l
953.281 332.589 l
956.018 337.627 l
958.688 343.009 l
961.295 348.77 l
963.844 354.947 l
966.339 361.582 l
968.785 368.726 l
971.186 376.429 l
973.545 384.756 l
975.866 393.775 l
978.154 403.566 l
980.413 414.224 l
982.647 425.853 l
984.864 438.585 l
987.07 452.575 l
989.277 468.023 l
991.504 485.204 l
993.778 504.521 l
996.16 526.699 l
998.804 553.488 l
1003.47 603.655 l
1005.6 624.948 l
1006.94 636.36 l
1007.94 643.062 l
1008.7 646.826 l
1009.29 648.711 l
1009.72 649.46 l
1010.03 649.62 l
1010.27 649.505 l
1010.55 649.096 l
1010.9 648.145 l
1011.33 646.273 l
1011.83 642.975 l
1012.4 637.595 l
1013.05 629.305 l
1013.77 617.072 l
1014.56 599.533 l
1015.43 574.926 l
1016.42 540.592 l
1017.58 491.679 l
1019.33 407.697 l
1021.11 325.52 l
1022.03 292.363 l
1022.73 274.778 l
1023.26 266.259 l
1023.65 262.972 l
1023.91 262.251 l
1024.03 262.307 l
1024.18 262.739 l
1024.42 264.19 l
1024.75 267.794 l
1025.18 275.266 l
1025.73 289.047 l
1026.44 312.666 l
1027.4 352.503 l
1029.12 435.758 l
1030.93 519.412 l
1032.12 564.301 l
1033.14 594.762 l
1034.04 615.674 l
1034.86 629.772 l
1035.6 638.891 l
1036.25 644.451 l
1036.82 647.541 l
1037.29 649.015 l
1037.65 649.545 l
1037.93 649.611 l
1038.19 649.43 l
1038.51 648.896 l
1038.93 647.717 l
1039.48 645.474 l
1040.18 641.59 l
1041.08 635.281 l
1042.24 625.358 l
1043.85 609.519 l
1046.81 577.786 l
1050.64 537.318 l
1053.26 512.064 l
1055.67 490.93 l
1058 472.464 l
1060.29 456.029 l
1062.57 441.259 l
1064.85 427.895 l
1067.15 415.753 l
1069.47 404.671 l
1071.81 394.527 l
1074.19 385.216 l
1076.61 376.648 l
1079.06 368.747 l
1081.57 361.442 l
1084.11 354.677 l
1086.72 348.396 l
1089.37 342.556 l
1092.09 337.111 l
1094.88 332.025 l
1097.74 327.267 l
1100.68 322.805 l
1103.7 318.613 l
1106.82 314.667 l
1110.05 310.945 l
1113.39 307.427 l
1116.86 304.098 l
1120.47 300.941 l
1124.24 297.942 l
1128.18 295.091 l
1132.31 292.376 l
1136.66 289.788 l
1141.24 287.321 l
1146.08 284.968 l
1151.21 282.723 l
1156.65 280.582 l
1162.46 278.543 l
1168.65 276.603 l
1175.29 274.762 l
1182.4 273.02 l
1190.05 271.38 l
1198.29 269.843 l
1207.17 268.414 l
1216.75 267.101 l
1227.08 265.912 l
1238.21 264.857 l
1250.15 263.951 l
1262.89 263.21 l
1276.36 262.651 l
1290.4 262.291 l
1296 262.208 l
1296 262.208 l
stroke
grestore
0 setlinejoin
0.000 setgray
gsave
180 649.62 m
1296 649.62 l
stroke
grestore
gsave
1296 72.18 m
1296 649.62 l
stroke
grestore
gsave
180 72.18 m
1296 72.18 l
stroke
grestore
gsave
180 72.18 m
180 649.62 l
stroke
grestore
0.500 setlinewidth
1 setlinejoin
0 setlinecap
gsave
/o {
gsave
newpath
translate
0.5 setlinewidth
1 setlinejoin
0 setlinecap
0 0 m
0 4 l
gsave
0.000 setgray
fill
grestore
stroke
grestore
} bind def
180 72.18 o
grestore
gsave
/o {
gsave
newpath
translate
0.5 setlinewidth
1 setlinejoin
0 setlinecap
0 0 m
0 -4 l
gsave
0.000 setgray
fill
grestore
stroke
grestore
} bind def
180 649.62 o
grestore
/BitstreamVeraSans-Roman findfont
12.000 scalefont
setfont
gsave
176.976562 59.055000 translate
0.000000 rotate
0.000000 0.000000 m /zero glyphshow
grestore
gsave
/o {
gsave
newpath
translate
0.5 setlinewidth
1 setlinejoin
0 setlinecap
0 0 m
0 4 l
gsave
0.000 setgray
fill
grestore
stroke
grestore
} bind def
403.2 72.18 o
grestore
gsave
/o {
gsave
newpath
translate
0.5 setlinewidth
1 setlinejoin
0 setlinecap
0 0 m
0 -4 l
gsave
0.000 setgray
fill
grestore
stroke
grestore
} bind def
403.2 649.62 o
grestore
gsave
400.418750 59.055000 translate
0.000000 rotate
0.000000 0.000000 m /two glyphshow
grestore
gsave
/o {
gsave
newpath
translate
0.5 setlinewidth
1 setlinejoin
0 setlinecap
0 0 m
0 4 l
gsave
0.000 setgray
fill
grestore
stroke
grestore
} bind def
626.4 72.18 o
grestore
gsave
/o {
gsave
newpath
translate
0.5 setlinewidth
1 setlinejoin
0 setlinecap
0 0 m
0 -4 l
gsave
0.000 setgray
fill
grestore
stroke
grestore
} bind def
626.4 649.62 o
grestore
gsave
623.212500 59.055000 translate
0.000000 rotate
0.000000 0.000000 m /four glyphshow
grestore
gsave
/o {
gsave
newpath
translate
0.5 setlinewidth
1 setlinejoin
0 setlinecap
0 0 m
0 4 l
gsave
0.000 setgray
fill
grestore
stroke
grestore
} bind def
849.6 72.18 o
grestore
gsave
/o {
gsave
newpath
translate
0.5 setlinewidth
1 setlinejoin
0 setlinecap
0 0 m
0 -4 l
gsave
0.000 setgray
fill
grestore
stroke
grestore
} bind def
849.6 649.62 o
grestore
gsave
846.584375 59.055000 translate
0.000000 rotate
0.000000 0.000000 m /six glyphshow
grestore
gsave
/o {
gsave
newpath
translate
0.5 setlinewidth
1 setlinejoin
0 setlinecap
0 0 m
0 4 l
gsave
0.000 setgray
fill
grestore
stroke
grestore
} bind def
1072.8 72.18 o
grestore
gsave
/o {
gsave
newpath
translate
0.5 setlinewidth
1 setlinejoin
0 setlinecap
0 0 m
0 -4 l
gsave
0.000 setgray
fill
grestore
stroke
grestore
} bind def
1072.8 649.62 o
grestore
gsave
1069.800000 59.055000 translate
0.000000 rotate
0.000000 0.000000 m /eight glyphshow
grestore
gsave
/o {
gsave
newpath
translate
0.5 setlinewidth
1 setlinejoin
0 setlinecap
0 0 m
0 4 l
gsave
0.000 setgray
fill
grestore
stroke
grestore
} bind def
1296 72.18 o
grestore
gsave
/o {
gsave
newpath
translate
0.5 setlinewidth
1 setlinejoin
0 setlinecap
0 0 m
0 -4 l
gsave
0.000 setgray
fill
grestore
stroke
grestore
} bind def
1296 649.62 o
grestore
gsave
1289.414062 59.055000 translate
0.000000 rotate
0.000000 0.000000 m /one glyphshow
7.634766 0.000000 m /zero glyphshow
grestore
/BitstreamVeraSans-Roman findfont
14.000 scalefont
setfont
gsave
735.609375 40.914375 translate
0.000000 rotate
0.000000 0.000000 m /t glyphshow
grestore
gsave
/o {
gsave
newpath
translate
0.5 setlinewidth
1 setlinejoin
0 setlinecap
0 0 m
4 0 l
gsave
0.000 setgray
fill
grestore
stroke
grestore
} bind def
180 72.18 o
grestore
gsave
/o {
gsave
newpath
translate
0.5 setlinewidth
1 setlinejoin
0 setlinecap
0 0 m
-4 0 l
gsave
0.000 setgray
fill
grestore
stroke
grestore
} bind def
1296 72.18 o
grestore
/BitstreamVeraSans-Roman findfont
12.000 scalefont
setfont
gsave
148.781250 68.867500 translate
0.000000 rotate
0.000000 0.000000 m /minus glyphshow
10.054688 0.000000 m /zero glyphshow
17.689453 0.000000 m /period glyphshow
21.503906 0.000000 m /four glyphshow
grestore
gsave
/o {
gsave
newpath
translate
0.5 setlinewidth
1 setlinejoin
0 setlinecap
0 0 m
4 0 l
gsave
0.000 setgray
fill
grestore
stroke
grestore
} bind def
180 154.671 o
grestore
gsave
/o {
gsave
newpath
translate
0.5 setlinewidth
1 setlinejoin
0 setlinecap
0 0 m
-4 0 l
gsave
0.000 setgray
fill
grestore
stroke
grestore
} bind def
1296 154.671 o
grestore
gsave
149.312500 151.358929 translate
0.000000 rotate
0.000000 0.000000 m /minus glyphshow
10.054688 0.000000 m /zero glyphshow
17.689453 0.000000 m /period glyphshow
21.503906 0.000000 m /two glyphshow
grestore
gsave
/o {
gsave
newpath
translate
0.5 setlinewidth
1 setlinejoin
0 setlinecap
0 0 m
4 0 l
gsave
0.000 setgray
fill
grestore
stroke
grestore
} bind def
180 237.163 o
grestore
gsave
/o {
gsave
newpath
translate
0.5 setlinewidth
1 setlinejoin
0 setlinecap
0 0 m
-4 0 l
gsave
0.000 setgray
fill
grestore
stroke
grestore
} bind def
1296 237.163 o
grestore
gsave
158.500000 233.850357 translate
0.000000 rotate
0.000000 0.000000 m /zero glyphshow
7.634766 0.000000 m /period glyphshow
11.449219 0.000000 m /zero glyphshow
grestore
gsave
/o {
gsave
newpath
translate
0.5 setlinewidth
1 setlinejoin
0 setlinecap
0 0 m
4 0 l
gsave
0.000 setgray
fill
grestore
stroke
grestore
} bind def
180 319.654 o
grestore
gsave
/o {
gsave
newpath
translate
0.5 setlinewidth
1 setlinejoin
0 setlinecap
0 0 m
-4 0 l
gsave
0.000 setgray
fill
grestore
stroke
grestore
} bind def
1296 319.654 o
grestore
gsave
158.906250 316.341786 translate
0.000000 rotate
0.000000 0.000000 m /zero glyphshow
7.634766 0.000000 m /period glyphshow
11.449219 0.000000 m /two glyphshow
grestore
gsave
/o {
gsave
newpath
translate
0.5 setlinewidth
1 setlinejoin
0 setlinecap
0 0 m
4 0 l
gsave
0.000 setgray
fill
grestore
stroke
grestore
} bind def
180 402.146 o
grestore
gsave
/o {
gsave
newpath
translate
0.5 setlinewidth
1 setlinejoin
0 setlinecap
0 0 m
-4 0 l
gsave
0.000 setgray
fill
grestore
stroke
grestore
} bind def
1296 402.146 o
grestore
gsave
158.375000 398.833214 translate
0.000000 rotate
0.000000 0.000000 m /zero glyphshow
7.634766 0.000000 m /period glyphshow
11.449219 0.000000 m /four glyphshow
grestore
gsave
/o {
gsave
newpath
translate
0.5 setlinewidth
1 setlinejoin
0 setlinecap
0 0 m
4 0 l
gsave
0.000 setgray
fill
grestore
stroke
grestore
} bind def
180 484.637 o
grestore
gsave
/o {
gsave
newpath
translate
0.5 setlinewidth
1 setlinejoin
0 setlinecap
0 0 m
-4 0 l
gsave
0.000 setgray
fill
grestore
stroke
grestore
} bind def
1296 484.637 o
grestore
gsave
158.468750 481.324643 translate
0.000000 rotate
0.000000 0.000000 m /zero glyphshow
7.634766 0.000000 m /period glyphshow
11.449219 0.000000 m /six glyphshow
grestore
gsave
/o {
gsave
newpath
translate
0.5 setlinewidth
1 setlinejoin
0 setlinecap
0 0 m
4 0 l
gsave
0.000 setgray
fill
grestore
stroke
grestore
} bind def
180 567.129 o
grestore
gsave
/o {
gsave
newpath
translate
0.5 setlinewidth
1 setlinejoin
0 setlinecap
0 0 m
-4 0 l
gsave
0.000 setgray
fill
grestore
stroke
grestore
} bind def
1296 567.129 o
grestore
gsave
158.531250 563.816071 translate
0.000000 rotate
0.000000 0.000000 m /zero glyphshow
7.634766 0.000000 m /period glyphshow
11.449219 0.000000 m /eight glyphshow
grestore
gsave
/o {
gsave
newpath
translate
0.5 setlinewidth
1 setlinejoin
0 setlinecap
0 0 m
4 0 l
gsave
0.000 setgray
fill
grestore
stroke
grestore
} bind def
180 649.62 o
grestore
gsave
/o {
gsave
newpath
translate
0.5 setlinewidth
1 setlinejoin
0 setlinecap
0 0 m
-4 0 l
gsave
0.000 setgray
fill
grestore
stroke
grestore
} bind def
1296 649.62 o
grestore
gsave
159.015625 646.307500 translate
0.000000 rotate
0.000000 0.000000 m /one glyphshow
7.634766 0.000000 m /period glyphshow
11.449219 0.000000 m /zero glyphshow
grestore
/BitstreamVeraSans-Roman findfont
14.000 scalefont
setfont
gsave
140.875000 357.610938 translate
90.000000 rotate
0.000000 0.000000 m /E glyphshow
grestore
gsave
729.164062 654.620000 translate
0.000000 rotate
0.000000 0.000000 m /E glyphshow
8.845703 0.000000 m /hyphen glyphshow
13.897461 0.000000 m /t glyphshow
grestore
1.000 setlinewidth
0 setlinejoin
gsave
1152.02 555.113 m
1288.8 555.113 l
1288.8 642.42 l
1152.02 642.42 l
cl
gsave
1.000 setgray
fill
grestore
stroke
grestore
1 setlinejoin
2 setlinecap
0.000 0.000 1.000 setrgbcolor
gsave
1162.1 631.059 m
1182.26 631.059 l
stroke
grestore
0.000 setgray
/BitstreamVeraSans-Roman findfont
14.400 scalefont
setfont
gsave
1198.102500 626.019375 translate
0.000000 rotate
0.000000 0.000000 m /t glyphshow
5.636292 0.000000 m /space glyphshow
10.205688 0.000000 m /equal glyphshow
22.250366 0.000000 m /space glyphshow
26.819763 0.000000 m /zero glyphshow
35.965576 0.000000 m /period glyphshow
40.534973 0.000000 m /zero glyphshow
49.680786 0.000000 m /one glyphshow
grestore
0.000 0.500 0.000 setrgbcolor
gsave
1162.1 610.312 m
1182.26 610.312 l
stroke
grestore
0.000 setgray
gsave
1198.102500 605.272500 translate
0.000000 rotate
0.000000 0.000000 m /t glyphshow
5.636292 0.000000 m /space glyphshow
10.205688 0.000000 m /equal glyphshow
22.250366 0.000000 m /space glyphshow
26.819763 0.000000 m /zero glyphshow
35.965576 0.000000 m /period glyphshow
40.534973 0.000000 m /zero glyphshow
49.680786 0.000000 m /zero glyphshow
58.826599 0.000000 m /one glyphshow
grestore
1.000 0.000 0.000 setrgbcolor
gsave
1162.1 589.566 m
1182.26 589.566 l
stroke
grestore
0.000 setgray
gsave
1198.102500 584.525625 translate
0.000000 rotate
0.000000 0.000000 m /t glyphshow
5.636292 0.000000 m /space glyphshow
10.205688 0.000000 m /equal glyphshow
22.250366 0.000000 m /space glyphshow
26.819763 0.000000 m /zero glyphshow
35.965576 0.000000 m /period glyphshow
40.534973 0.000000 m /zero glyphshow
49.680786 0.000000 m /zero glyphshow
58.826599 0.000000 m /zero glyphshow
67.972412 0.000000 m /one glyphshow
grestore
0.000 0.750 0.750 setrgbcolor
gsave
1162.1 568.819 m
1182.26 568.819 l
stroke
grestore
0.000 setgray
gsave
1198.102500 563.778750 translate
0.000000 rotate
0.000000 0.000000 m /t glyphshow
5.636292 0.000000 m /space glyphshow
10.205688 0.000000 m /equal glyphshow
22.250366 0.000000 m /space glyphshow
26.819763 0.000000 m /zero glyphshow
35.965576 0.000000 m /period glyphshow
40.534973 0.000000 m /zero glyphshow
49.680786 0.000000 m /zero glyphshow
58.826599 0.000000 m /zero glyphshow
67.972412 0.000000 m /zero glyphshow
77.118225 0.000000 m /one glyphshow
grestore

end
showpage
