%!PS-Adobe-3.0 EPSF-3.0
%%Title: /home/sunoru/Study/computational-physics/homework/c2/2-9_x_t.eps
%%Creator: matplotlib version 1.4.3, http://matplotlib.org/
%%CreationDate: Mon Dec 21 01:02:19 2015
%%Orientation: portrait
%%BoundingBox: -414 35 1026 756
%%EndComments
%%BeginProlog
/mpldict 8 dict def
mpldict begin
/m { moveto } bind def
/l { lineto } bind def
/r { rlineto } bind def
/c { curveto } bind def
/cl { closepath } bind def
/box {
m
1 index 0 r
0 exch r
neg 0 r
cl
} bind def
/clipbox {
box
clip
newpath
} bind def
%!PS-Adobe-3.0 Resource-Font
%%Title: Bitstream Vera Sans
%%Copyright: Copyright (c) 2003 by Bitstream, Inc. All Rights Reserved.
%%Creator: Converted from TrueType to type 3 by PPR
25 dict begin
/_d{bind def}bind def
/_m{moveto}_d
/_l{lineto}_d
/_cl{closepath eofill}_d
/_c{curveto}_d
/_sc{7 -1 roll{setcachedevice}{pop pop pop pop pop pop}ifelse}_d
/_e{exec}_d
/FontName /BitstreamVeraSans-Roman def
/PaintType 0 def
/FontMatrix[.001 0 0 .001 0 0]def
/FontBBox[-183 -236 1287 928]def
/FontType 3 def
/Encoding [ /space /hyphen /period /zero /one /two /four /six /eight /equal /t /x ] def
/FontInfo 10 dict dup begin
/FamilyName (Bitstream Vera Sans) def
/FullName (Bitstream Vera Sans) def
/Notice (Copyright (c) 2003 by Bitstream, Inc. All Rights Reserved. Bitstream Vera is a trademark of Bitstream, Inc.) def
/Weight (Roman) def
/Version (Release 1.10) def
/ItalicAngle 0.0 def
/isFixedPitch false def
/UnderlinePosition -213 def
/UnderlineThickness 143 def
end readonly def
/CharStrings 12 dict dup begin
/space{318 0 0 0 0 0 _sc
}_d
/hyphen{361 0 49 234 312 314 _sc
49 314 _m
312 314 _l
312 234 _l
49 234 _l
49 314 _l
_cl}_d
/period{318 0 107 0 210 124 _sc
107 124 _m
210 124 _l
210 0 _l
107 0 _l
107 124 _l
_cl}_d
/zero{636 0 66 -13 570 742 _sc
318 664 _m
267 664 229 639 203 589 _c
177 539 165 464 165 364 _c
165 264 177 189 203 139 _c
229 89 267 64 318 64 _c
369 64 407 89 433 139 _c
458 189 471 264 471 364 _c
471 464 458 539 433 589 _c
407 639 369 664 318 664 _c
318 742 _m
399 742 461 709 505 645 _c
548 580 570 486 570 364 _c
570 241 548 147 505 83 _c
461 19 399 -13 318 -13 _c
236 -13 173 19 130 83 _c
87 147 66 241 66 364 _c
66 486 87 580 130 645 _c
173 709 236 742 318 742 _c
_cl}_d
/one{636 0 110 0 544 729 _sc
124 83 _m
285 83 _l
285 639 _l
110 604 _l
110 694 _l
284 729 _l
383 729 _l
383 83 _l
544 83 _l
544 0 _l
124 0 _l
124 83 _l
_cl}_d
/two{{636 0 73 0 536 742 _sc
192 83 _m
536 83 _l
536 0 _l
73 0 _l
73 83 _l
110 121 161 173 226 239 _c
290 304 331 346 348 365 _c
380 400 402 430 414 455 _c
426 479 433 504 433 528 _c
433 566 419 598 392 622 _c
365 646 330 659 286 659 _c
255 659 222 653 188 643 _c
154 632 117 616 78 594 _c
78 694 _l
118 710 155 722 189 730 _c
223 738 255 742 284 742 _c
}_e{359 742 419 723 464 685 _c
509 647 532 597 532 534 _c
532 504 526 475 515 449 _c
504 422 484 390 454 354 _c
446 344 420 317 376 272 _c
332 227 271 164 192 83 _c
_cl}_e}_d
/four{636 0 49 0 580 729 _sc
378 643 _m
129 254 _l
378 254 _l
378 643 _l
352 729 _m
476 729 _l
476 254 _l
580 254 _l
580 172 _l
476 172 _l
476 0 _l
378 0 _l
378 172 _l
49 172 _l
49 267 _l
352 729 _l
_cl}_d
/six{{636 0 70 -13 573 742 _sc
330 404 _m
286 404 251 388 225 358 _c
199 328 186 286 186 234 _c
186 181 199 139 225 109 _c
251 79 286 64 330 64 _c
374 64 409 79 435 109 _c
461 139 474 181 474 234 _c
474 286 461 328 435 358 _c
409 388 374 404 330 404 _c
526 713 _m
526 623 _l
501 635 476 644 451 650 _c
425 656 400 659 376 659 _c
310 659 260 637 226 593 _c
}_e{192 549 172 482 168 394 _c
187 422 211 444 240 459 _c
269 474 301 482 336 482 _c
409 482 467 459 509 415 _c
551 371 573 310 573 234 _c
573 159 550 99 506 54 _c
462 9 403 -13 330 -13 _c
246 -13 181 19 137 83 _c
92 147 70 241 70 364 _c
70 479 97 571 152 639 _c
206 707 280 742 372 742 _c
396 742 421 739 447 735 _c
472 730 498 723 526 713 _c
_cl}_e}_d
/eight{{636 0 68 -13 568 742 _sc
318 346 _m
271 346 234 333 207 308 _c
180 283 167 249 167 205 _c
167 161 180 126 207 101 _c
234 76 271 64 318 64 _c
364 64 401 76 428 102 _c
455 127 469 161 469 205 _c
469 249 455 283 429 308 _c
402 333 365 346 318 346 _c
219 388 _m
177 398 144 418 120 447 _c
96 476 85 511 85 553 _c
85 611 105 657 147 691 _c
188 725 245 742 318 742 _c
}_e{390 742 447 725 489 691 _c
530 657 551 611 551 553 _c
551 511 539 476 515 447 _c
491 418 459 398 417 388 _c
464 377 501 355 528 323 _c
554 291 568 251 568 205 _c
568 134 546 80 503 43 _c
459 5 398 -13 318 -13 _c
237 -13 175 5 132 43 _c
89 80 68 134 68 205 _c
68 251 81 291 108 323 _c
134 355 171 377 219 388 _c
183 544 _m
183 506 194 476 218 455 _c
}_e{242 434 275 424 318 424 _c
360 424 393 434 417 455 _c
441 476 453 506 453 544 _c
453 582 441 611 417 632 _c
393 653 360 664 318 664 _c
275 664 242 653 218 632 _c
194 611 183 582 183 544 _c
_cl}_e}_d
/equal{838 0 106 172 732 454 _sc
106 454 _m
732 454 _l
732 372 _l
106 372 _l
106 454 _l
106 255 _m
732 255 _l
732 172 _l
106 172 _l
106 255 _l
_cl}_d
/t{392 0 27 0 368 702 _sc
183 702 _m
183 547 _l
368 547 _l
368 477 _l
183 477 _l
183 180 _l
183 135 189 106 201 94 _c
213 81 238 75 276 75 _c
368 75 _l
368 0 _l
276 0 _l
206 0 158 13 132 39 _c
106 65 93 112 93 180 _c
93 477 _l
27 477 _l
27 547 _l
93 547 _l
93 702 _l
183 702 _l
_cl}_d
/x{592 0 29 0 559 547 _sc
549 547 _m
351 281 _l
559 0 _l
453 0 _l
294 215 _l
135 0 _l
29 0 _l
241 286 _l
47 547 _l
153 547 _l
298 352 _l
443 547 _l
549 547 _l
_cl}_d
end readonly def

/BuildGlyph
 {exch begin
 CharStrings exch
 2 copy known not{pop /.notdef}if
 true 3 1 roll get exec
 end}_d

/BuildChar {
 1 index /Encoding get exch get
 1 index /BuildGlyph get exec
}_d

FontName currentdict end definefont pop
end
%%EndProlog
mpldict begin
-414 35.1 translate
1440 721.8 0 0 clipbox
gsave
0 0 m
1440 0 l
1440 721.8 l
0 721.8 l
cl
1.000 setgray
fill
grestore
gsave
180 72.18 m
1296 72.18 l
1296 649.62 l
180 649.62 l
cl
1.000 setgray
fill
grestore
1.000 setlinewidth
1 setlinejoin
2 setlinecap
[] 0 setdash
0.000 0.000 1.000 setrgbcolor
gsave
1116 577.4 180 72.18 clipbox
180 187.668 m
196.74 187.558 l
212.364 187.241 l
227.988 186.713 l
243.612 185.968 l
259.236 184.996 l
273.744 183.878 l
288.252 182.54 l
301.644 181.092 l
315.036 179.42 l
327.312 177.671 l
339.588 175.691 l
350.748 173.664 l
360.792 171.629 l
370.836 169.367 l
379.764 167.136 l
388.692 164.663 l
396.504 162.269 l
404.316 159.619 l
411.012 157.109 l
417.708 154.337 l
423.288 151.79 l
428.868 148.992 l
434.448 145.901 l
438.912 143.193 l
443.376 140.266 l
450.072 135.554 l
454.536 132.476 l
456.768 131.141 l
459 130.098 l
460.116 129.734 l
461.232 129.501 l
462.348 129.415 l
463.464 129.488 l
464.58 129.725 l
465.696 130.122 l
466.812 130.666 l
469.044 132.123 l
471.276 133.922 l
475.74 137.957 l
482.436 144.014 l
488.016 148.715 l
493.596 153.103 l
500.292 158.039 l
508.104 163.463 l
517.032 169.355 l
528.192 176.411 l
541.584 184.592 l
559.44 195.213 l
583.992 209.529 l
620.82 230.719 l
685.548 267.668 l
845.136 358.445 l
1296 614.706 l
1296 614.706 l
stroke
grestore
0.000 0.500 0.000 setrgbcolor
gsave
1116 577.4 180 72.18 clipbox
180 187.668 m
196.182 187.558 l
212.364 187.227 l
228.323 186.677 l
243.947 185.919 l
259.236 184.957 l
274.079 183.801 l
288.364 182.467 l
302.09 180.965 l
315.148 179.315 l
327.535 177.53 l
339.253 175.62 l
350.302 173.598 l
360.68 171.475 l
370.39 169.264 l
379.429 166.979 l
387.799 164.638 l
395.611 162.224 l
402.865 159.75 l
409.561 157.231 l
415.699 154.689 l
421.391 152.097 l
426.748 149.416 l
431.77 146.658 l
436.68 143.705 l
441.59 140.488 l
448.175 135.874 l
452.527 132.934 l
454.982 131.538 l
456.88 130.708 l
458.442 130.249 l
459.893 130.037 l
461.344 130.049 l
462.794 130.285 l
464.357 130.771 l
466.142 131.578 l
468.263 132.796 l
471.164 134.742 l
485.561 144.757 l
490.471 147.731 l
495.605 150.579 l
501.073 153.354 l
506.988 156.1 l
513.349 158.802 l
520.268 161.494 l
527.746 164.161 l
535.892 166.828 l
544.709 169.479 l
554.306 172.132 l
564.797 174.799 l
576.18 177.46 l
588.568 180.125 l
601.96 182.777 l
616.468 185.42 l
632.203 188.059 l
649.166 190.674 l
667.469 193.268 l
687.11 195.825 l
708.203 198.344 l
730.746 200.809 l
754.852 203.22 l
780.52 205.561 l
807.75 207.818 l
836.543 209.98 l
866.898 212.036 l
898.816 213.973 l
932.296 215.78 l
967.226 217.442 l
1003.5 218.943 l
1040.99 220.273 l
1079.72 221.422 l
1119.34 222.374 l
1159.85 223.126 l
1201.03 223.666 l
1242.66 223.989 l
1284.51 224.092 l
1296 224.081 l
1296 224.081 l
stroke
grestore
1.000 0.000 0.000 setrgbcolor
gsave
1116 577.4 180 72.18 clipbox
180 187.668 m
196.238 187.557 l
212.386 187.225 l
228.345 186.674 l
244.014 185.913 l
259.303 184.948 l
274.135 183.791 l
288.442 182.453 l
302.157 180.95 l
315.248 179.293 l
327.669 177.498 l
339.409 175.58 l
350.458 173.552 l
360.814 171.428 l
370.49 169.218 l
379.496 166.937 l
387.866 164.59 l
395.634 162.183 l
402.821 159.727 l
409.472 157.221 l
415.632 154.666 l
421.357 152.053 l
426.703 149.371 l
431.747 146.593 l
436.602 143.665 l
441.535 140.427 l
448.42 135.599 l
452.494 132.876 l
454.871 131.544 l
456.746 130.739 l
458.364 130.28 l
459.859 130.083 l
461.31 130.117 l
462.794 130.377 l
464.379 130.886 l
466.176 131.704 l
468.374 132.964 l
471.455 135.009 l
484.389 143.858 l
489.266 146.792 l
494.288 149.553 l
499.578 152.206 l
505.225 154.787 l
511.285 157.31 l
517.813 159.785 l
524.855 162.215 l
532.455 164.6 l
540.647 166.934 l
549.463 169.213 l
558.938 171.43 l
569.093 173.575 l
579.941 175.637 l
591.503 177.607 l
603.768 179.468 l
616.735 181.21 l
630.384 182.817 l
644.691 184.276 l
659.601 185.572 l
675.069 186.693 l
691.016 187.624 l
707.377 188.356 l
724.05 188.879 l
740.946 189.187 l
757.954 189.274 l
774.973 189.139 l
791.88 188.783 l
808.587 188.21 l
824.981 187.426 l
840.973 186.439 l
856.486 185.261 l
871.44 183.904 l
885.781 182.38 l
899.452 180.707 l
912.431 178.896 l
924.696 176.962 l
936.235 174.92 l
947.049 172.784 l
957.149 170.564 l
966.557 168.272 l
975.295 165.917 l
983.397 163.506 l
990.897 161.045 l
997.838 158.536 l
1004.26 155.982 l
1010.2 153.378 l
1015.74 150.715 l
1020.93 147.972 l
1025.86 145.114 l
1030.7 142.049 l
1035.99 138.429 l
1044.15 132.813 l
1046.51 131.5 l
1048.37 130.706 l
1049.98 130.257 l
1051.46 130.069 l
1052.91 130.109 l
1054.39 130.374 l
1055.97 130.89 l
1057.77 131.715 l
1059.97 132.982 l
1063.06 135.044 l
1075.8 143.792 l
1080.69 146.749 l
1085.71 149.525 l
1091 152.193 l
1096.65 154.791 l
1102.72 157.336 l
1109.26 159.834 l
1116.32 162.292 l
1123.95 164.706 l
1132.17 167.076 l
1141.03 169.395 l
1150.57 171.659 l
1160.81 173.858 l
1171.77 175.982 l
1183.46 178.02 l
1195.91 179.961 l
1209.09 181.79 l
1223 183.495 l
1237.62 185.06 l
1252.91 186.472 l
1268.83 187.717 l
1285.3 188.782 l
1296 189.358 l
1296 189.358 l
stroke
grestore
0.000 0.750 0.750 setrgbcolor
gsave
1116 577.4 180 72.18 clipbox
180 187.668 m
196.236 187.557 l
212.383 187.225 l
228.341 186.674 l
244.01 185.913 l
259.303 184.948 l
274.137 183.79 l
288.443 182.453 l
302.163 180.948 l
315.251 179.291 l
327.677 177.496 l
339.418 175.577 l
350.466 173.549 l
360.821 171.424 l
370.495 169.215 l
379.504 166.932 l
387.874 164.584 l
395.635 162.18 l
402.822 159.722 l
409.475 157.215 l
415.639 154.658 l
421.364 152.044 l
426.709 149.361 l
431.751 146.583 l
436.609 143.652 l
441.545 140.41 l
448.493 135.538 l
452.513 132.857 l
454.883 131.533 l
456.751 130.736 l
458.371 130.28 l
459.864 130.088 l
461.315 130.124 l
462.796 130.386 l
464.385 130.899 l
466.188 131.722 l
468.392 132.985 l
471.488 135.039 l
484.277 143.773 l
489.157 146.706 l
494.165 149.458 l
499.443 152.101 l
505.072 154.669 l
511.112 157.179 l
517.613 159.637 l
524.621 162.046 l
532.173 164.404 l
540.306 166.709 l
549.052 168.954 l
558.438 171.131 l
568.484 173.231 l
579.205 175.243 l
590.609 177.155 l
602.692 178.953 l
615.442 180.624 l
628.836 182.154 l
642.84 183.528 l
657.405 184.732 l
672.471 185.754 l
687.967 186.582 l
703.812 187.205 l
719.914 187.615 l
736.174 187.807 l
752.489 187.777 l
768.755 187.525 l
784.866 187.054 l
800.725 186.369 l
816.236 185.477 l
831.315 184.389 l
845.889 183.116 l
859.895 181.671 l
873.282 180.068 l
886.013 178.321 l
898.063 176.446 l
909.42 174.456 l
920.08 172.365 l
930.049 170.185 l
939.344 167.928 l
947.988 165.602 l
956.007 163.217 l
963.436 160.779 l
970.313 158.29 l
976.68 155.752 l
982.586 153.161 l
988.084 150.508 l
993.244 147.774 l
998.16 144.917 l
1003.01 141.84 l
1008.38 138.158 l
1015.99 132.925 l
1018.39 131.573 l
1020.27 130.759 l
1021.9 130.292 l
1023.4 130.09 l
1024.85 130.117 l
1026.33 130.371 l
1027.91 130.872 l
1029.7 131.682 l
1031.89 132.924 l
1034.93 134.933 l
1048.25 144.015 l
1053.13 146.93 l
1058.16 149.672 l
1063.46 152.31 l
1069.12 154.875 l
1075.2 157.382 l
1081.74 159.838 l
1088.79 162.246 l
1096.39 164.604 l
1104.58 166.908 l
1113.38 169.152 l
1122.83 171.328 l
1132.93 173.426 l
1143.72 175.436 l
1155.19 177.346 l
1167.35 179.142 l
1180.17 180.811 l
1193.64 182.338 l
1207.72 183.708 l
1222.37 184.91 l
1237.51 185.928 l
1253.09 186.751 l
1269.01 187.37 l
1285.19 187.776 l
1296 187.925 l
1296 187.925 l
stroke
grestore
0 setlinejoin
0.000 setgray
gsave
180 649.62 m
1296 649.62 l
stroke
grestore
gsave
1296 72.18 m
1296 649.62 l
stroke
grestore
gsave
180 72.18 m
1296 72.18 l
stroke
grestore
gsave
180 72.18 m
180 649.62 l
stroke
grestore
0.500 setlinewidth
1 setlinejoin
0 setlinecap
gsave
/o {
gsave
newpath
translate
0.5 setlinewidth
1 setlinejoin
0 setlinecap
0 0 m
0 4 l
gsave
0.000 setgray
fill
grestore
stroke
grestore
} bind def
180 72.18 o
grestore
gsave
/o {
gsave
newpath
translate
0.5 setlinewidth
1 setlinejoin
0 setlinecap
0 0 m
0 -4 l
gsave
0.000 setgray
fill
grestore
stroke
grestore
} bind def
180 649.62 o
grestore
/BitstreamVeraSans-Roman findfont
12.000 scalefont
setfont
gsave
176.976562 59.055000 translate
0.000000 rotate
0.000000 0.000000 m /zero glyphshow
grestore
gsave
/o {
gsave
newpath
translate
0.5 setlinewidth
1 setlinejoin
0 setlinecap
0 0 m
0 4 l
gsave
0.000 setgray
fill
grestore
stroke
grestore
} bind def
403.2 72.18 o
grestore
gsave
/o {
gsave
newpath
translate
0.5 setlinewidth
1 setlinejoin
0 setlinecap
0 0 m
0 -4 l
gsave
0.000 setgray
fill
grestore
stroke
grestore
} bind def
403.2 649.62 o
grestore
gsave
400.418750 59.055000 translate
0.000000 rotate
0.000000 0.000000 m /two glyphshow
grestore
gsave
/o {
gsave
newpath
translate
0.5 setlinewidth
1 setlinejoin
0 setlinecap
0 0 m
0 4 l
gsave
0.000 setgray
fill
grestore
stroke
grestore
} bind def
626.4 72.18 o
grestore
gsave
/o {
gsave
newpath
translate
0.5 setlinewidth
1 setlinejoin
0 setlinecap
0 0 m
0 -4 l
gsave
0.000 setgray
fill
grestore
stroke
grestore
} bind def
626.4 649.62 o
grestore
gsave
623.212500 59.055000 translate
0.000000 rotate
0.000000 0.000000 m /four glyphshow
grestore
gsave
/o {
gsave
newpath
translate
0.5 setlinewidth
1 setlinejoin
0 setlinecap
0 0 m
0 4 l
gsave
0.000 setgray
fill
grestore
stroke
grestore
} bind def
849.6 72.18 o
grestore
gsave
/o {
gsave
newpath
translate
0.5 setlinewidth
1 setlinejoin
0 setlinecap
0 0 m
0 -4 l
gsave
0.000 setgray
fill
grestore
stroke
grestore
} bind def
849.6 649.62 o
grestore
gsave
846.584375 59.055000 translate
0.000000 rotate
0.000000 0.000000 m /six glyphshow
grestore
gsave
/o {
gsave
newpath
translate
0.5 setlinewidth
1 setlinejoin
0 setlinecap
0 0 m
0 4 l
gsave
0.000 setgray
fill
grestore
stroke
grestore
} bind def
1072.8 72.18 o
grestore
gsave
/o {
gsave
newpath
translate
0.5 setlinewidth
1 setlinejoin
0 setlinecap
0 0 m
0 -4 l
gsave
0.000 setgray
fill
grestore
stroke
grestore
} bind def
1072.8 649.62 o
grestore
gsave
1069.800000 59.055000 translate
0.000000 rotate
0.000000 0.000000 m /eight glyphshow
grestore
gsave
/o {
gsave
newpath
translate
0.5 setlinewidth
1 setlinejoin
0 setlinecap
0 0 m
0 4 l
gsave
0.000 setgray
fill
grestore
stroke
grestore
} bind def
1296 72.18 o
grestore
gsave
/o {
gsave
newpath
translate
0.5 setlinewidth
1 setlinejoin
0 setlinecap
0 0 m
0 -4 l
gsave
0.000 setgray
fill
grestore
stroke
grestore
} bind def
1296 649.62 o
grestore
gsave
1289.414062 59.055000 translate
0.000000 rotate
0.000000 0.000000 m /one glyphshow
7.634766 0.000000 m /zero glyphshow
grestore
/BitstreamVeraSans-Roman findfont
14.000 scalefont
setfont
gsave
735.609375 40.914375 translate
0.000000 rotate
0.000000 0.000000 m /t glyphshow
grestore
gsave
/o {
gsave
newpath
translate
0.5 setlinewidth
1 setlinejoin
0 setlinecap
0 0 m
4 0 l
gsave
0.000 setgray
fill
grestore
stroke
grestore
} bind def
180 72.18 o
grestore
gsave
/o {
gsave
newpath
translate
0.5 setlinewidth
1 setlinejoin
0 setlinecap
0 0 m
-4 0 l
gsave
0.000 setgray
fill
grestore
stroke
grestore
} bind def
1296 72.18 o
grestore
/BitstreamVeraSans-Roman findfont
12.000 scalefont
setfont
gsave
169.953125 68.867500 translate
0.000000 rotate
0.000000 0.000000 m /zero glyphshow
grestore
gsave
/o {
gsave
newpath
translate
0.5 setlinewidth
1 setlinejoin
0 setlinecap
0 0 m
4 0 l
gsave
0.000 setgray
fill
grestore
stroke
grestore
} bind def
180 187.668 o
grestore
gsave
/o {
gsave
newpath
translate
0.5 setlinewidth
1 setlinejoin
0 setlinecap
0 0 m
-4 0 l
gsave
0.000 setgray
fill
grestore
stroke
grestore
} bind def
1296 187.668 o
grestore
gsave
170.437500 184.355500 translate
0.000000 rotate
0.000000 0.000000 m /two glyphshow
grestore
gsave
/o {
gsave
newpath
translate
0.5 setlinewidth
1 setlinejoin
0 setlinecap
0 0 m
4 0 l
gsave
0.000 setgray
fill
grestore
stroke
grestore
} bind def
180 303.156 o
grestore
gsave
/o {
gsave
newpath
translate
0.5 setlinewidth
1 setlinejoin
0 setlinecap
0 0 m
-4 0 l
gsave
0.000 setgray
fill
grestore
stroke
grestore
} bind def
1296 303.156 o
grestore
gsave
169.625000 299.843500 translate
0.000000 rotate
0.000000 0.000000 m /four glyphshow
grestore
gsave
/o {
gsave
newpath
translate
0.5 setlinewidth
1 setlinejoin
0 setlinecap
0 0 m
4 0 l
gsave
0.000 setgray
fill
grestore
stroke
grestore
} bind def
180 418.644 o
grestore
gsave
/o {
gsave
newpath
translate
0.5 setlinewidth
1 setlinejoin
0 setlinecap
0 0 m
-4 0 l
gsave
0.000 setgray
fill
grestore
stroke
grestore
} bind def
1296 418.644 o
grestore
gsave
169.968750 415.331500 translate
0.000000 rotate
0.000000 0.000000 m /six glyphshow
grestore
gsave
/o {
gsave
newpath
translate
0.5 setlinewidth
1 setlinejoin
0 setlinecap
0 0 m
4 0 l
gsave
0.000 setgray
fill
grestore
stroke
grestore
} bind def
180 534.132 o
grestore
gsave
/o {
gsave
newpath
translate
0.5 setlinewidth
1 setlinejoin
0 setlinecap
0 0 m
-4 0 l
gsave
0.000 setgray
fill
grestore
stroke
grestore
} bind def
1296 534.132 o
grestore
gsave
170.000000 530.819500 translate
0.000000 rotate
0.000000 0.000000 m /eight glyphshow
grestore
gsave
/o {
gsave
newpath
translate
0.5 setlinewidth
1 setlinejoin
0 setlinecap
0 0 m
4 0 l
gsave
0.000 setgray
fill
grestore
stroke
grestore
} bind def
180 649.62 o
grestore
gsave
/o {
gsave
newpath
translate
0.5 setlinewidth
1 setlinejoin
0 setlinecap
0 0 m
-4 0 l
gsave
0.000 setgray
fill
grestore
stroke
grestore
} bind def
1296 649.62 o
grestore
gsave
162.828125 646.307500 translate
0.000000 rotate
0.000000 0.000000 m /one glyphshow
7.634766 0.000000 m /zero glyphshow
grestore
/BitstreamVeraSans-Roman findfont
14.000 scalefont
setfont
gsave
154.921875 357.189063 translate
90.000000 rotate
0.000000 0.000000 m /x glyphshow
grestore
gsave
728.960938 654.620000 translate
0.000000 rotate
0.000000 0.000000 m /x glyphshow
8.285156 0.000000 m /hyphen glyphshow
13.336914 0.000000 m /t glyphshow
grestore
1.000 setlinewidth
0 setlinejoin
gsave
1152.02 555.113 m
1288.8 555.113 l
1288.8 642.42 l
1152.02 642.42 l
cl
gsave
1.000 setgray
fill
grestore
stroke
grestore
1 setlinejoin
2 setlinecap
0.000 0.000 1.000 setrgbcolor
gsave
1162.1 631.059 m
1182.26 631.059 l
stroke
grestore
0.000 setgray
/BitstreamVeraSans-Roman findfont
14.400 scalefont
setfont
gsave
1198.102500 626.019375 translate
0.000000 rotate
0.000000 0.000000 m /t glyphshow
5.636292 0.000000 m /space glyphshow
10.205688 0.000000 m /equal glyphshow
22.250366 0.000000 m /space glyphshow
26.819763 0.000000 m /zero glyphshow
35.965576 0.000000 m /period glyphshow
40.534973 0.000000 m /zero glyphshow
49.680786 0.000000 m /one glyphshow
grestore
0.000 0.500 0.000 setrgbcolor
gsave
1162.1 610.312 m
1182.26 610.312 l
stroke
grestore
0.000 setgray
gsave
1198.102500 605.272500 translate
0.000000 rotate
0.000000 0.000000 m /t glyphshow
5.636292 0.000000 m /space glyphshow
10.205688 0.000000 m /equal glyphshow
22.250366 0.000000 m /space glyphshow
26.819763 0.000000 m /zero glyphshow
35.965576 0.000000 m /period glyphshow
40.534973 0.000000 m /zero glyphshow
49.680786 0.000000 m /zero glyphshow
58.826599 0.000000 m /one glyphshow
grestore
1.000 0.000 0.000 setrgbcolor
gsave
1162.1 589.566 m
1182.26 589.566 l
stroke
grestore
0.000 setgray
gsave
1198.102500 584.525625 translate
0.000000 rotate
0.000000 0.000000 m /t glyphshow
5.636292 0.000000 m /space glyphshow
10.205688 0.000000 m /equal glyphshow
22.250366 0.000000 m /space glyphshow
26.819763 0.000000 m /zero glyphshow
35.965576 0.000000 m /period glyphshow
40.534973 0.000000 m /zero glyphshow
49.680786 0.000000 m /zero glyphshow
58.826599 0.000000 m /zero glyphshow
67.972412 0.000000 m /one glyphshow
grestore
0.000 0.750 0.750 setrgbcolor
gsave
1162.1 568.819 m
1182.26 568.819 l
stroke
grestore
0.000 setgray
gsave
1198.102500 563.778750 translate
0.000000 rotate
0.000000 0.000000 m /t glyphshow
5.636292 0.000000 m /space glyphshow
10.205688 0.000000 m /equal glyphshow
22.250366 0.000000 m /space glyphshow
26.819763 0.000000 m /zero glyphshow
35.965576 0.000000 m /period glyphshow
40.534973 0.000000 m /zero glyphshow
49.680786 0.000000 m /zero glyphshow
58.826599 0.000000 m /zero glyphshow
67.972412 0.000000 m /zero glyphshow
77.118225 0.000000 m /one glyphshow
grestore

end
showpage
